0-angry=47**aa12.0.0.0.50.12.0.0.0.50_ab_ac_ba50_bb5.1_bc150.500.8.0.1_bd5_be180_ca50.0.26.62.18.40.36.38.34_cb0_da3.0.0.100_db_dd9.3.45.50.45.50_dh1.30.71.43.3_di8_qa_qb_dc0.1.3.3.3_eh4.49_ea29.49.49.56.0.0_ec9.14.49.49.56.64.66.1_ed41.100.1.1.49.56_ef_eg_r0024.53.56.56.1.0.100.100.0.500.613.0_fa1.49.60.70.25.65.56_fb_fh1_fc0.50.55.0.50.55.37.61.61.37.50.50_fd16.0.11.49.56_fe52.62_ff0000000000_fg1.41_pa0.0.0.0.35.50.81.82.0.0_t00_pb_pc_pd_pe_ga0_gb0_gc0.0_ge0000000000_gh_gf_gg_gd10000000_ha89.89_hb50.1.44.99_hc2.31.39.2.31.39_hd23.1.50.100_ia_if_ib_id_ic_jc_ie_ja_jb_jd3.6.6.50_je3.6.6.50_jf_jg7.55.55.0_ka27.6.6.3.0_kb_kc_kd_ke_kf_la_lb25.59.55.0.1.1.50_oa_os_ob_oc_od_oe_of_lc_m0025.55.3.0.2.1.30.1.0.79.3.61_n00_s00_og7.55.55.0_oh_oo_op_oq_or_om_on_ok_ol_oi_oj_ad0.0.0.0.0.0.0.0.0.0
0-calm=47**aa12.0.0.0.50.12.0.0.0.50_ab_ac_ba50_bb5.1_bc237.500.8.0.1_bd5_be180_ca50.0.26.62.18.40.36.38.34_cb0_da3.0.0.100_db_dd9.3.45.50.45.50_dh1.30.71.43.3_di8_qa_qb_dc0.1.3.3.3_eh4.49_ea29.49.49.56.0.0_ec9.14.49.49.56.64.66.1_ed41.100.1.1.49.56_ef_eg_r0024.53.56.56.1.0.100.100.0.500.613.0_fa1.49.60.70.25.65.56_fb_fh1_fc0.50.55.0.50.55.37.61.61.37.50.50_fd16.0.11.49.56_fe52.62_ff0000000000_fg1.41_pa0.0.0.0.35.50.81.82.0.0_t00_pb_pc_pd_pe_ga0_gb0_gc0.0_ge0000000000_gh_gf_gg_gd10000000_ha89.89_hb49.1.44.99_hc0.59.39.0.59.39_hd0.1.49.49_ia_if_ib_id_ic_jc_ie_ja_jb_jd3.6.6.50_je3.6.6.50_jf_jg7.55.43.43_ka27.6.6.3.0_kb_kc_kd_ke_kf_la_lb25.59.55.0.1.1.50_oa_os_ob_oc_od_oe_of_lc_m0025.55.3.0.2.1.30.1.0.79.3.61_n00_s00_og7.55.26.2_oh_oo_op_oq_or_om_on_ok_ol_oi_oj_ad0.0.0.0.0.0.0.0.0.0
0-embarrassed=47**aa12.84.0.0.50.12.84.0.0.50_ab_ac_ba50_bb5.1_bc325.500.8.0.1_bd5_be180_ca50.0.26.62.18.40.36.38.34_cb0_da3.0.0.100_db_dd9.3.45.50.45.50_dh1.30.71.43.3_di8_qa_qb_dc0.1.3.3.3_eh4.49_ea29.49.49.56.0.0_ec9.14.49.49.56.64.66.1_ed41.100.1.1.49.56_ef_eg_r0024.53.56.56.1.0.100.100.0.500.613.0_fa1.50.60.70.25.65.56_fb_fh1_fc0.50.55.0.50.55.37.61.61.37.50.50_fd16.0.11.49.56_fe52.62_ff0000000000_fg1.41_pa0.0.0.0.35.50.81.82.0.0_t00_pb_pc_pd_pe_ga0_gb0_gc52.0_ge0000000000_gh_gf_gg_gd10000000_ha89.89_hb100.1.0.99_hc0.59.39.0.59.39_hd0.1.49.49_ia_if_ib_id_ic_jc_ie_ja_jb_jd3.6.6.50_je3.6.6.50_jf_jg7.55.56.0_ka27.6.6.0.0_kb_kc_kd_ke_kf_la_lb25.59.55.0.1.1.50_oa_os_ob_oc_od_oe_of_lc_m0025.55.3.0.2.1.30.1.0.79.3.61_n00_s00_og7.55.56.0_oh_oo_op_oq_or_om_on_ok_ol_oi_oj_ad0.0.0.0.0.0.0.0.0.0
0-excited=47**aa14.57.0.16.50.14.57.0.16.50_ab_ac_ba50_bb5.1_bc412.500.8.0.1_bd5_be180_ca50.0.26.62.18.40.36.38.34_cb0_da3.0.0.100_db_dd8.3.50.50.45.50_dh1.30.71.43.3_di8_qa_qb_dc11.1.3.3.3_eh4.49_ea29.49.49.56.0.0_ec9.14.49.49.56.64.66.1_ed41.100.1.1.49.56_ef_eg_r0024.53.56.56.1.0.100.100.0.500.613.0_fa1.49.60.70.25.65.56_fb_fh1_fc0.50.55.0.50.55.37.61.61.37.50.50_fd16.0.34.49.56_fe55.51_ff0000000000_fg1.41_pa0.0.0.0.35.50.81.82.0.0_t00_pb_pc_pd_pe_ga0_gb0_gc0.0_ge0000000000_gh_gf_gg_gd10000000_ha89.89_hb50.1.44.99_hc0.31.39.0.31.39_hd35.1.50.100_ia_if_ib_id_ic_jc_ie_ja_jb_jd3.6.6.50_je3.6.6.50_jf_jg7.55.56.0_ka27.6.6.0.0_kb_kc_kd_ke_kf_la_lb25.59.55.0.1.1.50_oa_os_ob_oc_od_oe_of_lc_m0025.55.3.0.2.1.30.1.0.79.3.61_n00_s00_og7.55.56.0_oh_oo_op_oq_or_om_on_ok_ol_oi_oj_ad0.0.0.0.0.0.0.0.0.0
0-happy=47**aa14.85.0.16.50.14.85.0.16.50_ab_ac_ba50_bb5.1_bc500.500.8.0.1_bd5_be180_ca50.0.26.62.18.40.36.38.34_cb0_da3.0.0.100_db_dd9.3.50.50.45.50_dh1.30.71.43.3_di8_qa_qb_dc11.1.3.3.3_eh4.49_ea29.49.49.56.0.0_ec9.14.49.49.56.64.66.1_ed41.100.1.1.49.56_ef_eg_r0024.53.56.56.1.0.100.100.0.500.613.0_fa1.49.60.70.25.65.56_fb_fh1_fc0.50.55.0.50.55.37.61.61.37.50.50_fd16.0.6.49.56_fe55.51_ff0000000000_fg1.41_pa0.0.0.0.35.50.81.82.0.0_t00_pb_pc_pd_pe_ga0_gb0_gc0.0_ge0000000000_gh_gf_gg_gd10000000_ha89.89_hb50.1.44.99_hc0.31.39.0.31.39_hd1.1.50.100_ia_if_ib_id_ic_jc_ie_ja_jb_jd3.6.6.50_je3.6.6.50_jf_jg7.55.56.0_ka27.6.6.17.0_kb_kc_kd_ke_kf_la_lb25.59.55.0.1.1.50_oa_os_ob_oc_od_oe_of_lc_m0025.55.3.0.2.1.30.1.0.79.3.61_n00_s00_og7.55.56.0_oh_oo_op_oq_or_om_on_ok_ol_oi_oj_ad0.0.0.0.0.0.0.0.0.0
0-horny=47**aa16.83.0.16.50.16.83.0.16.50_ab_ac_ba50_bb5.1_bc587.500.8.0.1_bd5_be180_ca50.0.26.62.18.40.36.38.34_cb0_da3.0.0.100_db_dd9.3.50.50.45.50_dh1.30.71.43.3_di8_qa_qb_dc11.1.3.3.3_eh4.49_ea29.49.49.56.0.0_ec9.14.49.49.56.64.66.1_ed41.100.1.1.49.56_ef_eg_r0024.53.56.56.1.0.100.100.0.500.613.0_fa1.49.60.70.25.65.56_fb_fh1_fc0.50.55.0.50.55.37.61.61.37.50.50_fd16.0.6.49.56_fe55.51_ff0000000000_fg1.41_pa0.0.0.0.35.50.81.82.0.0_t00_pb_pc_pd_pe_ga0_gb0_gc39.0_ge0000000000_gh_gf_gg_gd11000010_ha89.89_hb50.1.44.99_hc0.31.39.0.31.39_hd25.1.82.63_ia_if_ib_id_ic_jc_ie_ja_jb_jd3.6.6.50_je3.6.6.50_jf_jg7.55.56.0_ka27.6.6.1.0_kb_kc_kd_ke_kf_la_lb25.59.55.0.1.1.50_oa_os_ob_oc_od_oe_of_lc_m0025.55.3.0.2.1.30.1.0.79.3.61_n00_s00_og7.55.56.0_oh_oo_op_oq_or_om_on_ok_ol_oi_oj_ad0.0.0.0.0.0.0.0.0.0
0-interested=47**aa16.83.0.16.50.16.83.0.16.50_ab_ac_ba50_bb5.1_bc675.500.8.0.1_bd5_be180_ca50.0.26.62.18.40.36.38.34_cb0_da3.0.0.100_db_dd9.3.50.50.45.50_dh1.30.71.43.3_di8_qa_qb_dc11.1.3.3.3_eh4.49_ea29.49.49.56.0.0_ec9.14.49.49.56.64.66.1_ed41.100.1.1.49.56_ef_eg_r0024.53.56.56.1.0.100.100.0.500.613.0_fa1.49.60.70.25.65.56_fb_fh1_fc0.50.55.0.50.55.37.61.61.37.50.50_fd16.0.6.49.56_fe55.51_ff0000000000_fg1.41_pa0.0.0.0.35.50.81.82.0.0_t00_pb_pc_pd_pe_ga0_gb0_gc0.0_ge0000000000_gh_gf_gg_gd11000000_ha89.89_hb50.1.44.99_hc0.28.90.0.28.90_hd21.1.0.0_ia_if_ib_id_ic_jc_ie_ja_jb_jd3.6.6.50_je3.6.6.50_jf_jg7.55.56.0_ka27.6.6.32.0_kb_kc_kd_ke_kf_la_lb25.59.55.0.1.1.50_oa_os_ob_oc_od_oe_of_lc_m0025.55.3.0.2.1.30.1.0.79.3.61_n00_s00_og7.55.56.0_oh_oo_op_oq_or_om_on_ok_ol_oi_oj_ad0.0.0.0.0.0.0.0.0.0
0-loss=47**aa16.83.0.16.50.16.83.0.16.50_ab_ac_ba50_bb5.1_bc762.500.8.0.1_bd5_be180_ca50.0.26.62.18.40.36.38.34_cb0_da3.0.0.100_db_dd9.3.50.50.45.50_dh1.30.71.43.3_di8_qa_qb_dc11.1.3.3.3_eh4.49_ea29.49.49.56.0.0_ec9.14.49.49.56.64.66.1_ed41.100.1.1.49.56_ef_eg_r0024.53.56.56.1.0.100.100.0.500.613.0_fa1.49.60.70.25.100.56_fb_fh1_fc0.50.55.0.50.55.37.61.61.37.50.50_fd16.0.6.49.56_fe55.51_ff0000000000_fg1.41_pa0.0.0.0.35.50.81.82.0.0_t00_pb_pc_pd_pe_ga0_gb0_gc0.0_ge0000000000_gh_gf_gg_gd11000000_ha89.89_hb49.1.0.100_hc3.68.45.3.68.45_hd4.1.100.100_ia_if_ib_id_ic_jc_ie_ja_jb_jd3.6.6.50_je3.6.6.50_jf_jg7.55.56.0_ka27.6.6.59.0_kb_kc_kd_ke_kf_la_lb25.59.55.0.1.1.50_oa_os_ob_oc_od_oe_of_lc_m0025.55.3.0.2.1.30.1.0.79.3.61_n00_s00_og7.55.56.0_oh_oo_op_oq_or_om_on_ok_ol_oi_oj_ad0.0.0.0.0.0.0.0.0.0
0-sad=47**aa16.83.0.16.50.16.83.0.16.50_ab_ac_ba50_bb5.1_bc850.500.8.0.1_bd5_be180_ca50.0.26.62.18.40.36.38.34_cb0_da3.0.0.100_db_dd9.3.50.50.45.50_dh1.30.71.43.3_di8_qa_qb_dc11.1.3.3.3_eh4.49_ea29.49.49.56.0.0_ec9.14.49.49.56.64.66.1_ed41.100.1.1.49.56_ef_eg_r0024.53.56.56.1.0.100.100.0.500.613.0_fa1.49.60.70.25.100.56_fb_fh1_fc0.50.55.0.50.55.37.61.61.37.50.50_fd16.0.11.49.56_fe55.51_ff0000000000_fg1.41_pa0.0.0.0.35.50.81.82.0.0_t00_pb_pc_pd_pe_ga0_gb0_gc0.0_ge0000000000_gh_gf_gg_gd10000000_ha89.89_hb49.1.0.100_hc4.100.56.4.100.56_hd4.1.100.100_ia_if_ib_id_ic_jc_ie_ja_jb_jd3.6.6.50_je3.6.6.50_jf_jg7.55.56.0_ka27.6.6.0.0_kb_kc_kd_ke_kf_la_lb25.59.55.0.1.1.50_oa_os_ob_oc_od_oe_of_lc_m0025.55.3.0.2.1.30.1.0.79.3.61_n00_s00_og7.55.56.0_oh_oo_op_oq_or_om_on_ok_ol_oi_oj_ad0.0.0.0.0.0.0.0.0.0
0-shocked=47**aa19.49.0.28.50.19.49.0.28.50_ab_ac_ba50_bb5.1_bc150.500.8.0.1_bd5_be180_ca50.0.26.62.18.40.36.38.34_cb0_da3.0.0.100_db_dd9.3.50.50.45.50_dh1.30.71.43.3_di8_qa_qb_dc11.1.3.3.3_eh4.49_ea29.49.49.56.0.0_ec9.14.49.49.56.64.66.1_ed41.100.1.1.49.56_ef_eg_r0024.53.56.56.1.0.100.100.0.500.613.0_fa1.49.50.70.60.100.56_fb_fh1_fc0.50.55.0.50.55.37.61.61.37.50.50_fd16.0.11.49.56_fe55.51_ff0000000000_fg1.41_pa0.0.0.0.35.50.81.82.0.0_t00_pb_pc_pd_pe_ga0_gb0_gc41.0_ge0000000000_gh_gf_gg_gd10000000_ha100.100_hb50.1.36.97_hc0.64.62.0.64.62_hd36.1.100.100_ia_if_ib_id_ic_jc_ie_ja_jb_jd3.6.6.50_je3.6.6.50_jf_jg7.55.55.0_ka27.6.6.3.0_kb_kc_kd_ke_kf_la_lb25.59.55.0.1.1.50_oa_os_ob_oc_od_oe_of_lc_m0025.55.3.0.2.1.30.1.0.79.3.61_n00_s00_og7.55.55.0_oh_oo_op_oq_or_om_on_ok_ol_oi_oj_ad0.0.0.0.0.0.0.0.0.0
0-strip=47**aa31.68.1.26.50.24.70.1.16.50_ab_ac_ba50_bb5.1_bc185.200.0.0.1_bd5_be180_ca50.0.26.62.18.40.36.38.34_cb0_da3.0.0.100_db_dd9.3.45.50.45.50_dh1.30.71.43.3_di8_qa_qb_dc0.1.3.3.3_eh4.49_ea29.49.49.56.0.0_ec9.14.49.49.56.64.66.1_ed41.100.1.1.49.56_ef_eg_r0024.53.56.56.1.0.100.100.0.500.613.0_fa1.49.60.70.25.65.56_fb_fh1_fc0.50.55.0.50.55.37.61.61.37.50.50_fd16.0.11.49.56_fe52.62_ff0000000000_fg1.41_pa0.0.0.0.35.50.81.82.0.0_t00_pb_pc_pd_pe_ga0_gb0_gc0.0_ge0000000000_gh_gf_gg_gd10000000_ha89.89_hb49.1.44.99_hc0.59.39.0.59.39_hd0.1.49.49_ia_if_ib_id_ic_jc_ie_ja_jb_jd3.6.6.61_je3.6.6.61_jf_jg7.55.55.0_ka27.6.6.3.0_kb_kc_kd_ke_kf_la_lb25.59.55.0.1.1.50_oa_os_ob_oc_od_oe_of_lc_m0025.55.3.0.2.1.30.1.0.79.3.61_n00_s00_og7.55.55.0_oh_oo_op_oq_or_om_on_ok_ol_oi_oj_ad0.0.0.0.0.0.0.0.0.0

1-angry=47**aa12.0.0.0.50.12.0.0.0.50_ab_ac_ba50_bb5.1_bc150.500.8.0.1_bd5_be180_ca50.0.26.62.18.40.36.38.34_cb0_da3.0.0.100_db_dd9.3.45.50.45.50_dh1.30.71.43.3_di8_qa_qb_dc0.1.3.3.3_eh4.49_ea29.49.49.56.0.0_ec9.14.49.49.56.64.66.1_ed41.100.1.1.49.56_ef_eg_r0024.53.56.56.1.0.100.100.0.500.613.0_fa1.49.60.70.25.65.56_fb_fh1_fc0.50.55.0.50.55.37.61.61.37.50.50_fd16.0.11.49.56_fe52.62_ff0000000000_fg1.41_pa0.0.0.0.35.50.81.82.0.0_t00_pb_pc_pd_pe_ga0_gb0_gc0.0_ge0100000000_gh_gf_gg_gd10000000_ha89.89_hb50.1.44.99_hc2.31.39.2.31.39_hd23.1.50.100_ia_if_ib_id_ic_jc_ie_ja_jb_jd3.6.6.50_je3.6.6.50_jf_jg7.55.55.0_ka27.6.6.3.0_kb_kc_kd_ke_kf_la_lb25.59.55.0.1.1.50_oa_os_ob_oc_od_oe_of_lc_m0025.55.3.0.2.1.30.1.0.79.3.61_n00_s00_og_oh_oo_op_oq_or_om_on_ok_ol_oi_oj_ad0.0.0.0.0.0.0.0.0.0
1-calm=47**aa12.0.0.0.50.12.0.0.0.50_ab_ac_ba50_bb5.1_bc237.500.8.0.1_bd5_be180_ca50.0.26.62.18.40.36.38.34_cb0_da3.0.0.100_db_dd9.3.45.50.45.50_dh1.30.71.43.3_di8_qa_qb_dc0.1.3.3.3_eh4.49_ea29.49.49.56.0.0_ec9.14.49.49.56.64.66.1_ed41.100.1.1.49.56_ef_eg_r0024.53.56.56.1.0.100.100.0.500.613.0_fa1.49.60.70.25.65.56_fb_fh1_fc0.50.55.0.50.55.37.61.61.37.50.50_fd16.0.11.49.56_fe52.62_ff0000000000_fg1.41_pa0.0.0.0.35.50.81.82.0.0_t00_pb_pc_pd_pe_ga0_gb0_gc0.0_ge0000000000_gh_gf_gg_gd10000000_ha89.89_hb49.1.44.99_hc0.59.39.0.59.39_hd0.1.49.49_ia_if_ib_id_ic_jc_ie_ja_jb_jd3.6.6.50_je3.6.6.50_jf_jg7.55.43.43_ka27.6.6.3.0_kb_kc_kd_ke_kf_la_lb25.59.55.0.1.1.50_oa_os_ob_oc_od_oe_of_lc_m0025.55.3.0.2.1.30.1.0.79.3.61_n00_s00_og_oh_oo_op_oq_or_om_on_ok_ol_oi_oj_ad0.0.0.0.0.0.0.0.0.0
1-embarrassed=47**aa12.84.0.0.50.12.84.0.0.50_ab_ac_ba50_bb5.1_bc325.500.8.0.1_bd5_be180_ca50.0.26.62.18.40.36.38.34_cb0_da3.0.0.100_db_dd9.3.45.50.45.50_dh1.30.71.43.3_di8_qa_qb_dc0.1.3.3.3_eh4.49_ea29.49.49.56.0.0_ec9.14.49.49.56.64.66.1_ed41.100.1.1.49.56_ef_eg_r0024.53.56.56.1.0.100.100.0.500.613.0_fa1.50.60.70.25.65.56_fb_fh1_fc0.50.55.0.50.55.37.61.61.37.50.50_fd16.0.11.49.56_fe52.62_ff0000000000_fg1.41_pa0.0.0.0.35.50.81.82.0.0_t00_pb_pc_pd_pe_ga0_gb0_gc52.0_ge0000000000_gh_gf_gg_gd10000000_ha89.89_hb100.1.0.99_hc0.59.39.0.59.39_hd0.1.49.49_ia_if_ib_id_ic_jc_ie_ja_jb_jd3.6.6.50_je3.6.6.50_jf_jg7.55.56.0_ka27.6.6.0.0_kb_kc_kd_ke_kf_la_lb25.59.55.0.1.1.50_oa_os_ob_oc_od_oe_of_lc_m0025.55.3.0.2.1.30.1.0.79.3.61_n00_s00_og_oh_oo_op_oq_or_om_on_ok_ol_oi_oj_ad0.0.0.0.0.0.0.0.0.0
1-excited=47**aa14.57.0.16.50.14.57.0.16.50_ab_ac_ba50_bb5.1_bc412.500.8.0.1_bd5_be180_ca50.0.26.62.18.40.36.38.34_cb0_da3.0.0.100_db_dd8.3.50.50.45.50_dh1.30.71.43.3_di8_qa_qb_dc11.1.3.3.3_eh4.49_ea29.49.49.56.0.0_ec9.14.49.49.56.64.66.1_ed41.100.1.1.49.56_ef_eg_r0024.53.56.56.1.0.100.100.0.500.613.0_fa1.49.60.70.25.65.56_fb_fh1_fc0.50.55.0.50.55.37.61.61.37.50.50_fd16.0.34.49.56_fe55.51_ff0000000000_fg1.41_pa0.0.0.0.35.50.81.82.0.0_t00_pb_pc_pd_pe_ga0_gb0_gc23.0_ge0000000000_gh_gf_gg_gd10000000_ha89.89_hb50.1.44.99_hc0.31.39.0.31.39_hd35.1.50.100_ia_if_ib_id_ic_jc_ie_ja_jb_jd3.6.6.50_je3.6.6.50_jf_jg7.55.56.0_ka27.6.6.0.0_kb_kc_kd_ke_kf_la_lb25.59.55.0.1.1.50_oa_os_ob_oc_od_oe_of_lc_m0025.55.3.0.2.1.30.1.0.79.3.61_n00_s00_og_oh_oo_op_oq_or_om_on_ok_ol_oi_oj_ad0.0.0.0.0.0.0.0.0.0
1-happy=47**aa14.85.0.16.50.14.85.0.16.50_ab_ac_ba50_bb5.1_bc500.500.8.0.1_bd5_be180_ca50.0.26.62.18.40.36.38.34_cb0_da3.0.0.100_db_dd9.3.50.50.45.50_dh1.30.71.43.3_di8_qa_qb_dc11.1.3.3.3_eh4.49_ea29.49.49.56.0.0_ec9.14.49.49.56.64.66.1_ed41.100.1.1.49.56_ef_eg_r0024.53.56.56.1.0.100.100.0.500.613.0_fa1.49.60.70.25.65.56_fb_fh1_fc0.50.55.0.50.55.37.61.61.37.50.50_fd16.0.6.49.56_fe55.51_ff0000000000_fg1.41_pa0.0.0.0.35.50.81.82.0.0_t00_pb_pc_pd_pe_ga0_gb0_gc0.0_ge0000000000_gh_gf_gg_gd10000000_ha16.16_hb50.1.44.99_hc0.48.39.0.48.39_hd25.1.50.100_ia_if_ib_id_ic_jc_ie_ja_jb_jd3.6.6.50_je3.6.6.50_jf_jg7.55.56.0_ka27.6.6.17.0_kb_kc_kd_ke_kf_la_lb25.59.55.0.1.1.50_oa_os_ob_oc_od_oe_of_lc_m0025.55.3.0.2.1.30.1.0.79.3.61_n00_s00_og_oh_oo_op_oq_or_om_on_ok_ol_oi_oj_ad0.0.0.0.0.0.0.0.0.0
1-horny=47**aa16.83.0.16.50.16.83.0.16.50_ab_ac_ba50_bb5.1_bc587.500.8.0.1_bd5_be180_ca50.0.26.62.18.40.36.38.34_cb0_da3.0.0.100_db_dd9.3.50.50.45.50_dh1.30.71.43.3_di8_qa_qb_dc11.1.3.3.3_eh4.49_ea29.49.49.56.0.0_ec9.14.49.49.56.64.66.1_ed41.100.1.1.49.56_ef_eg_r0024.53.56.56.1.0.100.100.0.500.613.0_fa1.49.60.70.25.65.56_fb_fh1_fc0.50.55.0.50.55.37.61.61.37.50.50_fd16.0.6.49.56_fe55.51_ff0000000000_fg1.41_pa0.0.0.0.35.50.81.82.0.0_t00_pb_pc_pd_pe_ga0_gb0_gc39.0_ge0000000000_gh_gf_gg_gd11000010_ha89.89_hb50.1.44.99_hc0.31.39.0.31.39_hd25.1.82.63_ia_if_ib_id_ic_jc_ie_ja_jb_jd3.6.6.50_je3.6.6.50_jf_jg7.55.56.0_ka27.6.6.1.0_kb_kc_kd_ke_kf_la_lb25.59.55.0.1.1.50_oa_os_ob_oc_od_oe_of_lc_m0025.55.3.0.2.1.30.1.0.79.3.61_n00_s00_og_oh_oo_op_oq_or_om_on_ok_ol_oi_oj_ad0.0.0.0.0.0.0.0.0.0
1-interested=47**aa16.83.0.16.50.16.83.0.16.50_ab_ac_ba50_bb5.1_bc675.500.8.0.1_bd5_be180_ca50.0.26.62.18.40.36.38.34_cb0_da3.0.0.100_db_dd9.3.50.50.45.50_dh1.30.71.43.3_di8_qa_qb_dc11.1.3.3.3_eh4.49_ea29.49.49.56.0.0_ec9.14.49.49.56.64.66.1_ed41.100.1.1.49.56_ef_eg_r0024.53.56.56.1.0.100.100.0.500.613.0_fa1.49.60.70.25.65.56_fb_fh1_fc0.50.55.0.50.55.37.61.61.37.50.50_fd16.0.6.49.56_fe55.51_ff0000000000_fg1.41_pa0.0.0.0.35.50.81.82.0.0_t00_pb_pc_pd_pe_ga0_gb0_gc0.0_ge0000000000_gh_gf_gg_gd11000000_ha89.89_hb50.1.44.99_hc0.28.90.0.28.90_hd21.1.0.0_ia_if_ib_id_ic_jc_ie_ja_jb_jd3.6.6.50_je3.6.6.50_jf_jg7.55.56.0_ka27.6.6.32.0_kb_kc_kd_ke_kf_la_lb25.59.55.0.1.1.50_oa_os_ob_oc_od_oe_of_lc_m0025.55.3.0.2.1.30.1.0.79.3.61_n00_s00_og_oh_oo_op_oq_or_om_on_ok_ol_oi_oj_ad0.0.0.0.0.0.0.0.0.0
1-loss=47**aa16.83.0.16.50.16.83.0.16.50_ab_ac_ba50_bb5.1_bc762.500.8.0.1_bd5_be180_ca50.0.26.62.18.40.36.38.34_cb0_da3.0.0.100_db_dd9.3.50.50.45.50_dh1.30.71.43.3_di8_qa_qb_dc11.1.3.3.3_eh4.49_ea29.49.49.56.0.0_ec9.14.49.49.56.64.66.1_ed41.100.1.1.49.56_ef_eg_r0024.53.56.56.1.0.100.100.0.500.613.0_fa1.49.60.70.25.100.56_fb_fh1_fc0.50.55.0.50.55.37.61.61.37.50.50_fd16.0.6.49.56_fe55.51_ff0000000000_fg1.41_pa0.0.0.0.35.50.81.82.0.0_t00_pb_pc_pd_pe_ga0_gb0_gc0.0_ge0000000000_gh_gf_gg_gd11000000_ha89.89_hb49.1.0.100_hc3.68.45.3.68.45_hd4.1.100.100_ia_if_ib_id_ic_jc_ie_ja_jb_jd3.6.6.50_je3.6.6.50_jf_jg7.55.56.0_ka27.6.6.59.0_kb_kc_kd_ke_kf_la_lb25.59.55.0.1.1.50_oa_os_ob_oc_od_oe_of_lc_m0025.55.3.0.2.1.30.1.0.79.3.61_n00_s00_og_oh_oo_op_oq_or_om_on_ok_ol_oi_oj_ad0.0.0.0.0.0.0.0.0.0
1-sad=47**aa16.83.0.16.50.16.83.0.16.50_ab_ac_ba50_bb5.1_bc850.500.8.0.1_bd5_be180_ca50.0.26.62.18.40.36.38.34_cb0_da3.0.0.100_db_dd9.3.50.50.45.50_dh1.30.71.43.3_di8_qa_qb_dc11.1.3.3.3_eh4.49_ea29.49.49.56.0.0_ec9.14.49.49.56.64.66.1_ed41.100.1.1.49.56_ef_eg_r0024.53.56.56.1.0.100.100.0.500.613.0_fa1.49.60.70.25.100.56_fb_fh1_fc0.50.55.0.50.55.37.61.61.37.50.50_fd16.0.11.49.56_fe55.51_ff0000000000_fg1.41_pa0.0.0.0.35.50.81.82.0.0_t00_pb_pc_pd_pe_ga0_gb0_gc0.0_ge0000000000_gh_gf_gg_gd10000000_ha89.89_hb49.1.0.100_hc4.100.56.4.100.56_hd4.1.100.100_ia_if_ib_id_ic_jc_ie_ja_jb_jd3.6.6.50_je3.6.6.50_jf_jg7.55.56.0_ka27.6.6.0.0_kb_kc_kd_ke_kf_la_lb25.59.55.0.1.1.50_oa_os_ob_oc_od_oe_of_lc_m0025.55.3.0.2.1.30.1.0.79.3.61_n00_s00_og_oh_oo_op_oq_or_om_on_ok_ol_oi_oj_ad0.0.0.0.0.0.0.0.0.0
1-shocked=47**aa19.49.0.28.50.19.49.0.28.50_ab_ac_ba50_bb5.1_bc150.500.8.0.1_bd5_be180_ca50.0.26.62.18.40.36.38.34_cb0_da3.0.0.100_db_dd9.3.50.50.45.50_dh1.30.71.43.3_di8_qa_qb_dc11.1.3.3.3_eh4.49_ea29.49.49.56.0.0_ec9.14.49.49.56.64.66.1_ed41.100.1.1.49.56_ef_eg_r0024.53.56.56.1.0.100.100.0.500.613.0_fa1.49.50.70.60.100.56_fb_fh1_fc0.50.55.0.50.55.37.61.61.37.50.50_fd16.0.11.49.56_fe55.51_ff0000000000_fg1.41_pa0.0.0.0.35.50.81.82.0.0_t00_pb_pc_pd_pe_ga0_gb0_gc41.0_ge0000000000_gh_gf_gg_gd10000000_ha100.100_hb50.1.36.97_hc0.64.62.0.64.62_hd36.1.100.100_ia_if_ib_id_ic_jc_ie_ja_jb_jd3.6.6.50_je3.6.6.50_jf_jg7.55.55.0_ka27.6.6.3.0_kb_kc_kd_ke_kf_la_lb25.59.55.0.1.1.50_oa_os_ob_oc_od_oe_of_lc_m0025.55.3.0.2.1.30.1.0.79.3.61_n00_s00_og_oh_oo_op_oq_or_om_on_ok_ol_oi_oj_ad0.0.0.0.0.0.0.0.0.0
1-strip=47**aa18.85.1.16.50.12.98.1.0.50_ab_ac_ba50_bb5.1_bc185.200.0.0.1_bd97_be180_ca50.0.26.62.18.40.36.38.34_cb0_da3.0.0.100_db_dd9.3.45.50.45.50_dh1.30.71.43.3_di8_qa_qb_dc0.1.3.3.3_eh4.49_ea29.49.49.56.0.0_ec9.14.49.49.56.64.66.1_ed41.100.1.1.49.56_ef_eg_r0024.53.56.56.1.0.100.100.0.500.613.0_fa1.49.60.70.25.65.56_fb_fh1_fc0.50.55.0.50.55.37.61.61.37.50.50_fd16.0.11.49.56_fe52.62_ff0000000000_fg1.41_pa0.0.0.0.35.50.81.82.0.0_t00_pb_pc_pd_pe_ga0_gb0_gc0.0_ge0000000000_gh_gf_gg_gd10000000_ha89.89_hb49.1.44.99_hc0.59.39.0.59.39_hd0.1.49.49_ia_if_ib_id_ic_jc_ie_ja_jb_jd3.6.6.61_je3.6.6.61_jf_jg7.55.55.0_ka27.6.6.3.0_kb_kc_kd_ke_kf_la_lb25.59.55.0.1.1.50_oa_os_ob_oc_od_oe_of_lc_m0025.55.3.0.2.1.30.1.0.79.3.61_n00_s00_og_oh_oo_op_oq_or_om_on_ok_ol_oi_oj_ad0.0.0.0.0.0.0.0.0.0

2-angry=47**aa12.0.0.0.50.12.0.0.0.50_ab_ac_ba50_bb5.1_bc150.500.8.0.1_bd5_be180_ca50.0.26.62.18.40.36.38.34_cb0_da3.0.0.100_db_dd9.3.45.50.45.50_dh1.30.71.43.3_di8_qa_qb_dc0.1.3.3.3_eh4.49_ea29.49.49.56.0.0_ec9.14.49.49.56.64.66.1_ed41.100.1.1.49.56_ef_eg_r0024.53.56.56.1.0.100.100.0.500.613.0_fa1.49.60.70.25.65.56_fb_fh1_fc0.50.55.0.50.55.37.61.61.37.50.50_fd16.0.11.49.56_fe52.62_ff0000000000_fg1.41_pa0.0.0.0.35.50.81.82.0.0_t00_pb_pc_pd_pe_ga0_gb0_gc0.0_ge0100000000_gh_gf_gg_gd10000000_ha89.89_hb50.1.44.99_hc2.31.39.2.31.39_hd23.1.50.100_ia_if_ib_id_ic_jc_ie_ja_jb_jd3.6.6.50_je3.6.6.50_jf_jg_ka27.6.6.3.0_kb_kc_kd_ke_kf_la_lb25.59.55.0.1.1.50_oa_os_ob_oc_od_oe_of_lc_m0025.55.3.0.2.1.30.1.0.79.3.61_n00_s00_og_oh_oo_op_oq_or_om_on_ok_ol_oi_oj_ad0.0.0.0.0.0.0.0.0.0
2-calm=47**aa12.0.0.0.50.12.0.0.0.50_ab_ac_ba50_bb5.1_bc237.500.8.0.1_bd5_be180_ca50.0.26.62.18.40.36.38.34_cb0_da3.0.0.100_db_dd9.3.45.50.45.50_dh1.30.71.43.3_di8_qa_qb_dc0.1.3.3.3_eh4.49_ea29.49.49.56.0.0_ec9.14.49.49.56.64.66.1_ed41.100.1.1.49.56_ef_eg_r0024.53.56.56.1.0.100.100.0.500.613.0_fa1.49.60.70.25.65.56_fb_fh1_fc0.50.55.0.50.55.37.61.61.37.50.50_fd16.0.11.49.56_fe52.62_ff0000000000_fg1.41_pa0.0.0.0.35.50.81.82.0.0_t00_pb_pc_pd_pe_ga0_gb0_gc0.0_ge0000000000_gh_gf_gg_gd10000000_ha89.89_hb49.1.44.99_hc0.59.39.0.59.39_hd0.1.49.49_ia_if_ib_id_ic_jc_ie_ja_jb_jd3.6.6.50_je3.6.6.50_jf_jg_ka27.6.6.3.0_kb_kc_kd_ke_kf_la_lb25.59.55.0.1.1.50_oa_os_ob_oc_od_oe_of_lc_m0025.55.3.0.2.1.30.1.0.79.3.61_n00_s00_og_oh_oo_op_oq_or_om_on_ok_ol_oi_oj_ad0.0.0.0.0.0.0.0.0.0
2-embarrassed=47**aa12.84.0.0.50.12.84.0.0.50_ab_ac_ba50_bb5.1_bc325.500.8.0.1_bd5_be180_ca50.0.26.62.18.40.36.38.34_cb0_da3.0.0.100_db_dd9.3.45.50.45.50_dh1.30.71.43.3_di8_qa_qb_dc0.1.3.3.3_eh4.49_ea29.49.49.56.0.0_ec9.14.49.49.56.64.66.1_ed41.100.1.1.49.56_ef_eg_r0024.53.56.56.1.0.100.100.0.500.613.0_fa1.50.60.70.25.65.56_fb_fh1_fc0.50.55.0.50.55.37.61.61.37.50.50_fd16.0.11.49.56_fe52.62_ff0000000000_fg1.41_pa0.0.0.0.35.50.81.82.0.0_t00_pb_pc_pd_pe_ga0_gb0_gc52.0_ge0000000000_gh_gf_gg_gd10000000_ha89.89_hb100.1.0.99_hc0.59.39.0.59.39_hd0.1.49.49_ia_if_ib_id_ic_jc_ie_ja_jb_jd3.6.6.50_je3.6.6.50_jf_jg_ka27.6.6.0.0_kb_kc_kd_ke_kf_la_lb25.59.55.0.1.1.50_oa_os_ob_oc_od_oe_of_lc_m0025.55.3.0.2.1.30.1.0.79.3.61_n00_s00_og_oh_oo_op_oq_or_om_on_ok_ol_oi_oj_ad0.0.0.0.0.0.0.0.0.0
2-excited=47**aa14.57.0.16.50.14.57.0.16.50_ab_ac_ba50_bb5.1_bc412.500.8.0.1_bd5_be180_ca50.0.26.62.18.40.36.38.34_cb0_da3.0.0.100_db_dd9.3.50.50.45.50_dh1.30.71.43.3_di8_qa_qb_dc11.1.3.3.3_eh4.49_ea29.49.49.56.0.0_ec9.14.49.49.56.64.66.1_ed41.100.1.1.49.56_ef_eg_r0024.53.56.56.1.0.100.100.0.500.613.0_fa1.49.60.70.25.65.56_fb_fh1_fc0.50.55.0.50.55.37.61.61.37.50.50_fd16.0.34.49.56_fe55.51_ff0000000000_fg1.41_pa0.0.0.0.35.50.81.82.0.0_t00_pb_pc_pd_pe_ga0_gb1_gc23.0_ge0000000000_gh_gf_gg_gd10000000_ha100.100_hb50.1.44.99_hc0.31.39.0.31.39_hd24.1.54.100_ia_if_ib_id_ic_jc_ie_ja_jb_jd3.6.6.50_je3.6.6.50_jf_jg_ka27.6.6.0.0_kb_kc_kd_ke_kf_la_lb25.59.55.0.1.1.50_oa_os_ob_oc_od_oe_of_lc_m0025.55.3.0.2.1.30.1.0.79.3.61_n00_s00_og_oh_oo_op_oq_or_om_on_ok_ol_oi_oj_ad0.0.0.0.0.0.0.0.0.0
2-happy=47**aa14.85.0.16.50.14.85.0.16.50_ab_ac_ba50_bb5.1_bc500.500.8.0.1_bd5_be180_ca50.0.26.62.18.40.36.38.34_cb0_da3.0.0.100_db_dd9.3.50.50.45.50_dh1.30.71.43.3_di8_qa_qb_dc11.1.3.3.3_eh4.49_ea29.49.49.56.0.0_ec9.14.49.49.56.64.66.1_ed41.100.1.1.49.56_ef_eg_r0024.53.56.56.1.0.100.100.0.500.613.0_fa1.49.60.70.25.65.56_fb_fh1_fc0.50.55.0.50.55.37.61.61.37.50.50_fd16.0.6.49.56_fe55.51_ff0000000000_fg1.41_pa0.0.0.0.35.50.81.82.0.0_t00_pb_pc_pd_pe_ga0_gb0_gc0.0_ge0000000000_gh_gf_gg_gd10000000_ha16.16_hb50.1.44.99_hc0.48.39.0.48.39_hd25.1.50.100_ia_if_ib_id_ic_jc_ie_ja_jb_jd3.6.6.50_je3.6.6.50_jf_jg_ka27.6.6.17.0_kb_kc_kd_ke_kf_la_lb25.59.55.0.1.1.50_oa_os_ob_oc_od_oe_of_lc_m0025.55.3.0.2.1.30.1.0.79.3.61_n00_s00_og_oh_oo_op_oq_or_om_on_ok_ol_oi_oj_ad0.0.0.0.0.0.0.0.0.0
2-horny=47**aa16.83.0.16.50.16.83.0.16.50_ab_ac_ba50_bb5.1_bc587.500.8.0.1_bd5_be180_ca50.0.26.62.18.40.36.38.34_cb0_da3.0.0.100_db_dd9.3.50.50.45.50_dh1.30.71.43.3_di8_qa_qb_dc11.1.3.3.3_eh4.49_ea29.49.49.56.0.0_ec9.14.49.49.56.64.66.1_ed41.100.1.1.49.56_ef_eg_r0024.53.56.56.1.0.100.100.0.500.613.0_fa1.49.60.70.25.65.56_fb_fh1_fc0.50.55.0.50.55.37.61.61.37.50.50_fd16.0.6.49.56_fe55.51_ff0000000000_fg1.41_pa0.0.0.0.35.50.81.82.0.0_t00_pb_pc_pd_pe_ga0_gb0_gc39.0_ge0000000000_gh_gf_gg_gd11000010_ha89.89_hb50.1.44.99_hc0.31.39.0.31.39_hd25.1.82.63_ia_if_ib_id_ic_jc_ie_ja_jb_jd3.6.6.50_je3.6.6.50_jf_jg_ka27.6.6.1.0_kb_kc_kd_ke_kf_la_lb25.59.55.0.1.1.50_oa_os_ob_oc_od_oe_of_lc_m0025.55.3.0.2.1.30.1.0.79.3.61_n00_s00_og_oh_oo_op_oq_or_om_on_ok_ol_oi_oj_ad0.0.0.0.0.0.0.0.0.0
2-interested=47**aa16.83.0.16.50.16.83.0.16.50_ab_ac_ba50_bb5.1_bc675.500.8.0.1_bd5_be180_ca50.0.26.62.18.40.36.38.34_cb0_da3.0.0.100_db_dd9.3.50.50.45.50_dh1.30.71.43.3_di8_qa_qb_dc11.1.3.3.3_eh4.49_ea29.49.49.56.0.0_ec9.14.49.49.56.64.66.1_ed41.100.1.1.49.56_ef_eg_r0024.53.56.56.1.0.100.100.0.500.613.0_fa1.49.60.70.25.65.56_fb_fh1_fc0.50.55.0.50.55.37.61.61.37.50.50_fd16.0.6.49.56_fe55.51_ff0000000000_fg1.41_pa0.0.0.0.35.50.81.82.0.0_t00_pb_pc_pd_pe_ga0_gb0_gc0.0_ge0000000000_gh_gf_gg_gd11000000_ha89.89_hb50.1.44.99_hc0.28.90.0.28.90_hd21.1.0.0_ia_if_ib_id_ic_jc_ie_ja_jb_jd3.6.6.50_je3.6.6.50_jf_jg_ka27.6.6.32.0_kb_kc_kd_ke_kf_la_lb25.59.55.0.1.1.50_oa_os_ob_oc_od_oe_of_lc_m0025.55.3.0.2.1.30.1.0.79.3.61_n00_s00_og_oh_oo_op_oq_or_om_on_ok_ol_oi_oj_ad0.0.0.0.0.0.0.0.0.0
2-loss=47**aa16.83.0.16.50.16.83.0.16.50_ab_ac_ba50_bb5.1_bc762.500.8.0.1_bd5_be180_ca50.0.26.62.18.40.36.38.34_cb0_da3.0.0.100_db_dd9.3.50.50.45.50_dh1.30.71.43.3_di8_qa_qb_dc11.1.3.3.3_eh4.49_ea29.49.49.56.0.0_ec9.14.49.49.56.64.66.1_ed41.100.1.1.49.56_ef_eg_r0024.53.56.56.1.0.100.100.0.500.613.0_fa1.49.60.70.25.100.56_fb_fh1_fc0.50.55.0.50.55.37.61.61.37.50.50_fd16.0.6.49.56_fe55.51_ff0000000000_fg1.41_pa0.0.0.0.35.50.81.82.0.0_t00_pb_pc_pd_pe_ga0_gb0_gc0.0_ge0000000000_gh_gf_gg_gd11000000_ha89.89_hb49.1.0.100_hc3.68.45.3.68.45_hd4.1.100.100_ia_if_ib_id_ic_jc_ie_ja_jb_jd3.6.6.50_je3.6.6.50_jf_jg_ka27.6.6.59.0_kb_kc_kd_ke_kf_la_lb25.59.55.0.1.1.50_oa_os_ob_oc_od_oe_of_lc_m0025.55.3.0.2.1.30.1.0.79.3.61_n00_s00_og_oh_oo_op_oq_or_om_on_ok_ol_oi_oj_ad0.0.0.0.0.0.0.0.0.0
2-sad=47**aa16.83.0.16.50.16.83.0.16.50_ab_ac_ba50_bb5.1_bc850.500.8.0.1_bd5_be180_ca50.0.26.62.18.40.36.38.34_cb0_da3.0.0.100_db_dd9.3.50.50.45.50_dh1.30.71.43.3_di8_qa_qb_dc11.1.3.3.3_eh4.49_ea29.49.49.56.0.0_ec9.14.49.49.56.64.66.1_ed41.100.1.1.49.56_ef_eg_r0024.53.56.56.1.0.100.100.0.500.613.0_fa1.49.60.70.25.100.56_fb_fh1_fc0.50.55.0.50.55.37.61.61.37.50.50_fd16.0.11.49.56_fe55.51_ff0000000000_fg1.41_pa0.0.0.0.35.50.81.82.0.0_t00_pb_pc_pd_pe_ga0_gb0_gc0.0_ge0000000000_gh_gf_gg_gd10000000_ha89.89_hb49.1.0.100_hc4.100.56.4.100.56_hd4.1.100.100_ia_if_ib_id_ic_jc_ie_ja_jb_jd3.6.6.50_je3.6.6.50_jf_jg_ka27.6.6.0.0_kb_kc_kd_ke_kf_la_lb25.59.55.0.1.1.50_oa_os_ob_oc_od_oe_of_lc_m0025.55.3.0.2.1.30.1.0.79.3.61_n00_s00_og_oh_oo_op_oq_or_om_on_ok_ol_oi_oj_ad0.0.0.0.0.0.0.0.0.0
2-shocked=47**aa19.49.0.28.50.19.49.0.28.50_ab_ac_ba50_bb5.1_bc150.500.8.0.1_bd5_be180_ca50.0.26.62.18.40.36.38.34_cb0_da3.0.0.100_db_dd9.3.50.50.45.50_dh1.30.71.43.3_di8_qa_qb_dc11.1.3.3.3_eh4.49_ea29.49.49.56.0.0_ec9.14.49.49.56.64.66.1_ed41.100.1.1.49.56_ef_eg_r0024.53.56.56.1.0.100.100.0.500.613.0_fa1.49.50.70.60.100.56_fb_fh1_fc0.50.55.0.50.55.37.61.61.37.50.50_fd16.0.11.49.56_fe55.51_ff0000000000_fg1.41_pa0.0.0.0.35.50.81.82.0.0_t00_pb_pc_pd_pe_ga0_gb0_gc41.0_ge0000000000_gh_gf_gg_gd10000000_ha100.100_hb50.1.36.97_hc0.64.62.0.64.62_hd36.1.100.100_ia_if_ib_id_ic_jc_ie_ja_jb_jd3.6.6.50_je3.6.6.50_jf_jg_ka27.6.6.3.0_kb_kc_kd_ke_kf_la_lb25.59.55.0.1.1.50_oa_os_ob_oc_od_oe_of_lc_m0025.55.3.0.2.1.30.1.0.79.3.61_n00_s00_og_oh_oo_op_oq_or_om_on_ok_ol_oi_oj_ad0.0.0.0.0.0.0.0.0.0
2-strip=47**aa12.0.0.0.50.12.0.0.0.50_ab_ac_ba50_bb5.1_bc185.200.0.0.1_bd5_be180_ca50.0.26.62.18.40.36.38.34_cb0_da3.0.0.100_db_dd9.3.45.50.45.50_dh1.30.71.43.3_di8_qa_qb_dc0.1.3.3.3_eh4.49_ea29.49.49.56.0.0_ec9.14.49.49.56.64.66.1_ed41.100.1.1.49.56_ef_eg_r0024.53.56.56.1.0.100.100.0.500.613.0_fa1.49.60.70.25.65.56_fb_fh1_fc0.50.55.0.50.55.37.61.61.37.50.50_fd16.0.11.49.56_fe52.62_ff0000000000_fg1.41_pa0.0.0.0.35.50.81.82.0.0_t00_pb_pc_pd_pe_ga0_gb0_gc0.0_ge0000000000_gh_gf_gg_gd10000000_ha89.89_hb49.1.44.99_hc0.59.39.0.59.39_hd0.1.49.49_ia_if_ib_id_ic_jc_ie_ja_jb_jd3.6.6.61_je3.6.6.61_jf_jg_ka27.6.6.3.0_kb_kc_kd_ke_kf_la_lb25.59.55.0.1.1.50_oa_os_ob_oc_od_oe_of_lc_m0025.55.3.0.2.1.30.1.0.79.3.61_n00_s00_og_oh_oo_op_oq_or_om_on_ok_ol_oi_oj_ad0.0.0.0.0.0.0.0.0.0

3-angry=47**aa12.0.0.0.50.12.0.0.0.50_ab_ac_ba50_bb5.1_bc150.500.8.0.1_bd5_be180_ca50.0.26.62.18.40.36.38.34_cb0_da3.0.0.100_db_dd9.3.45.50.45.50_dh1.30.71.43.3_di8_qa_qb_dc0.1.3.3.3_eh4.49_ea29.49.49.56.0.0_ec9.14.49.49.56.64.66.1_ed41.100.1.1.49.56_ef_eg_r0024.53.56.56.1.0.100.100.0.500.613.0_fa1.49.60.70.25.65.56_fb_fh1_fc0.50.55.0.50.55.37.61.61.37.50.50_fd16.0.11.49.56_fe52.62_ff0000000000_fg1.41_pa0.0.0.0.35.50.81.82.0.0_t00_pb_pc_pd_pe_ga0_gb0_gc0.0_ge0100000000_gh_gf_gg_gd10000000_ha89.89_hb50.1.44.99_hc2.31.39.2.31.39_hd23.1.50.100_ia_if_ib_id_ic_jc_ie_ja_jb_jd_je_jf_jg_ka27.6.6.3.0_kb_kc_kd_ke_kf_la_lb25.59.55.0.1.1.50_oa_os_ob_oc_od_oe_of_lc_m0025.55.3.0.2.1.30.1.0.79.3.61_n00_s00_og_oh_oo_op_oq_or_om_on_ok_ol_oi_oj_ad0.0.0.0.0.0.0.0.0.0
3-calm=47**aa12.89.0.0.50.12.89.0.0.50_ab_ac_ba50_bb5.1_bc237.500.8.0.1_bd5_be180_ca50.0.26.62.18.40.36.38.34_cb0_da3.0.0.100_db_dd9.3.45.50.45.50_dh1.30.71.43.3_di8_qa_qb_dc0.1.3.3.3_eh4.49_ea29.49.49.56.0.0_ec9.14.49.49.56.64.66.1_ed41.100.1.1.49.56_ef_eg_r0024.53.56.56.1.0.100.100.0.500.613.0_fa1.49.60.70.25.65.56_fb_fh1_fc0.50.55.0.50.55.37.61.61.37.50.50_fd16.0.11.49.56_fe52.62_ff0000000000_fg1.41_pa0.0.0.0.35.50.81.82.0.0_t00_pb_pc_pd_pe_ga0_gb0_gc0.0_ge0000000000_gh_gf_gg_gd10000000_ha89.89_hb49.1.44.99_hc0.59.39.0.59.39_hd0.1.49.49_ia_if_ib_id_ic_jc_ie_ja_jb_jd_je_jf_jg_ka27.6.6.3.0_kb_kc_kd_ke_kf_la_lb25.59.55.0.1.1.50_oa_os_ob_oc_od_oe_of_lc_m0025.55.3.0.2.1.30.1.0.79.3.61_n00_s00_og_oh_oo_op_oq_or_om_on_ok_ol_oi_oj_ad0.0.0.0.0.0.0.0.0.0
3-embarrassed=47**aa12.84.0.0.50.12.84.0.0.50_ab_ac_ba50_bb5.1_bc325.500.8.0.1_bd5_be180_ca50.0.26.62.18.40.36.38.34_cb0_da3.0.0.100_db_dd9.3.45.50.45.50_dh1.30.71.43.3_di8_qa_qb_dc0.1.3.3.3_eh4.49_ea29.49.49.56.0.0_ec9.14.49.49.56.64.66.1_ed41.100.1.1.49.56_ef_eg_r0024.53.56.56.1.0.100.100.0.500.613.0_fa1.50.60.70.25.65.56_fb_fh1_fc0.50.55.0.50.55.37.61.61.37.50.50_fd16.0.11.49.56_fe52.62_ff0000000000_fg1.41_pa0.0.0.0.35.50.81.82.0.0_t00_pb_pc_pd_pe_ga0_gb0_gc52.0_ge0000000000_gh_gf_gg_gd10000000_ha89.89_hb100.1.0.99_hc0.59.39.0.59.39_hd0.1.49.49_ia_if_ib_id_ic_jc_ie_ja_jb_jd_je_jf_jg_ka27.6.6.0.0_kb_kc_kd_ke_kf_la_lb25.59.55.0.1.1.50_oa_os_ob_oc_od_oe_of_lc_m0025.55.3.0.2.1.30.1.0.79.3.61_n00_s00_og_oh_oo_op_oq_or_om_on_ok_ol_oi_oj_ad0.0.0.0.0.0.0.0.0.0
3-excited=47**aa14.57.0.16.50.14.57.0.16.50_ab_ac_ba50_bb5.1_bc412.500.8.0.1_bd5_be180_ca50.0.26.62.18.40.36.38.34_cb0_da3.0.0.100_db_dd9.3.50.50.45.50_dh1.30.71.43.3_di8_qa_qb_dc11.1.3.3.3_eh4.49_ea29.49.49.56.0.0_ec9.14.49.49.56.64.66.1_ed41.100.1.1.49.56_ef_eg_r0024.53.56.56.1.0.100.100.0.500.613.0_fa1.49.60.70.25.65.56_fb_fh1_fc0.50.55.0.50.55.37.61.61.37.50.50_fd16.0.34.49.56_fe55.51_ff0000000000_fg1.41_pa0.0.0.0.35.50.81.82.0.0_t00_pb_pc_pd_pe_ga0_gb1_gc23.0_ge0000000000_gh_gf_gg_gd10000000_ha100.100_hb50.1.44.99_hc0.31.39.0.31.39_hd24.1.54.100_ia_if_ib_id_ic_jc_ie_ja_jb_jd_je_jf_jg_ka27.6.6.0.0_kb_kc_kd_ke_kf_la_lb25.59.55.0.1.1.50_oa_os_ob_oc_od_oe_of_lc_m0025.55.3.0.2.1.30.1.0.79.3.61_n00_s00_og_oh_oo_op_oq_or_om_on_ok_ol_oi_oj_ad0.0.0.0.0.0.0.0.0.0
3-happy=47**aa14.85.0.16.50.14.85.0.16.50_ab_ac_ba50_bb5.1_bc500.500.8.0.1_bd5_be180_ca50.0.26.62.18.40.36.38.34_cb0_da3.0.0.100_db_dd9.3.50.50.45.50_dh1.30.71.43.3_di8_qa_qb_dc11.1.3.3.3_eh4.49_ea29.49.49.56.0.0_ec9.14.49.49.56.64.66.1_ed41.100.1.1.49.56_ef_eg_r0024.53.56.56.1.0.100.100.0.500.613.0_fa1.49.60.70.25.65.56_fb_fh1_fc0.50.55.0.50.55.37.61.61.37.50.50_fd16.0.6.49.56_fe55.51_ff0000000000_fg1.41_pa0.0.0.0.35.50.81.82.0.0_t00_pb_pc_pd_pe_ga0_gb0_gc0.0_ge0000000000_gh_gf_gg_gd10000000_ha16.16_hb50.1.44.99_hc0.48.39.0.48.39_hd25.1.50.100_ia_if_ib_id_ic_jc_ie_ja_jb_jd_je_jf_jg_ka27.6.6.17.0_kb_kc_kd_ke_kf_la_lb25.59.55.0.1.1.50_oa_os_ob_oc_od_oe_of_lc_m0025.55.3.0.2.1.30.1.0.79.3.61_n00_s00_og_oh_oo_op_oq_or_om_on_ok_ol_oi_oj_ad0.0.0.0.0.0.0.0.0.0
3-horny=47**aa16.83.0.16.50.16.83.0.16.50_ab_ac_ba50_bb5.1_bc587.500.8.0.1_bd5_be180_ca50.0.26.62.18.40.36.38.34_cb0_da3.0.0.100_db_dd9.3.50.50.45.50_dh1.30.71.43.3_di8_qa_qb_dc11.1.3.3.3_eh4.49_ea29.49.49.56.0.0_ec9.14.49.49.56.64.66.1_ed41.100.1.1.49.56_ef_eg_r0024.53.56.56.1.0.100.100.0.500.613.0_fa1.49.60.70.25.65.56_fb_fh1_fc0.50.55.0.50.55.37.61.61.37.50.50_fd16.0.6.49.56_fe55.51_ff0000000000_fg1.41_pa0.0.0.0.35.50.81.82.0.0_t00_pb_pc_pd_pe_ga0_gb0_gc39.0_ge0000000000_gh_gf_gg_gd11000010_ha89.89_hb50.1.44.99_hc0.31.39.0.31.39_hd25.1.82.63_ia_if_ib_id_ic_jc_ie_ja_jb_jd_je_jf_jg_ka27.6.6.1.0_kb_kc_kd_ke_kf_la_lb25.59.55.0.1.1.50_oa_os_ob_oc_od_oe_of_lc_m0025.55.3.0.2.1.30.1.0.79.3.61_n00_s00_og_oh_oo_op_oq_or_om_on_ok_ol_oi_oj_ad0.0.0.0.0.0.0.0.0.0
3-interested=47**aa16.83.0.16.50.16.83.0.16.50_ab_ac_ba50_bb5.1_bc675.500.8.0.1_bd5_be180_ca50.0.26.62.18.40.36.38.34_cb0_da3.0.0.100_db_dd9.3.50.50.45.50_dh1.30.71.43.3_di8_qa_qb_dc11.1.3.3.3_eh4.49_ea29.49.49.56.0.0_ec9.14.49.49.56.64.66.1_ed41.100.1.1.49.56_ef_eg_r0024.53.56.56.1.0.100.100.0.500.613.0_fa1.49.60.70.25.65.56_fb_fh1_fc0.50.55.0.50.55.37.61.61.37.50.50_fd16.0.6.49.56_fe55.51_ff0000000000_fg1.41_pa0.0.0.0.35.50.81.82.0.0_t00_pb_pc_pd_pe_ga0_gb0_gc0.0_ge0000000000_gh_gf_gg_gd11000000_ha89.89_hb50.1.44.99_hc0.28.90.0.28.90_hd21.1.0.0_ia_if_ib_id_ic_jc_ie_ja_jb_jd_je_jf_jg_ka27.6.6.32.0_kb_kc_kd_ke_kf_la_lb25.59.55.0.1.1.50_oa_os_ob_oc_od_oe_of_lc_m0025.55.3.0.2.1.30.1.0.79.3.61_n00_s00_og_oh_oo_op_oq_or_om_on_ok_ol_oi_oj_ad0.0.0.0.0.0.0.0.0.0
3-loss=47**aa16.83.0.16.50.16.83.0.16.50_ab_ac_ba50_bb5.1_bc762.500.8.0.1_bd5_be180_ca50.0.26.62.18.40.36.38.34_cb0_da3.0.0.100_db_dd9.3.50.50.45.50_dh1.30.71.43.3_di8_qa_qb_dc11.1.3.3.3_eh4.49_ea29.49.49.56.0.0_ec9.14.49.49.56.64.66.1_ed41.100.1.1.49.56_ef_eg_r0024.53.56.56.1.0.100.100.0.500.613.0_fa1.49.60.70.25.100.56_fb_fh1_fc0.50.55.0.50.55.37.61.61.37.50.50_fd16.0.6.49.56_fe55.51_ff0000000000_fg1.41_pa0.0.0.0.35.50.81.82.0.0_t00_pb_pc_pd_pe_ga0_gb0_gc0.0_ge0000000000_gh_gf_gg_gd11000000_ha89.89_hb49.1.0.100_hc3.68.45.3.68.45_hd4.1.100.100_ia_if_ib_id_ic_jc_ie_ja_jb_jd_je_jf_jg_ka27.6.6.59.0_kb_kc_kd_ke_kf_la_lb25.59.55.0.1.1.50_oa_os_ob_oc_od_oe_of_lc_m0025.55.3.0.2.1.30.1.0.79.3.61_n00_s00_og_oh_oo_op_oq_or_om_on_ok_ol_oi_oj_ad0.0.0.0.0.0.0.0.0.0
3-sad=47**aa16.83.0.16.50.16.83.0.16.50_ab_ac_ba50_bb5.1_bc850.500.8.0.1_bd5_be180_ca50.0.26.62.18.40.36.38.34_cb0_da3.0.0.100_db_dd9.3.50.50.45.50_dh1.30.71.43.3_di8_qa_qb_dc11.1.3.3.3_eh4.49_ea29.49.49.56.0.0_ec9.14.49.49.56.64.66.1_ed41.100.1.1.49.56_ef_eg_r0024.53.56.56.1.0.100.100.0.500.613.0_fa1.49.60.70.25.100.56_fb_fh1_fc0.50.55.0.50.55.37.61.61.37.50.50_fd16.0.11.49.56_fe55.51_ff0000000000_fg1.41_pa0.0.0.0.35.50.81.82.0.0_t00_pb_pc_pd_pe_ga0_gb0_gc0.0_ge0000000000_gh_gf_gg_gd10000000_ha89.89_hb49.1.0.100_hc4.100.56.4.100.56_hd4.1.100.100_ia_if_ib_id_ic_jc_ie_ja_jb_jd_je_jf_jg_ka27.6.6.0.0_kb_kc_kd_ke_kf_la_lb25.59.55.0.1.1.50_oa_os_ob_oc_od_oe_of_lc_m0025.55.3.0.2.1.30.1.0.79.3.61_n00_s00_og_oh_oo_op_oq_or_om_on_ok_ol_oi_oj_ad0.0.0.0.0.0.0.0.0.0
3-shocked=47**aa19.49.0.28.50.19.49.0.28.50_ab_ac_ba50_bb5.1_bc850.500.8.0.1_bd5_be180_ca50.0.26.62.18.40.36.38.34_cb0_da3.0.0.100_db_dd9.3.50.50.45.50_dh1.30.71.43.3_di8_qa_qb_dc11.1.3.3.3_eh4.49_ea29.49.49.56.0.0_ec9.14.49.49.56.64.66.1_ed41.100.1.1.49.56_ef_eg_r0024.53.56.56.1.0.100.100.0.500.613.0_fa1.49.50.70.60.100.56_fb_fh1_fc0.50.55.0.50.55.37.61.61.37.50.50_fd16.0.11.49.56_fe55.51_ff0000000000_fg1.41_pa0.0.0.0.35.50.81.82.0.0_t00_pb_pc_pd_pe_ga0_gb0_gc41.0_ge0000000000_gh_gf_gg_gd10000000_ha100.100_hb50.1.36.97_hc0.64.62.0.64.62_hd36.1.100.100_ia_if_ib_id_ic_jc_ie_ja_jb_jd_je_jf_jg_ka27.6.6.0.0_kb_kc_kd_ke_kf_la_lb25.59.55.0.1.1.50_oa_os_ob_oc_od_oe_of_lc_m0025.55.3.0.2.1.30.1.0.79.3.61_n00_s00_og_oh_oo_op_oq_or_om_on_ok_ol_oi_oj_ad0.0.0.0.0.0.0.0.0.0
3-strip=47**aa75.25.1.8.45.75.25.1.8.45_ab_ac_ba50_bb5.1_bc185.200.0.0.1_bd5_be180_ca50.0.26.62.18.40.36.38.34_cb0_da3.0.0.100_db_dd9.3.45.50.45.50_dh1.30.71.43.3_di8_qa_qb_dc0.1.3.3.3_eh4.49_ea29.49.49.56.0.0_ec9.14.49.49.56.64.66.1_ed41.100.1.1.49.56_ef_eg_r0024.53.56.56.1.0.100.100.0.500.613.0_fa1.49.60.70.25.65.56_fb_fh1_fc0.50.55.0.50.55.37.61.61.37.50.50_fd16.0.11.49.56_fe52.62_ff0000000000_fg1.41_pa0.0.0.0.35.50.81.82.0.0_t00_pb_pc_pd_pe_ga0_gb0_gc0.0_ge0000000000_gh_gf_gg_gd10000000_ha89.89_hb49.1.44.99_hc0.59.39.0.59.39_hd0.1.49.49_ia_if_ib_id_ic_jc_ie_ja_jb_jd_je_jf_jg_ka27.6.6.3.0_kb_kc_kd_ke_kf_la_lb25.59.55.0.1.1.50_oa_os_ob_oc_od_oe_of_lc_m0025.55.3.0.2.1.30.1.0.79.3.61_n00_s00_og_oh_oo_op_oq_or_om_on_ok_ol_oi_oj_ad0.0.0.0.0.0.0.0.0.0

4-angry=47**aa12.0.0.0.50.12.0.0.0.50_ab_ac_ba50_bb5.1_bc150.500.8.0.1_bd5_be180_ca50.0.26.62.18.40.36.38.34_cb0_da3.0.0.100_db_dd9.3.45.50.45.50_dh1.30.71.43.3_di8_qa_qb_dc0.1.3.3.3_eh4.49_ea29.49.49.56.0.0_ec9.14.49.49.56.64.66.1_ed41.100.1.1.49.56_ef_eg_r0024.53.56.56.1.0.100.100.0.500.613.0_fa1.49.60.70.25.65.56_fb_fh1_fc0.50.55.0.50.55.37.61.61.37.50.50_fd16.0.11.49.56_fe52.62_ff0000000000_fg1.41_pa0.0.0.0.35.50.81.82.0.0_t00_pb_pc_pd_pe_ga0_gb0_gc0.0_ge0100000000_gh_gf_gg_gd10000000_ha89.89_hb50.1.44.99_hc2.31.39.2.31.39_hd23.1.50.100_ia_if_ib_id_ic_jc_ie_ja_jb_jd_je_jf_jg_ka27.6.6.3.0_kb_kc_kd_ke_kf_la_lb_oa_os_ob_oc_od_oe_of_lc_m0025.55.3.0.2.1.30.1.0.79.3.61_n00_s00_og_oh_oo_op_oq_or_om_on_ok_ol_oi_oj_ad0.0.0.0.0.0.0.0.0.0
4-calm=47**aa12.89.0.0.50.12.89.0.0.50_ab_ac_ba50_bb5.1_bc237.500.8.0.1_bd5_be180_ca50.0.26.62.18.40.36.38.34_cb0_da3.0.0.100_db_dd9.3.45.50.45.50_dh1.30.71.43.3_di8_qa_qb_dc0.1.3.3.3_eh4.49_ea29.49.49.56.0.0_ec9.14.49.49.56.64.66.1_ed41.100.1.1.49.56_ef_eg_r0024.53.56.56.1.0.100.100.0.500.613.0_fa1.49.60.70.25.65.56_fb_fh1_fc0.50.55.0.50.55.37.61.61.37.50.50_fd16.0.11.49.56_fe52.62_ff0000000000_fg1.41_pa0.0.0.0.35.50.81.82.0.0_t00_pb_pc_pd_pe_ga0_gb0_gc25.0_ge0000000000_gh_gf_gg_gd10000000_ha89.89_hb49.1.44.99_hc0.59.39.0.59.39_hd0.1.49.49_ia_if_ib_id_ic_jc_ie_ja_jb_jd_je_jf_jg_ka27.6.6.3.0_kb_kc_kd_ke_kf_la_lb_oa_os_ob_oc_od_oe_of_lc_m0025.55.3.0.2.1.30.1.0.79.3.61_n00_s00_og_oh_oo_op_oq_or_om_on_ok_ol_oi_oj_ad0.0.0.0.0.0.0.0.0.0
4-embarrassed=47**aa12.84.0.0.50.12.84.0.0.50_ab_ac_ba50_bb5.1_bc325.500.8.0.1_bd5_be180_ca50.0.26.62.18.40.36.38.34_cb0_da3.0.0.100_db_dd9.3.45.50.45.50_dh1.30.71.43.3_di8_qa_qb_dc0.1.3.3.3_eh4.49_ea29.49.49.56.0.0_ec9.14.49.49.56.64.66.1_ed41.100.1.1.49.56_ef_eg_r0024.53.56.56.1.0.100.100.0.500.613.0_fa1.50.60.70.25.65.56_fb_fh1_fc0.50.55.0.50.55.37.61.61.37.50.50_fd16.0.11.49.56_fe52.62_ff0000000000_fg1.41_pa0.0.0.0.35.50.81.82.0.0_t00_pb_pc_pd_pe_ga0_gb0_gc52.0_ge0000000000_gh_gf_gg_gd10000000_ha89.89_hb100.1.0.99_hc0.59.39.0.59.39_hd0.1.49.49_ia_if_ib_id_ic_jc_ie_ja_jb_jd_je_jf_jg_ka27.6.6.0.0_kb_kc_kd_ke_kf_la_lb_oa_os_ob_oc_od_oe_of_lc_m0025.55.3.0.2.1.30.1.0.79.3.61_n00_s00_og_oh_oo_op_oq_or_om_on_ok_ol_oi_oj_ad0.0.0.0.0.0.0.0.0.0
4-excited=47**aa14.57.0.16.50.14.57.0.16.50_ab_ac_ba50_bb5.1_bc412.500.8.0.1_bd5_be180_ca50.0.26.62.18.40.36.38.34_cb0_da3.0.0.100_db_dd9.3.50.50.45.50_dh1.30.71.43.3_di8_qa_qb_dc11.1.3.3.3_eh4.49_ea29.49.49.56.0.0_ec9.14.49.49.56.64.66.1_ed41.100.1.1.49.56_ef_eg_r0024.53.56.56.1.0.100.100.0.500.613.0_fa1.49.60.70.25.65.56_fb_fh1_fc0.50.55.0.50.55.37.61.61.37.50.50_fd16.0.34.49.56_fe55.51_ff0000000000_fg1.41_pa0.0.0.0.35.50.81.82.0.0_t00_pb_pc_pd_pe_ga0_gb1_gc23.0_ge0000000000_gh_gf_gg_gd10000000_ha100.100_hb50.1.44.99_hc0.31.39.0.31.39_hd24.1.54.100_ia_if_ib_id_ic_jc_ie_ja_jb_jd_je_jf_jg_ka27.6.6.0.0_kb_kc_kd_ke_kf_la_lb_oa_os_ob_oc_od_oe_of_lc_m0025.55.3.0.2.1.30.1.0.79.3.61_n00_s00_og_oh_oo_op_oq_or_om_on_ok_ol_oi_oj_ad0.0.0.0.0.0.0.0.0.0
4-happy=47**aa14.84.1.16.50.14.84.1.16.50_ab_ac_ba50_bb5.1_bc500.500.8.0.1_bd5_be180_ca50.0.26.62.18.40.36.38.34_cb0_da3.0.0.100_db_dd9.3.50.50.45.50_dh1.30.71.43.3_di8_qa_qb_dc11.1.3.3.3_eh4.49_ea29.49.49.56.0.0_ec9.14.49.49.56.64.66.1_ed41.100.1.1.49.56_ef_eg_r0024.53.56.56.1.0.100.100.0.500.613.0_fa1.49.60.70.25.65.56_fb_fh1_fc0.50.55.0.50.55.37.61.61.37.50.50_fd16.0.6.49.56_fe55.51_ff0000000000_fg1.41_pa0.0.0.0.35.50.81.82.0.0_t00_pb_pc_pd_pe_ga0_gb0_gc29.0_ge0000000000_gh_gf_gg_gd10000000_ha16.16_hb50.1.44.99_hc0.48.39.0.48.39_hd0.1.50.100_ia_if_ib_id_ic_jc_ie_ja_jb_jd_je_jf_jg_ka27.6.6.17.0_kb_kc_kd_ke_kf_la_lb_oa_os_ob_oc_od_oe_of_lc_m0025.55.3.0.2.1.30.1.0.79.3.61_n00_s00_og_oh_oo_op_oq_or_om_on_ok_ol_oi_oj_ad0.0.0.0.0.0.0.0.0.0
4-horny=47**aa16.83.0.16.50.16.83.0.16.50_ab_ac_ba50_bb5.1_bc587.500.8.0.1_bd5_be180_ca50.0.26.62.18.40.36.38.34_cb0_da3.0.0.100_db_dd9.3.50.50.45.50_dh1.30.71.43.3_di8_qa_qb_dc11.1.3.3.3_eh4.49_ea29.49.49.56.0.0_ec9.14.49.49.56.64.66.1_ed41.100.1.1.49.56_ef_eg_r0024.53.56.56.1.0.100.100.0.500.613.0_fa1.49.60.70.25.65.56_fb_fh1_fc0.50.55.0.50.55.37.61.61.37.50.50_fd16.0.6.49.56_fe55.51_ff0000000000_fg1.41_pa0.0.0.0.35.50.81.82.0.0_t00_pb_pc_pd_pe_ga0_gb0_gc57.0_ge0000000000_gh_gf_gg_gd11000010_ha89.89_hb50.1.44.99_hc0.31.39.0.31.39_hd25.1.82.63_ia_if_ib_id_ic_jc_ie_ja_jb_jd_je_jf_jg_ka27.6.6.1.0_kb_kc_kd_ke_kf_la_lb_oa_os_ob_oc_od_oe_of_lc_m0025.55.3.0.2.1.30.1.0.79.3.61_n00_s00_og_oh_oo_op_oq_or_om_on_ok_ol_oi_oj_ad0.0.0.0.0.0.0.0.0.0
4-interested=47**aa16.83.0.16.50.16.83.0.16.50_ab_ac_ba50_bb5.1_bc675.500.8.0.1_bd5_be180_ca50.0.26.62.18.40.36.38.34_cb0_da3.0.0.100_db_dd9.3.50.50.45.50_dh1.30.71.43.3_di8_qa_qb_dc11.1.3.3.3_eh4.49_ea29.49.49.56.0.0_ec9.14.49.49.56.64.66.1_ed41.100.1.1.49.56_ef_eg_r0024.53.56.56.1.0.100.100.0.500.613.0_fa1.49.60.70.25.65.56_fb_fh1_fc0.50.55.0.50.55.37.61.61.37.50.50_fd16.0.6.49.56_fe55.51_ff0000000000_fg1.41_pa0.0.0.0.35.50.81.82.0.0_t00_pb_pc_pd_pe_ga0_gb0_gc0.0_ge0000000000_gh_gf_gg_gd11000000_ha89.89_hb50.1.44.99_hc0.28.90.0.28.90_hd21.1.0.0_ia_if_ib_id_ic_jc_ie_ja_jb_jd_je_jf_jg_ka27.6.6.32.0_kb_kc_kd_ke_kf_la_lb_oa_os_ob_oc_od_oe_of_lc_m0025.55.3.0.2.1.30.1.0.79.3.61_n00_s00_og_oh_oo_op_oq_or_om_on_ok_ol_oi_oj_ad0.0.0.0.0.0.0.0.0.0
4-loss=47**aa16.83.0.16.50.16.83.0.16.50_ab_ac_ba50_bb5.1_bc762.500.8.0.1_bd5_be180_ca50.0.26.62.18.40.36.38.34_cb0_da3.0.0.100_db_dd9.3.50.50.45.50_dh1.30.71.43.3_di8_qa_qb_dc11.1.3.3.3_eh4.49_ea29.49.49.56.0.0_ec9.14.49.49.56.64.66.1_ed41.100.1.1.49.56_ef_eg_r0024.53.56.56.1.0.100.100.0.500.613.0_fa1.49.60.70.25.100.56_fb_fh1_fc0.50.55.0.50.55.37.61.61.37.50.50_fd16.0.6.49.56_fe55.51_ff0000000000_fg1.41_pa0.0.0.0.35.50.81.82.0.0_t00_pb_pc_pd_pe_ga0_gb0_gc22.0_ge0000000000_gh_gf_gg_gd11000000_ha89.89_hb49.1.0.100_hc3.68.45.3.68.45_hd7.1.100.100_ia_if_ib_id_ic_jc_ie_ja_jb_jd_je_jf_jg_ka27.6.6.59.0_kb_kc_kd_ke_kf_la_lb_oa_os_ob_oc_od_oe_of_lc_m0025.55.3.0.2.1.30.1.0.79.3.61_n00_s00_og_oh_oo_op_oq_or_om_on_ok_ol_oi_oj_ad0.0.0.0.0.0.0.0.0.0
4-sad=47**aa16.83.0.16.50.16.83.0.16.50_ab_ac_ba50_bb5.1_bc850.500.8.0.1_bd5_be180_ca50.0.26.62.18.40.36.38.34_cb0_da3.0.0.100_db_dd9.3.50.50.45.50_dh1.30.71.43.3_di8_qa_qb_dc11.1.3.3.3_eh4.49_ea29.49.49.56.0.0_ec9.14.49.49.56.64.66.1_ed41.100.1.1.49.56_ef_eg_r0024.53.56.56.1.0.100.100.0.500.613.0_fa1.49.60.70.25.100.56_fb_fh1_fc0.50.55.0.50.55.37.61.61.37.50.50_fd16.0.11.49.56_fe55.51_ff0000000000_fg1.41_pa0.0.0.0.35.50.81.82.0.0_t00_pb_pc_pd_pe_ga0_gb0_gc0.0_ge0000000000_gh_gf_gg_gd10000000_ha89.89_hb49.1.0.100_hc4.100.56.4.100.56_hd4.1.100.100_ia_if_ib_id_ic_jc_ie_ja_jb_jd_je_jf_jg_ka27.6.6.0.0_kb_kc_kd_ke_kf_la_lb_oa_os_ob_oc_od_oe_of_lc_m0025.55.3.0.2.1.30.1.0.79.3.61_n00_s00_og_oh_oo_op_oq_or_om_on_ok_ol_oi_oj_ad0.0.0.0.0.0.0.0.0.0
4-shocked=47**aa19.49.0.28.50.19.49.0.28.50_ab_ac_ba50_bb5.1_bc850.500.8.0.1_bd5_be180_ca50.0.26.62.18.40.36.38.34_cb0_da3.0.0.100_db_dd9.3.50.50.45.50_dh1.30.71.43.3_di8_qa_qb_dc11.1.3.3.3_eh4.49_ea29.49.49.56.0.0_ec9.14.49.49.56.64.66.1_ed41.100.1.1.49.56_ef_eg_r0024.53.56.56.1.0.100.100.0.500.613.0_fa1.49.50.70.60.100.56_fb_fh1_fc0.50.55.0.50.55.37.61.61.37.50.50_fd16.0.11.49.56_fe55.51_ff0000000000_fg1.41_pa0.0.0.0.35.50.81.82.0.0_t00_pb_pc_pd_pe_ga0_gb0_gc41.0_ge0000000000_gh_gf_gg_gd10000000_ha100.100_hb50.1.36.97_hc0.64.62.0.64.62_hd36.1.100.100_ia_if_ib_id_ic_jc_ie_ja_jb_jd_je_jf_jg_ka27.6.6.0.0_kb_kc_kd_ke_kf_la_lb_oa_os_ob_oc_od_oe_of_lc_m0025.55.3.0.2.1.30.1.0.79.3.61_n00_s00_og_oh_oo_op_oq_or_om_on_ok_ol_oi_oj_ad0.0.0.0.0.0.0.0.0.0
4-strip=47**aa6.68.1.16.66.6.68.1.16.66_ab_ac_ba50_bb5.1_bc850.500.8.0.1_bd5_be180_ca50.0.26.62.18.40.36.38.34_cb0_da3.0.0.100_db_dd9.3.45.50.45.50_dh1.30.71.43.3_di8_qa_qb_dc0.1.3.3.3_eh4.49_ea29.49.49.56.0.0_ec9.14.49.49.56.64.66.1_ed41.100.1.1.49.56_ef_eg_r0024.53.56.56.1.0.100.100.0.500.613.0_fa1.50.60.70.25.65.56_fb_fh1_fc0.50.55.0.50.55.37.61.61.37.50.50_fd16.0.11.49.56_fe52.62_ff0000000000_fg1.41_pa0.0.0.0.35.50.81.82.0.0_t00_pb_pc_pd_pe_ga0_gb0_gc52.0_ge0000000000_gh_gf_gg_gd10000000_ha89.89_hb50.1.50.99_hc0.59.39.0.59.39_hd50.1.49.49_ia_if_ib_id_ic_jc_ie_ja_jb_jd_je_jf_jg_ka27.6.6.0.0_kb_kc_kd_ke_kf_la_lb_oa_os_ob_oc_od_oe_of_lc_m0025.55.3.0.2.1.30.1.0.79.3.61_n00_s00_og_oh_oo_op_oq_or_om_on_ok_ol_oi_oj_ad0.0.0.0.0.0.0.0.0.0

5-angry=40**aa12.0.0.0.50.12.0.0.0.50_ab_ac_ba50_bb5.1_bc500.500.8.0.1_bd5_be180_ca50.0.26.62.18.40.36.38.34_cb0_da3.0.25.100_db_dd9.3.45.50.45_dh1.30.71.43.3_di8_qa_qb_dc0.1.3.3.3_eh4.49_ea29.49.49.56.0.0_ec9.14.49.49.56.64.66.1_ed41.100.1.1.49.56_ef_eg_r024.53.56.56.1.0.100.100.0.500.613.0_fa1.49.60.70.25.65.56_fb_fh1_fc0.50.55.0.50.55.37.61.61.37.50.50_fd16.0.11.49.56_fe52.62_ff0000000000_fg1.41_pa0.0.0.0.35.50.81.82.0.0_t0_pb_pc_pd_pe_ga0_gb0_gc0.0_ge0100000000_gh_gf_gg_gd10000000_ha89.89_hb50.1.44.99_hc2.31.39.2.31.39_hd23.1.50.100_ia_if_ib_id_ic_jc_ie_ja_jb_jd_je_jf_jg_ka_kb_kc_kd_ke_kf_la_lb_oa_os_ob_oc_od_oe_of_lc_m025.55.43.0.2.1.30.1.0.79.3.61_n0_s0_og_oh_oo_op_oq_or_om_on_ok_ol_oi_oj_ad0.0.0.0.0.0.0.0.0.0
5-calm=40**aa6.89.0.29.50.6.89.0.29.50_ab_ac_ba50_bb1.1_bc185.500.8.0.1_bd1_be180_ca50.0.26.62.18.40.36.38.34_cb0_da3.0.0.100_db_dd9.3.45.50.45_dh1.30.71.43.3_di8_qa_qb_dc0.1.3.3.3_eh4.49_ea29.49.49.56.0.0_ec9.14.49.49.56.64.66.1_ed41.100.1.1.49.56_ef_eg_r024.53.56.56.1.0.100.100.0.500.613.0_fa1.49.60.70.25.65.56_fb_fh1_fc0.50.55.0.50.55.37.61.61.37.50.50_fd16.0.11.49.56_fe52.62_ff0000000000_fg1.41_pa0.0.0.0.35.50.81.82.0.0_t0_pb_pc_pd_pe_ga0_gb0_gc43.0_ge0000000000_gh_gf_gg_gd10000000_ha89.89_hb49.1.44.99_hc0.59.39.0.59.39_hd0.1.49.49_ia_if_ib_id_ic_jc_ie_ja_jb_jd_je_jf_jg_ka_kb_kc_kd_ke_kf_la_lb_oa_os_ob_oc_od_oe_of_lc_m025.55.3.0.2.1.30.1.0.79.3.61_n0_s0_og_oh_oo_op_oq_or_om_on_ok_ol_oi_oj_ad0.0.0.0.0.0.0.0.0.0
5-embarrassed=40**aa19.64.0.26.50.9.89.1.28.50_ab_ac_ba50_bb5.1_bc500.500.8.0.1_bd5_be180_ca50.0.26.62.18.40.36.38.34_cb0_da3.0.25.100_db_dd9.3.45.50.45_dh1.30.71.43.3_di8_qa_qb_dc0.1.3.3.3_eh4.49_ea29.49.49.56.0.0_ec9.14.49.49.56.64.66.1_ed41.100.1.1.49.56_ef_eg_r024.53.56.56.1.0.100.100.0.500.613.0_fa1.50.60.70.25.65.56_fb_fh1_fc0.50.55.0.50.55.37.61.61.37.50.50_fd16.0.11.49.56_fe52.62_ff0000000000_fg1.41_pa0.0.0.0.35.50.81.82.0.0_t0_pb_pc_pd_pe_ga0_gb0_gc53.0_ge0000000000_gh_gf_gg_gd10000000_ha89.89_hb100.1.0.99_hc0.59.39.0.59.39_hd0.1.49.49_ia_if_ib_id_ic_jc_ie_ja_jb_jd_je_jf_jg_ka_kb_kc_kd_ke_kf_la_lb_oa_os_ob_oc_od_oe_of_lc_m025.55.3.0.2.1.30.1.0.79.3.61_n0_s0_og_oh_oo_op_oq_or_om_on_ok_ol_oi_oj_ad0.0.0.0.0.0.0.0.0.0
5-excited=40**aa14.57.0.16.50.14.57.0.16.50_ab_ac_ba50_bb5.1_bc500.500.8.0.1_bd5_be180_ca50.0.26.62.18.40.36.38.34_cb0_da3.0.25.100_db_dd9.3.50.50.45_dh1.30.71.43.3_di8_qa_qb_dc11.1.3.3.3_eh4.49_ea29.49.49.56.0.0_ec9.14.49.49.56.64.66.1_ed41.100.1.1.49.56_ef_eg_r024.53.56.56.1.0.100.100.0.500.613.0_fa1.49.60.70.25.65.56_fb_fh1_fc0.50.55.0.50.55.37.61.61.37.50.50_fd16.0.34.49.56_fe55.51_ff0000000000_fg1.41_pa0.0.0.0.35.50.81.82.0.0_t0_pb_pc_pd_pe_ga0_gb1_gc23.0_ge0000000000_gh_gf_gg_gd10000000_ha100.100_hb50.1.44.99_hc0.31.39.0.31.39_hd24.1.54.100_ia_if_ib_id_ic_jc_ie_ja_jb_jd_je_jf_jg_ka_kb_kc_kd_ke_kf_la_lb_oa_os_ob_oc_od_oe_of_lc_m025.55.3.0.2.1.30.1.0.79.3.61_n0_s0_og_oh_oo_op_oq_or_om_on_ok_ol_oi_oj_ad0.0.0.0.0.0.0.0.0.0
5-happy=40**aa14.84.0.16.50.14.84.0.16.50_ab_ac_ba50_bb5.1_bc412.500.8.0.1_bd5_be180_ca50.0.26.62.18.40.36.38.34_cb0_da3.0.0.100_db_dd9.3.50.50.45_dh1.30.71.43.3_di8_qa_qb_dc11.1.3.3.3_eh4.49_ea29.49.49.56.0.0_ec9.14.49.49.56.64.66.1_ed41.100.1.1.49.56_ef_eg_r024.53.56.56.1.0.100.100.0.500.613.0_fa1.49.60.70.25.65.56_fb_fh1_fc0.50.55.0.50.55.37.61.61.37.50.50_fd16.0.6.49.56_fe55.51_ff0000000000_fg1.41_pa0.0.0.0.35.50.81.82.0.0_t0_pb_pc_pd_pe_ga0_gb0_gc29.0_ge0000000000_gh_gf_gg_gd10000000_ha83.83_hb50.1.44.99_hc0.48.39.0.48.39_hd25.1.77.36_ia_if_ib_id_ic_jc_ie_ja_jb_jd_je_jf_jg_ka_kb_kc_kd_ke_kf_la_lb_oa_os_ob_oc_od_oe_of_lc_m025.55.3.0.2.1.30.1.0.79.3.61_n0_s0_og_oh_oo_op_oq_or_om_on_ok_ol_oi_oj_ad0.0.0.0.0.0.0.0.0.0
5-horny=40**aa4.71.0.42.47.5.89.0.5.47_ab_ac_ba50_bb5.1_bc500.500.8.0.1_bd5_be180_ca50.0.26.62.18.40.36.38.34_cb0_da3.0.0.100_db_dd9.3.50.50.45_dh1.30.71.43.3_di8_qa_qb_dc11.1.3.3.3_eh4.49_ea29.49.49.56.0.0_ec9.14.49.49.56.64.66.1_ed41.100.1.1.49.56_ef_eg_r024.53.56.56.1.0.100.100.0.500.613.0_fa1.49.60.70.25.65.56_fb_fh1_fc0.50.55.0.50.55.37.61.61.37.50.50_fd16.0.6.49.56_fe55.51_ff0000000000_fg1.41_pa0.0.0.0.35.50.81.82.0.0_t0_pb_pc_pd_pe_ga0_gb0_gc81.0_ge0000000000_gh_gf_gg_gd11000000_ha89.89_hb50.1.44.99_hc0.31.39.0.31.39_hd10.1.65.62_ia_if_ib_id_ic_jc_ie_ja_jb_jd_je_jf_jg_ka_kb_kc_kd_ke_kf_la_lb_oa_os_ob_oc_od_oe_of_lc_m025.55.3.0.2.1.30.1.0.79.3.61_n0_s0_og_oh_oo_op_oq_or_om_on_ok_ol_oi_oj_ad0.0.0.0.0.0.0.0.0.0
5-interested=40**aa16.57.1.16.50.16.57.1.16.50_ab_ac_ba50_bb5.1_bc500.500.8.0.1_bd5_be180_ca50.0.26.62.18.40.36.38.34_cb0_da3.0.25.100_db_dd9.3.50.50.45_dh1.30.71.43.3_di8_qa_qb_dc11.1.3.3.3_eh4.49_ea29.49.49.56.0.0_ec9.14.49.49.56.64.66.1_ed41.100.1.1.49.56_ef_eg_r024.53.56.56.1.0.100.100.0.500.613.0_fa1.49.60.70.25.65.56_fb_fh1_fc0.50.55.0.50.55.37.61.61.37.50.50_fd16.0.6.49.56_fe55.51_ff0000000000_fg1.41_pa0.0.0.0.35.50.81.82.0.0_t0_pb_pc_pd_pe_ga0_gb0_gc0.0_ge0000000000_gh_gf_gg_gd11000000_ha100.100_hb50.1.44.99_hc0.51.100.0.51.100_hd21.1.0.0_ia_if_ib_id_ic_jc_ie_ja_jb_jd_je_jf_jg_ka_kb_kc_kd_ke_kf_la_lb_oa_os_ob_oc_od_oe_of_lc_m025.55.3.0.2.1.30.1.0.79.3.61_n0_s0_og_oh_oo_op_oq_or_om_on_ok_ol_oi_oj_ad0.0.0.0.0.0.0.0.0.0
5-loss=40**aa15.84.0.16.50.15.84.0.16.50_ab_ac_ba50_bb5.1_bc500.500.8.0.1_bd5_be180_ca50.0.26.62.18.40.36.38.34_cb0_da3.0.25.100_db_dd9.3.50.50.45_dh1.30.71.43.3_di8_qa_qb_dc11.1.3.3.3_eh4.49_ea29.49.49.56.0.0_ec9.14.49.49.56.64.66.1_ed41.100.1.1.49.56_ef_eg_r024.53.56.56.1.0.100.100.0.500.613.0_fa1.49.60.70.25.100.56_fb_fh1_fc0.50.55.0.50.55.37.61.61.37.50.50_fd16.0.6.49.56_fe55.51_ff0000000000_fg1.41_pa0.0.0.0.35.50.81.82.0.0_t0_pb_pc_pd_pe_ga0_gb0_gc22.0_ge0000000000_gh_gf_gg_gd11000000_ha89.89_hb49.1.0.100_hc3.68.45.3.68.45_hd7.1.100.100_ia_if_ib_id_ic_jc_ie_ja_jb_jd_je_jf_jg_ka_kb_kc_kd_ke_kf_la_lb_oa_os_ob_oc_od_oe_of_lc_m025.55.3.0.2.1.30.1.0.79.3.61_n0_s0_og_oh_oo_op_oq_or_om_on_ok_ol_oi_oj_ad0.0.0.0.0.0.0.0.0.0
5-sad=40**aa16.83.0.16.50.16.83.0.16.50_ab_ac_ba50_bb5.1_bc500.500.8.0.1_bd5_be180_ca50.0.26.62.18.40.36.38.34_cb0_da3.0.25.100_db_dd9.3.50.50.45_dh1.30.71.43.3_di8_qa_qb_dc11.1.3.3.3_eh4.49_ea29.49.49.56.0.0_ec9.14.49.49.56.64.66.1_ed41.100.1.1.49.56_ef_eg_r024.53.56.56.1.0.100.100.0.500.613.0_fa1.49.60.70.25.100.56_fb_fh1_fc0.50.55.0.50.55.37.61.61.37.50.50_fd16.0.11.49.56_fe55.51_ff0000000000_fg1.41_pa0.0.0.0.35.50.81.82.0.0_t0_pb_pc_pd_pe_ga0_gb0_gc0.0_ge0000000000_gh_gf_gg_gd10000000_ha89.89_hb49.1.0.100_hc4.100.56.4.100.56_hd4.1.100.100_ia_if_ib_id_ic_jc_ie_ja_jb_jd_je_jf_jg_ka_kb_kc_kd_ke_kf_la_lb_oa_os_ob_oc_od_oe_of_lc_m025.55.3.0.2.1.30.1.0.79.3.61_n0_s0_og_oh_oo_op_oq_or_om_on_ok_ol_oi_oj_ad0.0.0.0.0.0.0.0.0.0
5-shocked=40**aa19.49.0.28.50.19.49.0.28.50_ab_ac_ba50_bb5.1_bc500.500.8.0.1_bd5_be180_ca50.0.26.62.18.40.36.38.34_cb0_da3.0.25.100_db_dd9.3.50.50.45_dh1.30.71.43.3_di8_qa_qb_dc11.1.3.3.3_eh4.49_ea29.49.49.56.0.0_ec9.14.49.49.56.64.66.1_ed41.100.1.1.49.56_ef_eg_r024.53.56.56.1.0.100.100.0.500.613.0_fa1.49.50.70.60.100.56_fb_fh1_fc0.50.55.0.50.55.37.61.61.37.50.50_fd16.0.11.49.56_fe55.51_ff0000000000_fg1.41_pa0.0.0.0.35.50.81.82.0.0_t0_pb_pc_pd_pe_ga0_gb0_gc77.0_ge0000000000_gh_gf_gg_gd10000000_ha100.100_hb50.1.36.97_hc0.64.62.0.64.62_hd36.1.100.100_ia_if_ib_id_ic_jc_ie_ja_jb_jd_je_jf_jg_ka_kb_kc_kd_ke_kf_la_lb_oa_os_ob_oc_od_oe_of_lc_m025.55.3.0.2.1.30.1.0.79.3.61_n0_s0_og_oh_oo_op_oq_or_om_on_ok_ol_oi_oj_ad0.0.0.0.0.0.0.0.0.0

6-beg=40**aa15.68.1.28.41.15.68.1.28.41_ab_ac_ba50_bb59.1_bc500.0.0.0.1_bd59_be180_ca50.0.26.62.18.40.36.38.34_cb0_da3.0.25.100_db_dd1.3.45.50.45_dh1.30.71.43.3_di8_qa_qb_dc40.1.3.3.3_eh4.49_ea29.49.49.56.0.0_ec9.14.49.49.56.64.66.1_ed41.100.1.1.49.56_ef_eg_r024.53.56.56.1.0.100.100.0.500.613.0_fa1.50.60.54.26.65.56_fb_fh1_fc0.50.55.0.50.55.37.61.61.37.50.50_fd0.0.14.49.56_fe52.62_ff0000000000_fg1.41_pa0.0.0.0.35.50.81.82.0.0_t0_pb_pc_pd_pe_ga0_gb0_gc100.0_ge0000000000_gh_gf_gg_gd10000000_ha88.88_hb51.1.77.100_hc0.67.57.0.67.57_hd60.1.70.100_ia_if_ib_id_ic_jc_ie_ja_jb_jd_je_jf_jg_ka_kb_kc_kd_ke_kf_la_lb_oa_os_ob_oc_od_oe_of_lc_m025.55.3.0.2.1.30.1.0.79.3.61_n0_s0_og_oh_oo_op_oq_or_om_on_ok_ol_oi_oj_ad0.0.0.0.0.0.0.0.0.0

6-angry=47***aa11.61.1.47.34.11.61.1.47.35_ab_ac_ba50_bb62.1_bc185.200.0.0.1_bd62_be180_ca56.0.36.75.15.34.34.0.10_cb0_da1.0.0.100_db_dd0.3.0.9.17.50_dh1.30.50.50.0_di7_qa_qb_dc2735.3.1.1.1_eh_ea27.55.55.55.1.0_ec7.11.55.55.55.47.64.0_ed0.37.1.1.55.56_ef_eg_r00_fa4.76.87.73.32.65.56_fb7_fh1_fc0.FFDA00.55.0.FFDA00.55.37.61.61.37.48.50_fd1.0.36.55.56_fe50.73_ff0000000000_fg0.52_pa0.0.0.0.40.50.85.85.0.0_t00_pb0.54.54.0_pc_pd_pe_ga0_gb1_gc68.0_ge0000000000_gh_gf_gg_gd11000000_ha72.72_hb50.1.50.99_hc1.43.3.1.43.3_hd38.1.60.38_ia_if_ib_id_ic_jc_ie_ja_jb_jd_je_jf_jg_ka_kb_kc_kd_ke_kf_la_lb_oa_os_ob_oc_od_oe_of_lc_m00_n00_s00_og_oh_oo_op_oq_or_om_on_ok_ol_oi_oj_ad1.1.1.1.1.1.1.1.1.1*0*0*0*0*0*0*0*0#/]a00_b00_c00_d00_w00_x00_e00_y00_z00_ua1.55.0.0.100_uf0.3.0.0_ue_ub_u0_v0_uc7.0.30_ud7.8
    
6-angry=40**aa19.79.1.49.84.13.0.0.3.100_ab_ac_ba50_bb65.1_bc500.500.8.0.1_bd65_be180_ca50.0.26.62.18.40.36.38.34_cb0_da3.0.0.100_db_dd9.3.45.50.45_dh1.30.71.43.3_di8_qa_qb_dc0.1.3.3.3_eh4.49_ea29.49.49.56.0.0_ec9.14.49.49.56.64.66.1_ed41.100.1.1.49.56_ef_eg_r024.53.56.56.1.0.100.100.0.500.613.0_fa1.49.60.70.25.65.56_fb_fh1_fc0.50.55.0.50.55.37.61.61.37.50.50_fd16.0.11.49.56_fe52.62_ff0000000000_fg1.41_pa0.0.0.0.35.50.81.82.0.0_t0_pb_pc_pd_pe_ga0_gb0_gc22.0_ge0000000000_gh_gf_gg_gd10100000_ha89.89_hb50.1.44.99_hc2.31.39.2.31.39_hd23.1.50.100_ia_if_ib_id_ic_jc_ie_ja_jb_jd_je_jf_jg_ka_kb_kc_kd_ke_kf_la_lb_oa_os_ob_oc_od_oe_of_lc_m025.55.3.0.2.1.30.1.0.79.3.61_n0_s0_og_oh_oo_op_oq_or_om_on_ok_ol_oi_oj_ad0.0.0.0.0.0.0.0.0.0
6-calm=40**aa19.79.1.49.84.13.0.0.3.100_ab_ac_ba50_bb62.1_bc185.500.8.0.1_bd62_be180_ca50.0.26.62.18.40.36.38.34_cb0_da3.0.0.100_db_dd9.3.45.50.45_dh1.30.71.43.3_di8_qa_qb_dc0.1.3.3.3_eh4.49_ea29.49.49.56.0.0_ec9.14.49.49.56.64.66.1_ed41.100.1.1.49.56_ef_eg_r024.53.56.56.1.0.100.100.0.500.613.0_fa1.49.60.70.25.65.56_fb_fh1_fc0.50.55.0.50.55.37.61.61.37.50.50_fd16.0.11.49.56_fe52.62_ff0000000000_fg1.41_pa0.0.0.0.35.50.81.82.0.0_t0_pb_pc_pd_pe_ga0_gb0_gc46.0_ge0000000000_gh_gf_gg_gd10100000_ha89.89_hb50.1.53.99_hc0.59.39.0.59.39_hd0.1.49.49_ia_if_ib_id_ic_jc_ie_ja_jb_jd_je_jf_jg_ka_kb_kc_kd_ke_kf_la_lb_oa_os_ob_oc_od_oe_of_lc_m025.55.3.0.2.1.30.1.0.79.3.61_n0_s0_og_oh_oo_op_oq_or_om_on_ok_ol_oi_oj_ad0.0.0.0.0.0.0.0.0.0
6-embarrassed=40**aa19.79.1.49.84.13.0.0.3.100_ab_ac_ba50_bb73.1_bc185.500.8.0.1_bd73_be180_ca50.0.26.62.18.40.36.38.34_cb0_da3.0.0.100_db_dd12.3.45.50.45_dh1.30.71.43.3_di8_qa_qb_dc0.1.3.3.3_eh4.49_ea29.49.49.56.0.0_ec9.14.49.49.56.64.66.1_ed41.100.1.1.49.56_ef_eg_r024.53.56.56.1.0.100.100.0.500.613.0_fa1.49.60.70.25.65.56_fb_fh1_fc0.50.55.0.50.55.37.61.61.37.50.50_fd16.0.11.49.56_fe52.62_ff0000000000_fg1.41_pa0.0.0.0.35.50.81.82.0.0_t0_pb_pc_pd_pe_ga0_gb0_gc88.0_ge0000000000_gh_gf_gg_gd10100000_ha89.89_hb0.1.0.99_hc0.59.39.0.59.39_hd0.1.49.49_ia_if_ib_id_ic_jc_ie_ja_jb_jd_je_jf_jg_ka_kb_kc_kd_ke_kf_la_lb_oa_os_ob_oc_od_oe_of_lc_m025.55.3.0.2.1.30.1.0.79.3.61_n0_s0_og_oh_oo_op_oq_or_om_on_ok_ol_oi_oj_ad0.0.0.0.0.0.0.0.0.0
6-excited=40**aa19.79.1.49.84.13.0.0.3.100_ab_ac_ba50_bb65.1_bc500.0.0.0.1_bd65_be180_ca50.0.26.62.18.40.36.38.34_cb0_da3.0.0.100_db_dd9.3.45.50.45_dh1.30.71.43.3_di8_qa_qb_dc0.1.3.3.3_eh4.49_ea29.49.49.56.0.0_ec9.14.49.49.56.64.66.1_ed41.100.1.1.49.56_ef_eg_r024.53.56.56.1.0.100.100.0.500.613.0_fa1.49.60.70.25.65.56_fb_fh1_fc0.50.55.0.50.55.37.61.61.37.50.50_fd16.0.11.49.56_fe52.62_ff0000000000_fg1.41_pa0.0.0.0.35.50.81.82.0.0_t0_pb_pc_pd_pe_ga0_gb0_gc71.0_ge0000000000_gh_gf_gg_gd10100000_ha100.100_hb50.1.50.99_hc0.59.39.0.59.39_hd24.1.100.100_ia_if_ib_id_ic_jc_ie_ja_jb_jd_je_jf_jg_ka_kb_kc_kd_ke_kf_la_lb_oa_os_ob_oc_od_oe_of_lc_m025.55.3.0.2.1.30.1.0.79.3.61_n0_s0_og_oh_oo_op_oq_or_om_on_ok_ol_oi_oj_ad0.0.0.0.0.0.0.0.0.0.0.0.0
6-happy=40**aa19.79.1.49.84.13.0.0.3.100_ab_ac_ba50_bb65.1_bc500.0.0.0.1_bd65_be180_ca50.0.26.62.18.40.36.38.34_cb0_da3.0.0.100_db_dd9.3.45.50.45_dh1.30.71.43.3_di8_qa_qb_dc0.1.3.3.3_eh4.49_ea29.49.49.56.0.0_ec9.14.49.49.56.64.66.1_ed41.100.1.1.49.56_ef_eg_r024.53.56.56.1.0.100.100.0.500.613.0_fa1.49.60.70.25.65.56_fb_fh1_fc0.50.55.0.50.55.37.61.61.37.50.50_fd16.0.11.49.56_fe52.62_ff0000000000_fg1.41_pa0.0.0.0.35.50.81.82.0.0_t0_pb_pc_pd_pe_ga0_gb0_gc71.0_ge0000000000_gh_gf_gg_gd10100000_ha85.85_hb50.1.50.99_hc0.59.39.0.59.39_hd25.1.100.100_ia_if_ib_id_ic_jc_ie_ja_jb_jd_je_jf_jg_ka_kb_kc_kd_ke_kf_la_lb_oa_os_ob_oc_od_oe_of_lc_m025.55.3.0.2.1.30.1.0.79.3.61_n0_s0_og_oh_oo_op_oq_or_om_on_ok_ol_oi_oj_ad0.0.0.0.0.0.0.0.0.0
6-horny=40**aa19.79.1.49.84.13.0.0.3.100_ab_ac_ba50_bb65.1_bc500.0.0.0.1_bd65_be180_ca50.0.26.62.18.40.36.38.34_cb0_da3.0.0.100_db_dd9.3.45.50.45_dh1.30.71.43.3_di8_qa_qb_dc31.1.3.3.3_eh4.49_ea29.49.49.56.0.0_ec9.14.49.49.56.64.66.1_ed41.100.1.1.49.56_ef_eg_r024.53.56.56.1.0.100.100.0.500.613.0_fa1.49.60.70.25.65.56_fb_fh1_fc0.50.55.0.50.55.37.61.61.37.50.50_fd16.0.11.49.56_fe52.62_ff0000000000_fg1.41_pa0.0.0.0.35.50.81.82.0.0_t0_pb_pc_pd_pe_ga0_gb0_gc100.0_ge0000000000_gh_gf_gg_gd10100000_ha79.79_hb50.1.39.99_hc0.49.39.0.49.39_hd33.1.100.100_ia_if_ib_id_ic_jc_ie_ja_jb_jd_je_jf_jg_ka_kb_kc_kd_ke_kf_la_lb_oa_os_ob_oc_od_oe_of_lc_m025.55.3.0.2.1.30.1.0.79.3.61_n0_s0_og_oh_oo_op_oq_or_om_on_ok_ol_oi_oj_ad0.0.0.0.0.0.0.0.0.0
6-finishing=40**aa19.80.1.16.53.13.69.1.7.37_ab_ac_ba50_bb63.1_bc185.500.8.0.1_bd63_be180_ca50.0.26.62.18.40.36.38.34_cb0_da3.0.0.100_db_dd9.3.45.50.45_dh1.30.71.43.3_di8_qa_qb_dc33.1.3.3.3_eh4.49_ea29.49.49.56.0.0_ec9.14.49.49.56.64.66.1_ed41.100.1.1.49.56_ef_eg_r024.53.56.56.1.0.100.100.0.500.613.0_fa1.49.60.70.25.65.56_fb_fh1_fc0.50.55.0.50.55.37.61.61.37.50.50_fd16.0.11.49.56_fe52.62_ff0000000000_fg1.41_pa0.0.0.0.35.50.81.82.0.0_t0_pb_pc_pd_pe_ga0_gb0_gc100.0_ge0000000000_gh_gf_gg_gd10100000_ha0.0_hb50.1.39.99_hc0.77.46.0.77.46_hd36.1.100.100_ia_if_ib_id_ic_jc_ie_ja_jb_jd_je_jf_jg_ka_kb_kc_kd_ke_kf_la_lb_oa_os_ob_oc_od_oe_of_lc_m025.55.3.0.2.1.30.1.0.79.3.61_n0_s0_og_oh_oo_op_oq_or_om_on_ok_ol_oi_oj_ad0.0.0.0.0.0.0.0.0.0
6-interested=40**aa19.79.1.49.84.13.0.0.3.100_ab_ac_ba68_bb65.1_bc500.0.0.0.1_bd65_be180_ca50.0.26.62.18.40.36.38.34_cb0_da3.0.0.100_db_dd9.3.45.50.45_dh1.30.71.43.3_di8_qa_qb_dc8.1.3.3.3_eh4.49_ea29.49.49.56.0.0_ec9.14.49.49.56.64.66.1_ed41.100.1.1.49.56_ef_eg_r024.53.56.56.1.0.100.100.0.500.613.0_fa1.49.60.70.25.65.56_fb_fh1_fc0.50.55.0.50.55.37.61.61.37.50.50_fd16.0.11.49.56_fe52.62_ff0000000000_fg1.41_pa0.0.0.0.35.50.81.82.0.0_t0_pb_pc_pd_pe_ga0_gb0_gc71.0_ge0000000000_gh_gf_gg_gd10100000_ha100.100_hb50.1.50.99_hc0.47.100.0.47.100_hd21.1.100.100_ia_if_ib_id_ic_jc_ie_ja_jb_jd_je_jf_jg_ka_kb_kc_kd_ke_kf_la_lb_oa_os_ob_oc_od_oe_of_lc_m025.55.3.0.2.1.30.1.0.79.3.61_n0_s0_og_oh_oo_op_oq_or_om_on_ok_ol_oi_oj_ad0.0.0.0.0.0.0.0.0.0
6-loss=40**aa19.79.1.49.84.13.0.0.3.100_ab_ac_ba50_bb65.1_bc500.0.0.0.1_bd65_be180_ca50.0.26.62.18.40.36.38.34_cb0_da3.0.0.100_db_dd9.3.45.50.45_dh1.30.71.43.3_di8_qa_qb_dc0.1.3.3.3_eh4.49_ea29.49.49.56.0.0_ec9.14.49.49.56.64.66.1_ed41.100.1.1.49.56_ef_eg_r024.53.56.56.1.0.100.100.0.500.613.0_fa1.49.60.70.25.65.56_fb_fh1_fc0.50.55.0.50.55.37.61.61.37.50.50_fd16.0.11.49.56_fe52.62_ff0000000000_fg1.41_pa0.0.0.0.35.50.81.82.0.0_t0_pb_pc_pd_pe_ga0_gb0_gc41.0_ge0000000000_gh_gf_gg_gd10100000_ha89.89_hb50.1.0.99_hc3.59.39.3.59.39_hd4.1.67.100_ia_if_ib_id_ic_jc_ie_ja_jb_jd_je_jf_jg_ka_kb_kc_kd_ke_kf_la_lb_oa_os_ob_oc_od_oe_of_lc_m025.55.3.0.2.1.30.1.0.79.3.61_n0_s0_og_oh_oo_op_oq_or_om_on_ok_ol_oi_oj_ad0.0.0.0.0.0.0.0.0.0
6-sad=40**aa19.79.1.49.84.13.0.0.3.100_ab_ac_ba50_bb65.1_bc500.0.0.0.1_bd65_be180_ca50.0.26.62.18.40.36.38.34_cb0_da3.0.0.100_db_dd9.3.45.50.45_dh1.30.71.43.3_di8_qa_qb_dc0.1.3.3.3_eh4.49_ea29.49.49.56.0.0_ec9.14.49.49.56.64.66.1_ed41.100.1.1.49.56_ef_eg_r024.53.56.56.1.0.100.100.0.500.613.0_fa1.49.60.70.25.65.56_fb_fh1_fc0.50.55.0.50.55.37.61.61.37.50.50_fd16.0.11.49.56_fe52.62_ff0000000000_fg1.41_pa0.0.0.0.35.50.81.82.0.0_t0_pb_pc_pd_pe_ga0_gb0_gc41.0_ge0000000000_gh_gf_gg_gd10100000_ha89.89_hb50.1.0.99_hc4.100.60.4.100.60_hd4.1.67.100_ia_if_ib_id_ic_jc_ie_ja_jb_jd_je_jf_jg_ka_kb_kc_kd_ke_kf_la_lb_oa_os_ob_oc_od_oe_of_lc_m025.55.3.0.2.1.30.1.0.79.3.61_n0_s0_og_oh_oo_op_oq_or_om_on_ok_ol_oi_oj_ad0.0.0.0.0.0.0.0.0.0
6-shocked=40**aa19.79.1.49.84.13.0.0.3.100_ab_ac_ba50_bb65.1_bc500.0.0.0.1_bd65_be180_ca50.0.26.62.18.40.36.38.34_cb0_da3.0.0.100_db_dd9.3.45.50.45_dh1.30.71.43.3_di8_qa_qb_dc18.1.3.3.3_eh4.49_ea29.49.49.56.0.0_ec9.14.49.49.56.64.66.1_ed41.100.1.1.49.56_ef_eg_r024.53.56.56.1.0.100.100.0.500.613.0_fa1.49.60.70.25.65.56_fb_fh1_fc0.50.55.0.50.55.37.61.61.37.50.50_fd16.0.11.49.56_fe52.62_ff0000000000_fg1.41_pa0.0.0.0.35.50.81.82.0.0_t0_pb_pc_pd_pe_ga0_gb0_gc100.0_ge0000000000_gh_gf_gg_gd10100000_ha100.100_hb50.1.39.99_hc0.49.100.0.49.100_hd36.1.100.100_ia_if_ib_id_ic_jc_ie_ja_jb_jd_je_jf_jg_ka_kb_kc_kd_ke_kf_la_lb_oa_os_ob_oc_od_oe_of_lc_m025.55.3.0.2.1.30.1.0.79.3.61_n0_s0_og_oh_oo_op_oq_or_om_on_ok_ol_oi_oj_ad0.0.0.0.0.0.0.0.0.0

7-angry=40**aa13.3.1.3.84.13.0.0.3.100_ab_ac_ba50_bb67.1_bc150.500.8.0.1_bd67_be180_ca50.0.26.62.18.40.36.38.34_cb0_da3.0.0.100_db_dd9.3.45.50.45_dh1.30.71.43.3_di8_qa_qb_dc134.1.3.3.3_eh4.49_ea29.49.49.56.0.0_ec9.14.49.49.56.64.66.1_ed41.100.1.1.49.56_ef_eg_r024.53.56.56.1.0.100.100.0.500.613.0_fa1.50.60.66.25.57.56_fb_fh1_fc0.50.55.0.50.55.34.61.61.34.50.50_fd16.0.11.49.56_fe52.62_ff0000000000_fg1.41_pa0.0.0.0.35.50.81.82.0.0_t0_pb_pc_pd_pe_ga0_gb0_gc16.0_ge0000000000_gh_gf_gg_gd11100000_ha70.70_hb50.1.50.100_hc2.23.33.2.23.33_hd50.1.100.100_ia_if_ib_id_ic_jc_ie_ja_jb_jd_je_jf_jg_ka_kb_kc_kd_ke_kf_la_lb_oa_os_ob_oc_od_oe_of_lc_m025.55.3.0.2.1.30.1.0.79.3.61_n0_s0_og_oh_oo_op_oq_or_om_on_ok_ol_oi_oj_ad0.0.0.0.0.0.0.0.0.0
7-beg=40**aa15.68.1.28.41.15.68.1.28.41_ab_ac_ba50_bb98.1_bc237.500.8.0.1_bd98_be180_ca50.0.26.62.18.40.36.38.34_cb0_da3.0.0.100_db_dd10.3.45.50.45_dh1.30.71.43.3_di8_qa_qb_dc135.1.3.3.3_eh4.49_ea29.49.49.56.0.0_ec9.14.49.49.56.64.66.1_ed41.100.1.1.49.56_ef_eg_r024.53.56.56.1.0.100.100.0.500.613.0_fa1.49.60.70.25.65.56_fb_fh1_fc0.50.55.0.50.55.37.61.61.37.50.50_fd16.0.11.49.56_fe52.62_ff0000000000_fg1.41_pa0.0.0.0.35.50.81.82.0.0_t0_pb_pc_pd_pe_ga0_gb0_gc100.0_ge0000000000_gh_gf_gg_gd10000000_ha88.88_hb51.1.77.100_hc0.67.57.0.67.57_hd60.1.70.100_ia_if_ib_id_ic_jc_ie_ja_jb_jd_je_jf_jg_ka_kb_kc_kd_ke_kf_la_lb_oa_os_ob_oc_od_oe_of_lc_m025.55.3.0.2.1.30.1.0.79.3.61_n0_s0_og_oh_oo_op_oq_or_om_on_ok_ol_oi_oj_ad0.0.0.0.0.0.0.0.0.0
7-calm=47**aa10.0.0.0.50.10.0.0.0.50_ab_ac_ba50_bb65.1_bc185.200.0.0.1_bd65_be180_ca50.0.26.62.18.35.36.38.34_cb0_da3.0.0.100_db_dd10.3.45.50.45.50_dh1.30.71.43.3_di8_qa_qb_dc91.1.3.3.3_eh4.49_ea29.49.49.56.0.0_ec9.14.49.49.56.64.66.1_ed41.100.1.1.49.56_ef_eg_r0024.53.56.56.1.0.100.100.0.500.613.0_fa1.49.60.70.25.65.56_fb_fh1_fc0.50.55.0.50.55.37.61.61.37.50.50_fd16.0.11.49.56_fe52.62_ff0000000000_fg1.41_pa0.0.0.0.35.50.81.82.0.0_t00_pb_pc_pd_pe_ga1_gb1_gc22.0_ge0000000000_gh_gf_gg_gd10100000_ha89.89_hb49.1.44.99_hc0.59.39.0.59.39_hd0.1.49.49_ia_if_ib_id_ic_jc_ie_ja_jb_jd_je_jf_jg_ka_kb_kc_kd_ke_kf_la_lb_oa_os_ob_oc_od_oe_of_lc_m0025.55.3.0.2.1.30.1.0.79.3.61_n00_s00_og_oh_oo_op_oq_or_om_on_ok_ol_oi_oj_ad0.0.0.0.0.0.0.0.0.0
7-embarrassed=40**aa13.3.1.3.84.13.0.0.3.100_ab_ac_ba50_bb65.1_bc412.500.8.0.1_bd65_be180_ca50.0.26.62.18.40.36.38.34_cb0_da3.0.0.100_db_dd9.3.45.50.45_dh1.30.71.43.3_di8_qa_qb_dc52.1.3.3.3_eh4.49_ea29.49.49.56.0.0_ec9.14.49.49.56.64.66.1_ed41.100.1.1.49.56_ef_eg_r024.53.56.56.1.0.100.100.0.500.613.0_fa1.49.60.70.25.65.56_fb_fh1_fc0.50.55.0.50.55.37.61.61.37.50.50_fd16.0.11.49.56_fe52.62_ff0000000000_fg1.41_pa0.0.0.0.35.50.81.82.0.0_t0_pb_pc_pd_pe_ga0_gb0_gc78.0_ge0000000000_gh_gf_gg_gd11100000_ha70.70_hb0.1.0.99_hc0.59.47.0.59.47_hd37.1.100.100_ia_if_ib_id_ic_jc_ie_ja_jb_jd_je_jf_jg_ka_kb_kc_kd_ke_kf_la_lb_oa_os_ob_oc_od_oe_of_lc_m025.55.3.0.2.1.30.1.0.79.3.61_n0_s0_og_oh_oo_op_oq_or_om_on_ok_ol_oi_oj_ad0.0.0.0.0.0.0.0.0.0
7-excited=40**aa13.3.1.3.84.13.0.0.3.100_ab_ac_ba50_bb67.1_bc500.500.8.0.1_bd67_be180_ca50.0.26.62.18.40.36.38.34_cb0_da3.0.0.100_db_dd9.3.45.50.45_dh1.30.71.43.3_di8_qa_qb_dc134.1.3.3.3_eh4.49_ea29.49.49.56.0.0_ec9.14.49.49.56.64.66.1_ed41.100.1.1.49.56_ef_eg_r024.53.56.56.1.0.100.100.0.500.613.0_fa1.49.60.70.25.65.56_fb_fh1_fc0.50.55.0.50.55.37.61.61.37.50.50_fd16.0.11.49.56_fe52.62_ff0000000000_fg1.41_pa0.0.0.0.35.50.81.82.0.0_t0_pb_pc_pd_pe_ga0_gb0_gc78.0_ge0000000000_gh_gf_gg_gd11100000_ha70.70_hb50.1.50.100_hc0.59.47.0.59.47_hd19.1.100.100_ia_if_ib_id_ic_jc_ie_ja_jb_jd_je_jf_jg_ka_kb_kc_kd_ke_kf_la_lb_oa_os_ob_oc_od_oe_of_lc_m025.55.3.0.2.1.30.1.0.79.3.61_n0_s0_og_oh_oo_op_oq_or_om_on_ok_ol_oi_oj_ad0.0.0.0.0.0.0.0.0.0
7-happy=40**aa13.3.1.3.84.13.0.0.3.100_ab_ac_ba50_bb98.1_bc587.500.8.0.1_bd98_be180_ca50.0.26.62.18.40.36.38.34_cb0_da3.0.0.100_db_dd9.3.45.50.45_dh1.30.71.43.3_di8_qa_qb_dc134.1.3.3.3_eh4.49_ea29.49.49.56.0.0_ec9.14.49.49.56.64.66.1_ed41.100.1.1.49.56_ef_eg_r024.53.56.56.1.0.100.100.0.500.613.0_fa1.49.60.70.25.65.56_fb_fh1_fc0.50.55.0.50.55.37.61.61.37.50.50_fd16.0.11.49.56_fe52.62_ff0000000000_fg1.41_pa0.0.0.0.35.50.81.82.0.0_t0_pb_pc_pd_pe_ga0_gb0_gc78.0_ge0000000000_gh_gf_gg_gd11100010_ha70.70_hb50.1.50.100_hc0.59.47.0.59.47_hd27.1.100.100_ia_if_ib_id_ic_jc_ie_ja_jb_jd_je_jf_jg_ka_kb_kc_kd_ke_kf_la_lb_oa_os_ob_oc_od_oe_of_lc_m025.55.3.0.2.1.30.1.0.79.3.61_n0_s0_og_oh_oo_op_oq_or_om_on_ok_ol_oi_oj_ad0.0.0.0.0.0.0.0.0.0
7-horny=40**aa13.3.1.3.84.13.0.0.3.100_ab_ac_ba50_bb67.1_bc675.500.8.0.1_bd67_be180_ca50.0.26.62.18.40.36.38.34_cb0_da3.0.0.100_db_dd10.3.45.50.45_dh1.30.71.43.3_di8_qa_qb_dc134.1.3.3.3_eh4.49_ea29.49.49.56.0.0_ec9.14.49.49.56.64.66.1_ed41.100.1.1.49.56_ef_eg_r024.53.56.56.1.0.100.100.0.500.613.0_fa1.49.60.70.25.65.56_fb_fh1_fc0.50.55.0.50.55.37.61.61.37.50.50_fd16.0.11.49.56_fe52.62_ff0000000000_fg1.41_pa0.0.0.0.35.50.81.82.0.0_t0_pb_pc_pd_pe_ga0_gb0_gc100.0_ge0000000000_gh_gf_gg_gd11100000_ha70.70_hb50.1.50.100_hc0.59.47.0.59.47_hd27.1.100.100_ia_if_ib_id_ic_jc_ie_ja_jb_jd_je_jf_jg_ka_kb_kc_kd_ke_kf_la_lb_oa_os_ob_oc_od_oe_of_lc_m025.55.3.0.2.1.30.1.0.79.3.61_n0_s0_og_oh_oo_op_oq_or_om_on_ok_ol_oi_oj_ad0.0.0.0.0.0.0.0.0.0
7-interested=40**aa13.3.1.3.84.13.0.0.3.100_ab_ac_ba66_bb98.1_bc762.500.8.0.1_bd98_be180_ca50.0.26.62.18.40.36.38.34_cb0_da3.0.0.100_db_dd10.3.45.50.45_dh1.30.71.43.3_di8_qa_qb_dc134.1.3.3.3_eh4.49_ea29.49.49.56.0.0_ec9.14.49.49.56.64.66.1_ed41.100.1.1.49.56_ef_eg_r024.53.56.56.1.0.100.100.0.500.613.0_fa1.49.60.70.25.65.56_fb_fh1_fc0.50.55.0.50.55.37.61.61.37.50.50_fd16.0.11.49.56_fe52.62_ff0000000000_fg1.41_pa0.0.0.0.35.50.81.82.0.0_t0_pb_pc_pd_pe_ga0_gb0_gc78.0_ge0000000000_gh_gf_gg_gd11100010_ha70.70_hb50.1.50.100_hc0.59.47.0.59.47_hd20.1.100.100_ia_if_ib_id_ic_jc_ie_ja_jb_jd_je_jf_jg_ka_kb_kc_kd_ke_kf_la_lb_oa_os_ob_oc_od_oe_of_lc_m025.55.3.0.2.1.30.1.0.79.3.61_n0_s0_og_oh_oo_op_oq_or_om_on_ok_ol_oi_oj_ad0.0.0.0.0.0.0.0.0.0
7-loss=40**aa13.3.1.3.84.13.0.0.3.100_ab_ac_ba50_bb98.1_bc150.500.8.0.1_bd98_be180_ca50.0.26.62.18.40.36.38.34_cb0_da3.0.0.100_db_dd9.3.45.50.45_dh1.30.71.43.3_di8_qa_qb_dc134.1.3.3.3_eh4.49_ea29.49.49.56.0.0_ec9.14.49.49.56.64.66.1_ed41.100.1.1.49.56_ef_eg_r024.53.56.56.1.0.100.100.0.500.613.0_fa1.49.60.70.25.65.56_fb_fh1_fc0.50.55.0.50.55.37.61.61.37.50.50_fd16.0.11.49.56_fe52.62_ff0000000000_fg1.41_pa0.0.0.0.35.50.81.82.0.0_t0_pb_pc_pd_pe_ga0_gb0_gc78.0_ge0000000000_gh_gf_gg_gd11000000_ha70.70_hb50.1.50.100_hc0.59.47.0.59.47_hd9.1.100.100_ia_if_ib_id_ic_jc_ie_ja_jb_jd_je_jf_jg_ka_kb_kc_kd_ke_kf_la_lb_oa_os_ob_oc_od_oe_of_lc_m025.55.3.0.2.1.30.1.0.79.3.61_n0_s0_og_oh_oo_op_oq_or_om_on_ok_ol_oi_oj_ad0.0.0.0.0.0.0.0.0.0
7-sad=40**aa13.3.1.3.84.13.0.0.3.100_ab_ac_ba50_bb72.1_bc237.500.8.0.1_bd72_be180_ca50.0.26.62.18.40.36.38.34_cb0_da3.0.0.100_db_dd9.3.45.50.45_dh1.30.71.43.3_di8_qa_qb_dc134.1.3.3.3_eh4.49_ea29.49.49.56.0.0_ec9.14.49.49.56.64.66.1_ed41.100.1.1.49.56_ef_eg_r024.53.56.56.1.0.100.100.0.500.613.0_fa1.50.60.66.25.57.56_fb_fh1_fc0.50.55.0.50.55.34.61.61.34.50.50_fd16.0.11.49.56_fe52.62_ff0000000000_fg1.41_pa0.0.0.0.35.50.81.82.0.0_t0_pb_pc_pd_pe_ga0_gb0_gc40.0_ge0000000000_gh_gf_gg_gd11100000_ha70.70_hb50.1.0.100_hc4.100.56.4.100.56_hd10.1.100.100_ia_if_ib_id_ic_jc_ie_ja_jb_jd_je_jf_jg_ka_kb_kc_kd_ke_kf_la_lb_oa_os_ob_oc_od_oe_of_lc_m025.55.3.0.2.1.30.1.0.79.3.61_n0_s0_og_oh_oo_op_oq_or_om_on_ok_ol_oi_oj_ad0.0.0.0.0.0.0.0.0.0
7-shocked=40**aa13.3.1.3.84.13.0.0.3.100_ab_ac_ba50_bb67.1_bc325.500.8.0.1_bd67_be180_ca50.0.26.62.18.40.36.38.34_cb0_da3.0.0.100_db_dd9.3.45.50.45_dh1.30.71.43.3_di8_qa_qb_dc134.1.3.3.3_eh4.49_ea29.49.49.56.0.0_ec9.14.49.49.56.64.66.1_ed41.100.1.1.49.56_ef_eg_r024.53.56.56.1.0.100.100.0.500.613.0_fa1.50.60.66.25.57.56_fb_fh1_fc0.50.55.0.50.55.34.61.61.34.50.50_fd16.0.11.49.56_fe52.62_ff0000000000_fg1.41_pa0.0.0.0.35.50.81.82.0.0_t0_pb_pc_pd_pe_ga0_gb0_gc98.0_ge0000000000_gh_gf_gg_gd11100000_ha100.100_hb50.1.50.100_hc0.64.100.0.64.100_hd36.1.100.100_ia_if_ib_id_ic_jc_ie_ja_jb_jd_je_jf_jg_ka_kb_kc_kd_ke_kf_la_lb_oa_os_ob_oc_od_oe_of_lc_m025.55.3.0.2.1.30.1.0.79.3.61_n0_s0_og_oh_oo_op_oq_or_om_on_ok_ol_oi_oj_ad0.0.0.0.0.0.0.0.0.0
