
  6-ruby1=47**aa17.68.1.4.36.17.68.1.4.36_ab_ac_ba50_bb6.1_bc150.500.0.0.1_bd6_be180_ca61.0.13.61.24.4.48.0.8_cb0_da1.0.0.100_db_dd9.1.30.0.0.50_dh1.30.50.50.0_di5_qa_qb_dc2.1.1.1.1_eh1.370000_ea32.0B0C0D.4A0000.56.1.0_ec8.52.0B0C0D.4A0000.56.47.61.0_ed0.78.0.1.4A0000.56_ef5.2.5.56.4A0000.56_eg1.0.5.56.4A0000.56_r0012.56.370000.56.1.0.50.51.123.370.555.0_r0116.370000.56.976E08.1.0.64.69.157.626.541.1_r0212.370000.370000.56.1.0.50.50.126.396.553.0_r0312.370000.370000.56.2.1.80.52.112.547.479.0_fa2.60.60.74.40.50.56_fb_fh1_fc2.919191.55.2.919191.55.42.61.61.42.50.50_fd1.0.31.0B0C0D.56_fe54.62_ff0000000000_fg0.40_pa0.0.0.0.40.50.85.78.0.0_t00_pb_pc_pd_pe_ga0_gb1_gc11.0_ge0000000000_gh_gf_gg_gd10000000_ha89.89_hb61.1.61.100_hc1.32.4.1.32.4_hd35.1.68.100_ia_if_ib_id_ic_jc_ie_ja_jb_jd_je_jf_jg_ka_kb7.FFBEBE.3B2F2A.59_kc_kd_ke_kf_la_lb_oa_os_ob_oc_od_oe_of_lc_m00_n00_s00_og_oh_oo_op_oq_or_om_on_ok_ol_oi_oj_ad0.0.0.0.0.0.0.0.0.0
  6-ruby2=47**aa9.100.1.7.38.9.100.1.7.38_ab_ac_ba50_bb8.1_bc150.500.0.0.1_bd8_be180_ca61.0.13.61.24.4.48.0.8_cb0_da1.0.0.100_db_dd9.1.30.0.0.50_dh1.30.50.50.0_di5_qa_qb_dc17.1.1.1.1_eh1.370000_ea32.0B0C0D.4A0000.56.1.0_ec8.52.0B0C0D.4A0000.56.47.61.0_ed0.78.0.1.4A0000.56_ef5.2.5.56.4A0000.56_eg1.0.5.56.4A0000.56_r0012.56.370000.56.1.0.50.51.123.370.555.0_r0116.370000.56.976E08.1.0.64.69.157.626.541.1_r0212.370000.370000.56.1.0.50.50.126.396.553.0_r0312.370000.370000.56.2.1.80.52.112.547.479.0_fa2.60.60.74.40.50.56_fb_fh1_fc2.919191.55.2.919191.55.42.61.61.42.50.50_fd1.0.31.0B0C0D.56_fe54.62_ff0000000000_fg0.40_pa0.0.0.0.40.50.85.78.0.0_t00_pb_pc_pd_pe_ga0_gb1_gc12.0_ge0000000000_gh_gf_gg_gd10000000_ha68.68_hb60.1.61.100_hc0.47.0.0.47.0_hd35.1.65.100_ia_if_ib_id_ic_jc_ie_ja_jb_jd_je_jf_jg_ka_kb_kc_kd_ke_kf_la_lb_oa_os_ob_oc_od_oe_of_lc_m00_n00_s00_og_oh_oo_op_oq_or_om_on_ok_ol_oi_oj_ad0.0.0.0.0.0.0.0.0.0
  6-ruby3=47**aa9.100.1.7.38.9.100.1.7.38_ab_ac_ba50_bb8.1_bc150.500.0.0.1_bd8_be180_ca61.0.13.61.24.4.48.0.8_cb0_da1.0.0.100_db_dd9.1.30.0.0.50_dh1.30.50.50.0_di5_qa_qb_dc17.1.1.1.1_eh1.370000_ea32.0B0C0D.4A0000.56.1.0_ec8.52.0B0C0D.4A0000.56.47.61.0_ed0.78.0.1.4A0000.56_ef5.2.5.56.4A0000.56_eg1.0.5.56.4A0000.56_r0012.56.370000.56.1.0.50.51.123.370.555.0_r0116.370000.56.976E08.1.0.64.69.157.626.541.1_r0212.370000.370000.56.1.0.50.50.126.396.553.0_r0312.370000.370000.56.2.1.80.52.112.547.479.0_fa2.60.60.74.40.50.56_fb_fh1_fc2.919191.55.2.919191.55.42.61.61.42.50.50_fd1.0.31.0B0C0D.56_fe54.62_ff0000000000_fg0.40_pa0.0.0.0.40.50.85.78.0.0_t00_pb_pc_pd_pe_ga0_gb1_gc12.0_ge0000000000_gh_gf_gg_gd10000000_ha68.68_hb60.1.61.100_hc0.47.0.0.47.0_hd35.1.65.100_ia_if_ib_id_ic_jc_ie_ja_jb_jd_je_jf_jg_ka_kb7.FFBEBE.3B2F2A.59_kc_kd_ke_kf_la_lb_oa_os_ob_oc_od_oe_of_lc_m00_n00_s00_og_oh_oo_op_oq_or_om_on_ok_ol_oi_oj_ad0.0.0.0.0.0.0.0.0.0
  6-yang1=47**aa12.53.1.8.33.12.53.1.8.33_ab_ac_ba50_bb6.1_bc675.500.8.0.1_bd7_be180_ca60.0.36.79.15.34.86.0.10_cb0_da1.0.0.100_db_dd9.3.0.9.17.50_dh1.30.50.50.0_di8_qa_qb_dc2.5.1.1.1_eh_ea27.FFCD53.FFCD53.E2B833.1.0_ec11.70.FFCD53.FFCD53.976E08.37.70.0_ed3.53.0.1.FFCD53.A27B43_ef_eg_r004.FFCD53.E5B941.976E08.2.0.19.30.332.493.644.1_r0131.FFCD53.FFCD53.976E08.0.0.39.50.350.549.463.1_r0252.FFCD53.FFCD53.976E08.0.0.70.54.40.456.480.1_r0358.FFCD53.FFCD53.976E08.0.0.50.50.0.620.424.0_r0461.FFCD53.FFCD53.976E08.0.0.50.50.0.549.439.0_fa4.76.87.73.32.65.56_fb7_fh1_fc2.C386FD.55.2.C386FD.55.37.61.61.37.48.50_fd1.0.36.FFCD53.56_fe50.73_ff0000000000_fg0.52_pa0.0.0.0.40.50.85.85.0.0_t00_pb_pc_pd_pe_ga0_gb1_gc10.0_ge0000000000_gh_gf_gg_gd10000000_ha91.91_hb49.1.55.99_hc1.42.21.1.42.21_hd24.1.64.65_ia_if_ib_id_ic_jc_ie_ja_jb_jd_je_jf_jg_ka_kb7.FFBEBE.3B2F2A.59_kc_kd_ke_kf_la_lb_oa_os_ob_oc_od_oe_of_lc_m00_n00_s00_og_oh_oo_op_oq_or_om_on_ok_ol_oi_oj_ad0.0.0.0.0.0.0.0.0.0
  6-yang2=47**aa61.45.1.13.0.54.48.1.13.0_ab_ac_ba50_bb57.1_bc675.500.8.0.1_bd57_be180_ca60.0.36.79.15.34.86.0.10_cb0_da1.0.0.100_db_dd9.3.0.9.17.50_dh1.30.50.50.0_di8_qa_qb_dc2.5.1.1.1_eh_ea27.FFCD53.FFCD53.E2B833.1.0_ec11.70.FFCD53.FFCD53.976E08.37.70.0_ed3.53.0.1.FFCD53.A27B43_ef_eg_r004.FFCD53.E5B941.976E08.2.0.19.30.332.493.644.1_r0131.FFCD53.FFCD53.976E08.0.0.39.50.350.549.463.1_r0252.FFCD53.FFCD53.976E08.0.0.70.54.40.456.480.1_r0358.FFCD53.FFCD53.976E08.0.0.50.50.0.620.424.0_r0461.FFCD53.FFCD53.976E08.0.0.50.50.0.549.439.0_fa4.76.87.73.32.65.56_fb7_fh1_fc2.C386FD.55.2.C386FD.55.37.61.61.37.48.50_fd1.0.36.FFCD53.56_fe50.73_ff0000000000_fg0.52_pa0.0.0.0.40.50.85.85.0.0_t0011.55.43.0.10.10.84.526.306.0_t0112.55.43.0.10.10.132.504.306.0_pb_pc_pd_pe_ga0_gb1_gc12.0_ge0000000000_gh_gf_gg_gd10000000_ha74.74_hb20.1.4.99_hc0.69.11.0.69.11_hd42.1.100.65_ia_if_ib_id_ic_jc_ie_ja_jb_jd_je_jf_jg_ka_kb7.FFBEBE.3B2F2A.59_kc_kd_ke_kf_la_lb_oa_os_ob_oc_od_oe_of_lc_m00_n00_s00_og_oh_oo_op_oq_or_om_on_ok_ol_oi_oj_ad0.0.0.0.0.0.0.0.0.0
  7-ruby2=47**aa7.100.1.4.48.7.100.1.4.48_ab_ac_ba50_bb11.1_bc150.500.0.0.1_bd11_be180_ca61.0.13.61.24.4.48.0.8_cb0_da1.0.0.100_db_dd9.1.30.0.0.50_dh1.30.50.50.0_di5_qa_qb_dc17.1.1.1.1_eh1.370000_ea32.0B0C0D.4A0000.56.1.0_ec8.52.0B0C0D.4A0000.56.47.61.0_ed0.78.0.1.4A0000.56_ef5.2.5.56.4A0000.56_eg1.0.5.56.4A0000.56_r0012.56.370000.56.1.0.50.51.123.370.555.0_r0116.370000.56.976E08.1.0.64.69.157.626.541.1_r0212.370000.370000.56.1.0.50.50.126.396.553.0_r0312.370000.370000.56.2.1.80.52.112.547.479.0_fa2.60.60.74.40.50.56_fb_fh1_fc2.919191.55.2.919191.55.42.61.61.42.50.50_fd1.0.31.0B0C0D.56_fe54.62_ff0000000000_fg0.40_pa0.0.0.0.40.50.85.78.0.0_t00_pb_pc_pd_pe_ga0_gb1_gc11.0_ge0000000000_gh_gf_gg_gd10000000_ha68.68_hb60.1.61.100_hc0.47.0.0.47.0_hd35.1.65.100_ia_if_ib_id_ic_jc_ie_ja_jb_jd_je_jf_jg_ka_kb_kc_kd_ke_kf_la_lb_oa_os_ob_oc_od_oe_of_lc_m00_n00_s00_og_oh_oo_op_oq_or_om_on_ok_ol_oi_oj_ad0.0.0.0.0.0.0.0.0.0
  7-yang1=47**aa14.88.1.3.45.14.88.1.3.45_ab_ac_ba50_bb46.1_bc675.500.8.0.1_bd46_be180_ca60.0.36.79.15.34.86.0.10_cb0_da1.0.0.100_db_dd9.3.0.9.17.50_dh1.30.50.50.0_di8_qa_qb_dc10.5.1.1.1_eh_ea27.FFCD53.FFCD53.E2B833.1.0_ec11.70.FFCD53.FFCD53.976E08.37.70.0_ed3.53.0.1.FFCD53.A27B43_ef_eg_r004.FFCD53.E5B941.976E08.2.0.19.30.332.493.644.1_r0131.FFCD53.FFCD53.976E08.0.0.39.50.350.549.463.1_r0252.FFCD53.FFCD53.976E08.0.0.70.54.40.456.480.1_r0358.FFCD53.FFCD53.976E08.0.0.50.50.0.620.424.0_r0461.FFCD53.FFCD53.976E08.0.0.50.50.0.549.439.0_fa4.76.87.73.32.65.56_fb7_fh1_fc2.C386FD.55.2.C386FD.55.37.61.61.37.48.50_fd1.0.36.FFCD53.56_fe50.73_ff0000000000_fg0.52_pa0.0.0.0.40.50.85.85.0.0_t0011.55.43.0.10.10.84.526.306.0_t0112.55.43.0.10.10.132.504.306.0_pb_pc_pd_pe_ga0_gb1_gc12.0_ge0000000000_gh_gf_gg_gd10000000_ha74.74_hb51.1.50.99_hc0.69.11.0.69.11_hd42.1.100.65_ia_if_ib_id_ic_jc_ie_ja_jb_jd_je_jf_jg_ka_kb_kc_kd_ke_kf_la_lb_oa_os_ob_oc_od_oe_of_lc_m00_n00_s00_og_oh_oo_op_oq_or_om_on_ok_ol_oi_oj_ad0.0.0.0.0.0.0.0.0.0
		
  7-ruby1=47**aa22.75.1.21.92.22.75.1.21.92_ab_ac_ba50_bb66.1_bc150.500.0.0.1_bd66_be180_ca61.0.13.61.24.4.48.0.8_cb0_da1.0.0.100_db_dd9.1.30.0.0.50_dh1.30.50.50.0_di5_qa_qb_dc2.1.1.1.EA7C6D_eh1.370000_ea32.0B0C0D.4A0000.56.1.0_ec8.52.0B0C0D.4A0000.56.47.61.0_ed0.78.0.1.4A0000.56_ef5.2.5.56.4A0000.56_eg1.0.5.56.4A0000.56_r0012.56.370000.56.1.0.50.51.123.370.555.0_r0116.370000.56.56.1.0.64.69.157.626.541.1_r0212.370000.370000.56.1.0.50.50.126.396.553.0_r0312.370000.370000.56.2.1.80.52.112.547.479.0_fa2.60.60.74.40.50.56_fb_fh1_fc2.919191.55.2.919191.55.42.61.61.42.50.50_fd1.0.31.0B0C0D.56_fe54.62_ff0000000000_fg0.40_pa0.0.0.0.40.50.85.78.0.0_t00_pb_pc_pd_pe_ga0_gb1_gc12.0_ge0000000000_gh_gf_gg_gd10000000_ha89.89_hb60.1.61.100_hc1.36.11.1.36.11_hd35.1.65.100_ia_if_ib_id_ic_jc_ie_ja_jb_jd_je_jf_jg_ka_kb_kc_kd_ke_kf_la_lb_oa_os_ob_oc_od_oe_of_lc_m00_n00_s00_og_oh_oo_op_oq_or_om_on_ok_ol_oi_oj_ad0.0.0.0.0.0.0.0.0.0
  7-yang2=47**aa22.84.1.28.18.22.84.1.28.18_ab_ac_ba50_bb77.1_bc675.500.8.0.1_bd77_be180_ca60.0.36.79.15.34.86.0.10_cb0_da1.0.0.100_db_dd9.3.0.9.17.50_dh1.30.50.50.0_di8_qa_qb_dc12.5.1.1.EA7C6D_eh_ea27.FFCD53.FFCD53.E2B833.1.0_ec11.70.FFCD53.FFCD53.976E08.37.70.0_ed3.53.0.1.FFCD53.A27B43_ef_eg_r004.FFCD53.E5B941.976E08.2.0.19.30.332.493.644.1_r0131.FFCD53.FFCD53.976E08.0.0.39.50.350.549.463.1_r0252.FFCD53.FFCD53.976E08.0.0.70.54.40.456.480.1_r0358.FFCD53.FFCD53.976E08.0.0.50.50.0.620.424.0_r0461.FFCD53.FFCD53.976E08.0.0.50.50.0.549.439.0_fa4.76.87.73.32.65.56_fb7_fh1_fc2.C386FD.55.2.C386FD.55.37.61.61.37.48.50_fd1.0.36.FFCD53.56_fe50.73_ff0000000000_fg0.52_pa0.0.0.0.40.50.85.85.0.0_t00_pb_pc_pd_pe_ga0_gb1_gc12.0_ge0000000000_gh_gf_gg_gd10000000_ha89.89_hb51.1.0.99_hc1.32.11.1.32.11_hd35.1.100.100_ia_if_ib_id_ic_jc_ie_ja_jb_jd_je_jf_jg_ka_kb_kc_kd_ke_kf_la_lb_oa_os_ob_oc_od_oe_of_lc_m00_n00_s00_og_oh_oo_op_oq_or_om_on_ok_ol_oi_oj_ad0.0.0.0.0.0.0.0.0.0

