﻿#0-Start

0-wink=47***aa19.0.1.0.50.6.100.0.0.50_ab_ac_ba50_bb98.1_bc217.500.0.0.1_bd17_be180_ca70.0.46.62.18.32.34.0.0_cb0_da1.0.E4CCE8.100_db_dd0.1.34.50.50.50_dh4.30.50.57.4_di7_qa_qb_dc0.1.1.1.1_eh4.40_ea24.40.40.56.0.0_ec_ed0.16.1.1.40.56_ef0.0.50.40.40.56_eg0.0.50.40.40.56_r00_fa2.50.57.12.64.65.56_fb7_fh2_fc0.19.55.0.19.55.44.61.61.50.50.50_fd1.1.41.40.56_fe50.61_ff0000000000_fg0.50_pa0.0.0.0.40.50.85.85.0.0_t00_pb_pc_pd_pe_ga0_gb1_gc0.0_ge0000000000_gh_gf_gg_gd10000000_ha89.89_hb49.1.44.99_hc0.59.39.0.59.39_hd0.1.49.49_ia_if_ib7.44.49.60.0.0.0.1.1.0.0.1.0.0.15_id_ic_jc_ie4.56.56.0.2.60.60.0.2.60.60.0.0_ja13.60.2.0_jb13.60.2.0_jd_je14.55.44.60_jf_jg_ka0.43.43.1.0_kb_kc_kd_ke_kf_la18.67CD5F.55.0.1_lb_oa_os_ob_oc_od_oe_of_lc_m013.4EBA43.3.0.2.0.44.0.0.79.3.61_n00_s003.34.34.34.0.38.0.573.534.3.0.0.38.4.61_og_oh_oo_op_oq_or_om_on_ok_ol_oi7.55.60.34.0_oj7.55.60.34.0_ad0.0.0.0.0.0.0.0.0.0*0*0*0*0*0*0*0*0#/]a00_b00_c00_d00_w00_x00_e00_y00_z00_ua1.0.0.0.100_uf0.3.0.0_ue_ub_u0_v0_uc7.0.30_ud7.8
crop_pixels=0,0,800,1400
0-calm=47**aa49.28.1.16.50.22.100.0.3.50_ab_ac_ba51_bb9.1_bc150.500.8.0.1_bd9_be180_ca64.0.15.75.15.0.34.0.33_cb0_da1.0.0.100_db_dd9.1.30.19.64.50_dh7.43.50.50.0_di5_qa_qb_dc36.2.2.2.2_eh4.233056_ea10.233056.223565.53.0.0_ec_ed15.20.0.1.233056.56_ef1.0.3.233056.233056.56_eg1.0.3.233056.233056.56_r0028.233056.233056.56.0.0.50.50.139.584.388.0_fa4.76.50.60.50.40.56_fb_fh_fc0.28.30.0.28.30.50.61.61.50.50.50_fd16.0.31.233056.55_fe58.63_ff0000000000_fg1.39_pa0.0.0.0.40.50.85.85.0.0_t000.F9DCC3.F9DCC3.0.100.100.0.466.506.0_pb_pc_pd_pe_ga0_gb1_gc22.0_ge0000000000_gh_gf_gg_gd10100000_ha81.81_hb45.1.53.62_hc0.59.39.0.59.39_hd1.1.60.60_ia_if_ib_id_ic_jc_ie_ja_jb_jd3.c60c25.C60C25.57_je3.c60c25.C60C25.57_jf_jg_ka23.c60c25.55.55.0_kb_kc_kd_ke_kf_la_lb30.c60c25.C60C25.0.1.0.50_oa_os_ob19.3.0.0_oc19.3.0.0_od_oe_of_lc_m00_n00_s002.6.6.45.0.100.22.509.490.3.0.0.50.2.61_og_oh_oo_op_oq_or_om_on_ok_ol_oi_oj_ad0.0.0.0.0.0.0.0.0.0
0-wink=47**aa30.84.1.26.65.17.22.1.33.50_ab_ac_ba78_bb55.0_bc150.500.8.0.1_bd8_be180_ca64.0.15.75.15.0.34.0.33_cb0_da1.0.0.100_db_dd9.1.30.19.64.50_dh7.43.50.50.0_di5_qa_qb_dc36.2.2.2.2_eh4.233056_ea10.233056.223565.53.0.0_ec_ed15.20.0.1.233056.56_ef1.0.3.233056.233056.56_eg1.0.3.233056.233056.56_r0028.233056.233056.56.0.0.50.50.139.584.388.0_fa4.76.50.60.50.40.56_fb_fh_fc0.28.30.0.28.30.50.61.61.50.50.50_fd16.0.31.233056.55_fe58.63_ff0000000000_fg1.39_pa0.0.0.0.40.50.85.85.0.0_t000.F9DCC3.F9DCC3.0.100.100.0.466.506.0_pb_pc_pd_pe_ga0_gb1_gc0.0_ge0000000000_gh_gf_gg_gd10100000_ha100.0_hb37.1.26.62_hc0.59.39.0.59.39_hd1.1.65.60_ia_if_ib_id_ic_jc_ie_ja_jb_jd3.c60c25.C60C25.57_je3.c60c25.C60C25.57_jf_jg_ka23.c60c25.55.55.0_kb_kc_kd_ke_kf_la_lb30.c60c25.C60C25.0.1.0.50_oa_os_ob19.3.0.0_oc19.3.0.0_od_oe_of_lc_m00_n00_s002.6.6.45.0.100.22.509.490.3.0.0.50.2.61_og_oh_oo_op_oq_or_om_on_ok_ol_oi_oj_ad0.0.0.0.0.0.0.0.0.0
1-wink=47**aa76.21.1.3.50.27.76.0.49.50_ab_ac_ba74_bb7.1_bc150.500.8.0.1_bd83_be180_ca64.0.15.75.15.0.34.0.33_cb0_da1.0.0.100_db_dd9.1.30.19.64.50_dh7.43.50.50.0_di5_qa_qb_dc36.2.2.2.2_eh4.233056_ea10.233056.223565.53.0.0_ec_ed15.20.0.1.233056.56_ef1.2.3.233056.233056.56_eg1.2.3.233056.233056.56_r0028.233056.233056.56.0.0.50.50.139.584.388.0_fa4.76.50.60.50.40.56_fb_fh_fc0.28.30.0.28.30.50.61.61.50.50.50_fd16.0.31.233056.55_fe58.63_ff0000000000_fg1.39_pa0.0.0.0.40.50.85.85.0.0_t000.F9DCC3.F9DCC3.0.100.100.0.466.506.0_pb_pc_pd_pe_ga0_gb1_gc0.0_ge0000000000_gh_gf_gg_gd10100000_ha0.80_hb66.1.41.65_hc0.39.43.0.39.43_hd23.1.48.24_ia_if_ib_id_ic_jc_ie_ja_jb_jd3.c60c25.C60C25.57_je3.c60c25.C60C25.57_jf_jg_ka23.c60c25.55.55.0_kb_kc_kd_ke_kf_la_lb30.c60c25.C60C25.0.1.0.50_oa_os_ob19.3.0.0_oc19.3.0.0_od_oe_of_lc_m00_n00_s00_og_oh_oo_op_oq_or_om_on_ok_ol_oi_oj_ad0.0.0.0.0.0.0.0.0.0


2-calm=47**aa54.31.0.24.50.12.5.0.0.50_ab_ac_ba50_bb19.0_bc150.500.8.0.1_bd19_be180_ca64.0.15.75.15.0.34.0.33_cb0_da1.0.25.100_db_dd9.1.30.19.64.50_dh7.43.50.50.0_di5_qa_qb_dc36.2.2.2.2_eh4.233056_ea10.233056.223565.53.0.0_ec_ed15.20.0.1.233056.56_ef1.2.3.233056.233056.56_eg1.2.3.233056.233056.56_r0028.233056.233056.56.0.0.50.50.139.584.388.0_fa4.76.50.60.50.40.56_fb_fh_fc0.28.30.0.28.30.50.61.61.50.50.50_fd16.0.31.233056.55_fe58.63_ff0000000000_fg1.39_pa0.0.0.0.40.50.85.85.0.0_t00_pb_pc_pd_pe_ga0_gb0_gc6.0_ge0000000000_gh_gf_gg_gd10000000_ha85.85_hb49.1.44.88_hc0.59.39.0.59.39_hd1.1.49.49_ia_if_ib7.2.55.2.2.3.0.1.1.0.0.1.0.0.1_id_ic_jc_ie_ja_jb_jd2.c60c25.C60C25.57_je2.c60c25.C60C25.57_jf_jg_ka30.c60c25.C60C25.C60C25.0_kb20.c60c25.C60C25.C60C25_kc_kd_ke_kf_la_lb_oa_os_ob19.3.0.0_oc19.3.0.0_od_oe_of_lc_m00_n00_s00_og_oh_oo_op_oq_or_om_on_ok_ol_oi_oj_ad0.0.0.0.0.0.0.0.0.0
2-confident=47**aa49.34.0.34.56.33.74.1.42.50_ab_ac_ba74_bb19.1_bc150.500.8.0.1_bd19_be180_ca64.0.15.75.15.0.34.0.33_cb0_da1.0.25.100_db_dd9.1.30.19.64.50_dh7.43.50.50.0_di5_qa_qb_dc36.2.2.2.2_eh4.233056_ea10.233056.223565.53.0.0_ec_ed15.20.0.1.233056.56_ef1.2.3.233056.233056.56_eg1.2.3.233056.233056.56_r0028.233056.233056.56.0.0.50.50.139.584.388.0_fa4.76.50.60.50.40.56_fb_fh_fc0.28.30.0.28.30.50.61.61.50.50.50_fd16.0.31.233056.55_fe58.63_ff0000000000_fg1.39_pa0.0.0.0.40.50.85.85.0.0_t00_pb_pc_pd_pe_ga0_gb0_gc26.0_ge0000000000_gh_gf_gg_gd10000000_ha82.0_hb48.1.43.60_hc0.25.47.0.25.47_hd2.1.57.49_ia_if_ib7.2.55.2.2.3.0.1.1.0.0.1.0.0.1_id_ic_jc_ie_ja_jb_jd2.c60c25.C60C25.57_je2.c60c25.C60C25.57_jf_jg_ka30.c60c25.C60C25.C60C25.0_kb20.c60c25.C60C25.C60C25_kc_kd_ke_kf_la_lb_oa_os_ob19.3.0.0_oc19.3.0.0_od_oe_of_lc_m00_n00_s00_og_oh_oo_op_oq_or_om_on_ok_ol_oi_oj_ad0.0.0.0.0.0.0.0.0.0
3-excited=47**aa49.34.0.40.56.33.58.1.22.50_ab_ac_ba86_bb28.1_bc150.500.0.0.1_bd9_be180_ca64.0.15.75.15.0.34.0.33_cb0_da1.0.0.100_db_dd9.1.30.19.64.50_dh7.43.50.50.0_di5_qa_qb_dc36.2.2.2.2_eh4.233056_ea10.233056.223565.53.0.0_ec_ed15.20.0.1.233056.56_ef1.2.3.233056.233056.56_eg1.2.3.233056.233056.56_r0028.233056.233056.56.0.0.50.50.139.584.388.0_fa4.76.50.60.50.40.56_fb_fh_fc0.28.30.0.28.30.50.61.61.50.50.50_fd16.0.31.233056.55_fe58.63_ff0000000000_fg1.39_pa0.0.0.0.40.50.85.85.0.0_t00_pb_pc_pd_pe_ga0_gb0_gc26.0_ge0000000000_gh_gf_gg_gd10000000_ha100.100_hb48.1.43.60_hc0.25.47.0.25.47_hd24.1.57.49_ia_if_ib7.2.55.2.2.3.0.1.1.0.0.1.0.0.1_id_ic_jc_ie_ja_jb_jd_je_jf_jg_ka30.c60c25.C60C25.C60C25.0_kb20.c60c25.C60C25.C60C25_kc_kd_ke_kf_la_lb_oa_os_ob19.3.0.0_oc19.3.0.0_od_oe_of_lc_m00_n00_s00_og_oh_oo_op_oq_or_om_on_ok_ol_oi_oj_ad0.0.0.0.0.0.0.0.0.0
3-stripped=47**aa29.3.0.49.50.24.74.0.0.50_ab_ac_ba58_bb17.1_bc150.500.8.0.1_bd61_be180_ca64.0.15.75.15.0.34.0.33_cb0_da1.0.0.100_db_dd9.1.30.19.64.50_dh7.43.50.50.0_di5_qa_qb_dc36.2.2.2.2_eh4.233056_ea10.233056.223565.53.0.0_ec_ed15.20.0.1.233056.56_ef1.2.3.233056.233056.56_eg1.2.3.233056.233056.56_r0028.233056.233056.56.0.0.50.50.139.584.388.0_fa4.76.50.60.50.40.56_fb_fh_fc0.28.30.0.28.30.50.61.61.50.50.50_fd16.0.31.233056.55_fe58.63_ff0000000000_fg1.39_pa0.0.0.0.40.50.85.85.0.0_t00_pb_pc_pd_pe_ga0_gb0_gc56.0_ge0000000000_gh_gf_gg_gd10000000_ha86.86_hb56.1.62.64_hc3.45.35.3.45.35_hd7.1.62.54_ia_if_ib7.2.55.2.2.3.0.1.1.0.0.1.0.0.1_id_ic_jc_ie_ja_jb_jd_je_jf_jg_ka30.c60c25.C60C25.C60C25.0_kb20.c60c25.C60C25.C60C25_kc_kd_ke_kf_la_lb_oa_os_ob19.3.0.0_oc19.3.0.0_od_oe_of_lc_m00_n00_s00_og_oh_oo_op_oq_or_om_on_ok_ol_oi_oj_ad0.0.0.0.0.0.0.0.0.0
4-excited=47**aa68.21.0.8.50.82.44.0.47.50_ab_ac_ba25_bb53.0_bc150.500.8.0.1_bd6_be180_ca64.0.15.75.15.0.34.0.33_cb0_da1.0.0.100_db_dd9.1.30.19.64.50_dh7.43.50.50.0_di5_qa_qb_dc36.2.2.2.2_eh4.233056_ea10.233056.223565.53.0.0_ec_ed15.20.0.1.233056.56_ef1.2.3.233056.233056.56_eg1.2.3.233056.233056.56_r0028.233056.233056.56.0.0.50.50.139.584.388.0_fa4.76.50.60.50.40.56_fb_fh_fc0.28.30.0.28.30.50.61.61.50.50.50_fd16.0.31.233056.55_fe58.63_ff0000000000_fg1.39_pa0.0.0.0.40.50.85.85.0.0_t00_pb_pc_pd_pe_ga0_gb0_gc32.0_ge0000000000_gh_gf_gg_gd10000000_ha90.90_hb0.1.25.44_hc0.59.39.0.59.39_hd25.1.44.100_ia_if_ib_id_ic_jc_ie_ja_jb_jd_je_jf_jg_ka30.c60c25.C60C25.C60C25.0_kb20.c60c25.C60C25.C60C25_kc_kd_ke_kf_la_lb_oa_os_ob19.3.0.0_oc19.3.0.0_od_oe_of_lc_m00_n00_s00_og_oh_oo_op_oq_or_om_on_ok_ol_oi_oj_ad0.0.0.0.0.0.0.0.0.0
5-wink=47**aa15.0.1.1.100.15.0.1.1.100_ab_ac_ba52_bb14.0_bc150.500.8.0.1_bd14_be180_ca64.0.15.75.15.0.34.0.33_cb0_da1.0.0.100_db_dd9.1.30.19.64.50_dh7.43.50.50.0_di5_qa_qb_dc36.2.2.2.2_eh4.233056_ea10.233056.223565.53.0.0_ec_ed15.20.0.1.233056.56_ef1.2.3.233056.233056.56_eg1.2.3.233056.233056.56_r0028.233056.233056.56.0.0.50.50.139.584.388.0_fa4.76.50.60.50.40.56_fb_fh_fc0.28.30.0.28.30.50.61.61.50.50.50_fd16.0.31.233056.55_fe58.63_ff0000000000_fg1.39_pa0.0.0.0.40.50.85.85.0.0_t00_pb_pc_pd_pe_ga0_gb0_gc46.0_ge0000000000_gh_gf_gg_gd10000000_ha0.100_hb100.1.80.47_hc0.25.47.0.25.47_hd24.1.57.24_ia_if_ib_id_ic_jc_ie_ja_jb_jd_je_jf_jg_ka_kb20.c60c25.C60C25.C60C25_kc_kd_ke_kf_la_lb_oa_os_ob19.3.0.0_oc19.3.0.0_od_oe_of_lc_m00_n00_s00_og_oh_oo_op_oq_or_om_on_ok_ol_oi_oj_ad0.0.0.0.0.0.0.0.0.0


7-alarmed=47**aa23.37.1.27.52.80.25.1.12.50_ab_ac_ba0_bb97.1_bc150.500.8.0.1_bd55_be180_ca64.0.15.75.15.0.34.0.33_cb0_da1.0.0.100_db_dd9.1.30.19.64.50_dh7.43.50.50.0_di5_qa_qb_dc36.2.2.2.2_eh4.233056_ea10.233056.223565.53.0.0_ec_ed15.20.0.1.233056.56_ef1.2.3.233056.233056.56_eg1.2.3.233056.233056.56_r0028.233056.233056.56.0.0.50.50.139.584.388.0_fa4.76.50.60.50.40.56_fb_fh_fc0.28.30.0.28.30.50.61.61.50.50.50_fd16.0.31.233056.55_fe58.63_ff0000000000_fg1.39_pa0.0.0.0.40.50.85.85.0.0_t00_pb_pc_pd_pe_ga0_gb0_gc100.0_ge0000000000_gh_gf_gg_gd10000000_ha100.100_hb49.1.39.0_hc2.59.39.2.59.39_hd32.1.22.78_ia_if_ib_id_ic_jc_ie_ja_jb_jd_je_jf_jg_ka_kb_kc_kd_ke_kf_la_lb_oa_os_ob19.3.0.0_oc19.3.0.0_od_oe_of_lc_m00_n00_s00_og_oh_oo_op_oq_or_om_on_ok_ol_oi_oj_ad0.0.0.0.0.0.0.0.0.0
7-confused=47**aa14.66.1.4.32.9.92.1.49.29_ab_ac_ba0_bb55.0_bc150.500.8.0.1_bd97_be180_ca64.0.15.75.15.0.34.0.33_cb0_da1.0.0.100_db_dd9.1.30.19.64.50_dh7.43.50.50.0_di5_qa_qb_dc36.2.2.2.2_eh4.233056_ea10.233056.223565.53.0.0_ec_ed15.20.0.1.233056.56_ef1.2.3.233056.233056.56_eg1.2.3.233056.233056.56_r0028.233056.233056.56.0.0.50.50.139.584.388.0_fa4.76.50.60.50.40.56_fb_fh_fc0.28.30.0.28.30.50.61.61.50.50.50_fd16.0.31.233056.55_fe58.63_ff0000000000_fg1.39_pa0.0.0.0.40.50.85.85.0.0_t00_pb_pc_pd_pe_ga0_gb0_gc0.30_ge0000000000_gh_gf_gg_gd10000000_ha82.82_hb60.1.51.50_hc3.28.47.3.28.47_hd5.1.57.62_ia_if_ib_id_ic_jc_ie_ja_jb_jd_je_jf_jg_ka_kb_kc_kd_ke_kf_la_lb_oa_os_ob19.3.0.0_oc19.3.0.0_od_oe_of_lc_m00_n00_s00_og_oh_oo_op_oq_or_om_on_ok_ol_oi_oj_ad0.0.0.0.0.0.0.0.0.0
7-mast6=47**aa19.80.1.2.55.19.80.1.2.60_ab_ac_ba100_bb55.0_bc150.500.8.0.1_bd97_be180_ca64.0.15.75.15.0.34.0.33_cb0_da1.0.0.100_db_dd9.1.30.19.64.50_dh7.43.50.50.0_di5_qa_qb_dc36.2.2.2.2_eh4.233056_ea10.233056.223565.53.0.0_ec_ed15.20.0.1.233056.56_ef1.0.3.233056.233056.56_eg1.0.3.233056.233056.56_r0028.233056.233056.56.0.0.50.50.139.584.388.0_fa4.76.50.60.50.40.56_fb_fh_fc0.28.30.0.28.30.50.61.61.50.50.50_fd16.0.31.233056.55_fe58.63_ff0000000000_fg1.39_pa0.0.0.0.40.50.85.85.0.0_t00_pb_pc_pd_pe_ga0_gb0_gc100.0_ge0000000000_gh_gf_gg_gd10000000_ha100.100_hb41.1.41.30_hc3.45.35.3.45.35_hd22.1.84.42_ia_if_ib_id_ic_jc_ie_ja_jb_jd_je_jf_jg_ka_kb_kc_kd_ke_kf_la_lb_oa_os_ob19.3.0.0_oc19.3.0.0_od_oe_of_lc_m00_n00_s00_og_oh_oo_op_oq_or_om_on_ok_ol_oi_oj_ad0.0.0.0.0.0.0.0.0.0


8-finished=47***aa19.0.1.0.50.6.100.0.0.50_ab_ac_ba50_bb98.1_bc217.200.0.0.1_bd17_be180_ca70.0.46.62.18.32.34.0.0_cb0_da1.0.0.100_db_dd0.1.34.50.50.50_dh4.30.50.57.4_di7_qa_qb_dc0.1.1.1.1_eh4.40_ea24.40.40.56.0.0_ec_ed0.16.1.1.40.56_ef0.0.50.40.40.56_eg0.0.50.40.40.56_r00_fa2.50.57.12.64.65.56_fb7_fh2_fc0.19.55.0.19.55.44.61.61.50.50.50_fd1.1.41.40.56_fe50.61_ff0000000000_fg0.50_pa0.0.0.0.40.50.85.85.0.0_t00_pb_pc_pd_pe_ga0_gb1_gc0.0_ge0000000000_gh_gf_gg_gd10000000_ha89.89_hb49.1.44.99_hc0.59.39.0.59.39_hd0.1.49.49_ia_if_ib7.44.49.60.0.0.0.1.1.0.0.1.0.0.15_id_ic_jc_ie4.56.56.0.2.60.60.0.2.60.60.0.0_ja13.60.2.0_jb13.60.2.0_jd_je14.55.44.60_jf_jg_ka0.43.43.0.0_kb_kc_kd_ke_kf_la18.67CD5F.55.0.1_lb_oa_os_ob_oc_od_oe_of_lc_m013.4EBA43.3.0.2.0.44.0.0.79.3.61_n00_s003.34.34.34.0.38.0.573.534.3.0.0.38.4.61_og_oh_oo_op_oq_or_om_on_ok_ol_oi7.55.60.34.0_oj7.55.60.34.0_ad0.0.0.0.0.0.0.0.0.0*0*0*0*0*0*0*0*0#/]a00_b00_c00_d00_w00_x00_e00_y00_z00_ua1.0.0.0.100_uf0.3.0.0_ue_ub_u0_v0_uc7.0.30_ud7.8
8-finished=47**aa24.0.1.26.62.0.52.1.25.60_ab_ac_ba47_bb66.1_bc217.200.0.0.1_bd66_be180_ca64.0.15.75.15.0.34.0.33_cb0_da1.0.0.100_db_dd9.1.30.19.64.50_dh7.43.50.50.0_di5_qa_qb_dc36.2.2.2.2_eh4.233056_ea10.233056.223565.53.0.0_ec_ed15.20.0.1.233056.56_ef1.0.3.233056.233056.56_eg1.0.3.233056.233056.56_r0028.233056.233056.56.0.0.50.50.139.584.388.0_fa4.76.50.60.50.40.56_fb_fh_fc0.28.30.0.28.30.50.61.61.50.50.50_fd16.0.31.233056.55_fe58.63_ff0000000000_fg1.39_pa0.0.0.0.40.50.85.85.0.0_t00_pb_pc_pd_pe_ga0_gb0_gc100.0_ge0000000000_gh_gf_gg_gd10000000_ha100.100_hb41.1.39.48_hc3.45.35.3.45.35_hd2.1.100.84_ia_if_ib_id_ic_jc_ie_ja_jb_jd_je_jf_jg_ka_kb_kc_kd_ke_kf_la_lb_oa_os_ob19.3.0.0_oc19.3.0.0_od_oe_of_lc_m00_n00_s00_og_oh_oo_op_oq_or_om_on_ok_ol_oi_oj_ad0.0.0.0.0.0.0.0.0.0
8-confident=47**aa23.0.1.49.56.23.0.1.49.70_ab_ac_ba33_bb67.0_bc217.200.0.0.1_bd65_be180_ca64.0.15.75.15.0.34.0.33_cb0_da1.0.0.100_db_dd9.1.30.19.64.50_dh7.43.50.50.0_di5_qa_qb_dc36.2.2.2.2_eh4.233056_ea10.233056.223565.53.0.0_ec_ed15.20.0.1.233056.56_ef1.2.3.233056.233056.56_eg1.2.3.233056.233056.56_r0028.233056.233056.56.0.0.50.50.139.584.388.0_fa4.76.50.60.50.40.56_fb_fh_fc0.28.30.0.28.30.50.61.61.50.50.50_fd16.0.31.233056.55_fe58.63_ff0000000000_fg1.39_pa0.0.0.0.40.50.85.85.0.0_t00_pb_pc_pd_pe_ga0_gb0_gc78.0_ge0000000000_gh_gf_gg_gd10000000_ha86.86_hb49.1.49.60_hc0.25.47.0.25.47_hd65.1.52.49_ia_if_ib_id_ic_jc_ie_ja_jb_jd_je_jf_jg_ka_kb_kc_kd_ke_kf_la_lb_oa_os_ob19.3.0.0_oc19.3.0.0_od_oe_of_lc_m00_n00_s00_og_oh_oo_op_oq_or_om_on_ok_ol_oi_oj_ad0.0.0.0.0.0.0.0.0.0
