﻿#0-Start

0-alarmed=47**aa9.41.0.39.50.9.41.1.33.50_ab_ac_ba7_bb2.1_bc150.500.8.0.1_bd39_be180_ca64.0.15.75.15.0.34.0.33_cb0_da1.0.0.100_db_dd9.1.30.19.64.50_dh7.43.50.50.0_di5_qa_qb_dc36.2.2.2.2_eh4.233056_ea10.233056.223565.53.0.0_ec_ed15.20.0.1.233056.56_ef1.2.3.233056.233056.56_eg1.2.3.233056.233056.56_r0028.233056.233056.56.0.0.50.50.139.584.388.0_fa4.76.50.60.50.40.56_fb_fh_fc0.28.30.0.28.30.50.61.61.50.50.50_fd16.0.31.233056.55_fe58.63_ff0000000000_fg1.39_pa0.0.0.0.40.50.85.85.0.0_t000.F9DCC3.F9DCC3.0.100.100.0.466.506.0_pb_pc_pd_pe_ga0_gb1_gc22.0_ge0000000000_gh_gf_gg_gd10100000_ha100.100_hb49.1.44.40_hc4.59.39.4.59.39_hd7.1.57.100_ia_if_ib_id_ic_jc_ie_ja_jb_jd3.c60c25.C60C25.57_je3.c60c25.C60C25.57_jf_jg_ka23.c60c25.55.55.0_kb_kc_kd_ke_kf_la_lb30.c60c25.C60C25.0.1.0.50_oa_os_ob19.3.0.0_oc19.3.0.0_od_oe_of_lc_m00_n00_s002.6.6.45.0.100.22.509.490.3.0.0.50.2.61_og_oh_oo_op_oq_or_om_on_ok_ol_oi_oj_ad0.0.0.0.0.0.0.0.0.0
0-bored=47**aa0.0.0.0.50.0.0.0.0.50_ab_ac_ba20_bb1.1_bc150.500.8.0.1_bd1_be180_ca64.0.15.75.15.0.34.0.33_cb0_da1.0.0.100_db_dd9.1.30.19.64.50_dh7.43.50.50.0_di5_qa_qb_dc36.2.2.2.2_eh4.233056_ea10.233056.223565.53.0.0_ec_ed15.20.0.1.233056.56_ef1.0.3.233056.233056.56_eg1.0.3.233056.233056.56_r0028.233056.233056.56.0.0.50.50.139.584.388.0_fa4.76.50.60.50.40.56_fb_fh_fc0.28.30.0.28.30.50.61.61.50.50.50_fd16.0.31.233056.55_fe58.63_ff0000000000_fg1.39_pa0.0.0.0.40.50.85.85.0.0_t000.F9DCC3.F9DCC3.0.100.100.0.466.506.0_pb_pc_pd_pe_ga0_gb1_gc22.0_ge0000000000_gh_gf_gg_gd10100000_ha73.73_hb100.1.47.33_hc0.59.39.0.59.39_hd7.1.49.49_ia_if_ib_id_ic_jc_ie_ja_jb_jd3.c60c25.C60C25.57_je3.c60c25.C60C25.57_jf_jg_ka23.c60c25.55.55.0_kb_kc_kd_ke_kf_la_lb30.c60c25.C60C25.0.1.0.50_oa_os_ob19.3.0.0_oc19.3.0.0_od_oe_of_lc_m00_n00_s002.6.6.45.0.100.22.509.490.3.0.0.50.2.61_og_oh_oo_op_oq_or_om_on_ok_ol_oi_oj_ad0.0.0.0.0.0.0.0.0.0
0-confident=47**aa35.82.0.27.50.51.26.0.37.50_ab_ac_ba41_bb9.1_bc150.500.8.0.1_bd56_be180_ca64.0.15.75.15.0.34.0.33_cb0_da1.0.0.100_db_dd9.1.30.19.64.50_dh7.43.50.50.0_di5_qa_qb_dc36.2.2.2.2_eh4.233056_ea10.233056.223565.53.0.0_ec_ed15.20.0.1.233056.56_ef1.0.3.233056.233056.56_eg1.0.3.233056.233056.56_r0028.233056.233056.56.0.0.50.50.139.584.388.0_fa4.76.50.60.50.40.56_fb_fh_fc0.28.30.0.28.30.50.61.61.50.50.50_fd16.0.31.233056.55_fe58.63_ff0000000000_fg1.39_pa0.0.0.0.40.50.85.85.0.0_t000.F9DCC3.F9DCC3.0.100.100.0.466.506.0_pb_pc_pd_pe_ga0_gb1_gc22.0_ge0000000000_gh_gf_gg_gd10100000_ha81.81_hb59.1.47.77_hc0.59.39.0.59.39_hd25.1.67.49_ia_if_ib_id_ic_jc_ie_ja_jb_jd3.c60c25.C60C25.57_je3.c60c25.C60C25.57_jf_jg_ka23.c60c25.55.55.0_kb_kc_kd_ke_kf_la_lb30.c60c25.C60C25.0.1.0.50_oa_os_ob19.3.0.0_oc19.3.0.0_od_oe_of_lc_m00_n00_s002.6.6.45.0.100.22.509.490.3.0.0.50.2.61_og_oh_oo_op_oq_or_om_on_ok_ol_oi_oj_ad0.0.0.0.0.0.0.0.0.0
0-confused=47**aa31.76.1.49.50.74.26.0.37.50_ab_ac_ba88_bb34.1_bc150.500.8.0.1_bd34_be180_ca64.0.15.75.15.0.34.0.33_cb0_da1.0.0.100_db_dd9.1.30.19.64.50_dh7.43.50.50.0_di5_qa_qb_dc36.2.2.2.2_eh4.233056_ea10.233056.223565.53.0.0_ec_ed15.20.0.1.233056.56_ef1.0.3.233056.233056.56_eg1.0.3.233056.233056.56_r0028.233056.233056.56.0.0.50.50.139.584.388.0_fa4.76.50.60.50.40.56_fb_fh_fc0.28.30.0.28.30.50.61.61.50.50.50_fd16.0.31.233056.55_fe58.63_ff0000000000_fg1.39_pa0.0.0.0.40.50.85.85.0.0_t000.F9DCC3.F9DCC3.0.100.100.0.466.506.0_pb_pc_pd_pe_ga0_gb1_gc22.65_ge0000000000_gh_gf_gg_gd10100000_ha81.81_hb16.1.0.35_hc0.59.39.0.59.39_hd38.1.60.60_ia_if_ib_id_ic_jc_ie_ja_jb_jd3.c60c25.C60C25.57_je3.c60c25.C60C25.57_jf_jg_ka23.c60c25.55.55.0_kb_kc_kd_ke_kf_la_lb30.c60c25.C60C25.0.1.0.50_oa_os_ob19.3.0.0_oc19.3.0.0_od_oe_of_lc_m00_n00_s002.6.6.45.0.100.22.509.490.3.0.0.50.2.61_og_oh_oo_op_oq_or_om_on_ok_ol_oi_oj_ad0.0.0.0.0.0.0.0.0.0
0-embarrassed=47**aa10.57.1.42.50.10.57.1.42.50_ab_ac_ba45_bb18.0_bc150.500.8.0.1_bd5_be180_ca64.0.15.75.15.0.34.0.33_cb0_da1.0.0.100_db_dd9.1.30.19.64.50_dh7.43.50.50.0_di5_qa_qb_dc36.2.2.2.2_eh4.233056_ea10.233056.223565.53.0.0_ec_ed15.20.0.1.233056.56_ef1.0.3.233056.233056.56_eg1.0.3.233056.233056.56_r0028.233056.233056.56.0.0.50.50.139.584.388.0_fa4.76.50.60.50.40.56_fb_fh_fc0.28.30.0.28.30.50.61.61.50.50.50_fd16.0.31.233056.55_fe58.63_ff0000000000_fg1.39_pa0.0.0.0.40.50.85.85.0.0_t000.F9DCC3.F9DCC3.0.100.100.0.466.506.0_pb_pc_pd_pe_ga0_gb1_gc65.0_ge0000000000_gh_gf_gg_gd10100000_ha83.83_hb45.1.100.62_hc0.59.39.0.59.39_hd12.1.65.60_ia_if_ib_id_ic_jc_ie_ja_jb_jd3.c60c25.C60C25.57_je3.c60c25.C60C25.57_jf_jg_ka23.c60c25.55.55.0_kb_kc_kd_ke_kf_la_lb30.c60c25.C60C25.0.1.0.50_oa_os_ob19.3.0.0_oc19.3.0.0_od_oe_of_lc_m00_n00_s002.6.6.45.0.100.22.509.490.3.0.0.50.2.61_og_oh_oo_op_oq_or_om_on_ok_ol_oi_oj_ad0.0.0.0.0.0.0.0.0.0
0-excited=47**aa0.41.0.0.50.72.41.1.0.50_ab_ac_ba79_bb13.0_bc150.500.8.0.1_bd13_be180_ca64.0.15.75.15.0.34.0.33_cb0_da1.0.0.100_db_dd9.1.30.19.64.50_dh7.43.50.50.0_di5_qa_qb_dc36.2.2.2.2_eh4.233056_ea10.233056.223565.53.0.0_ec_ed15.20.0.1.233056.56_ef1.0.3.233056.233056.56_eg1.0.3.233056.233056.56_r0028.233056.233056.56.0.0.50.50.139.584.388.0_fa4.76.50.60.50.40.56_fb_fh_fc0.28.30.0.28.30.50.61.61.50.50.50_fd16.0.31.233056.55_fe58.63_ff0000000000_fg1.39_pa0.0.0.0.40.50.85.85.0.0_t000.F9DCC3.F9DCC3.0.100.100.0.466.506.0_pb_pc_pd_pe_ga0_gb1_gc22.0_ge0000000000_gh_gf_gg_gd10100000_ha0.0_hb49.1.44.99_hc0.59.39.0.59.39_hd22.1.49.49_ia_if_ib_id_ic_jc_ie_ja_jb_jd3.c60c25.C60C25.57_je3.c60c25.C60C25.57_jf_jg_ka23.c60c25.55.55.0_kb_kc_kd_ke_kf_la_lb30.c60c25.C60C25.0.1.0.50_oa_os_ob19.3.0.0_oc19.3.0.0_od_oe_of_lc_m00_n00_s002.6.6.45.0.100.22.509.490.3.0.0.50.2.61_og_oh_oo_op_oq_or_om_on_ok_ol_oi_oj_ad0.0.0.0.0.0.0.0.0.0
0-must_strip=47**aa27.72.1.10.35.27.72.1.10.35_ab_ac_ba56_bb0.0_bc150.500.8.0.1_bd0_be180_ca64.0.15.75.15.0.34.0.33_cb0_da1.0.0.100_db_dd9.1.30.19.64.50_dh7.43.50.50.0_di5_qa_qb_dc36.2.2.2.2_eh4.233056_ea10.233056.223565.53.0.0_ec_ed15.20.0.1.233056.56_ef1.2.3.233056.233056.56_eg1.2.3.233056.233056.56_r0028.233056.233056.56.0.0.50.50.139.584.388.0_fa4.76.50.60.50.40.56_fb_fh_fc0.28.30.0.28.30.50.61.61.50.50.50_fd16.0.31.233056.55_fe58.63_ff0000000000_fg1.39_pa0.0.0.0.40.50.85.85.0.0_t000.F9DCC3.F9DCC3.0.100.100.0.466.506.0_pb_pc_pd_pe_ga0_gb1_gc68.0_ge0000000000_gh_gf_gg_gd10100000_ha100.100_hb0.1.19.24_hc0.59.39.0.59.39_hd9.1.57.100_ia_if_ib_id_ic_jc_ie_ja_jb_jd3.c60c25.C60C25.57_je3.c60c25.C60C25.57_jf_jg_ka23.c60c25.55.55.0_kb_kc_kd_ke_kf_la_lb30.c60c25.C60C25.0.1.0.50_oa_os_ob19.3.0.0_oc19.3.0.0_od_oe_of_lc_m00_n00_s002.6.6.45.0.100.22.509.490.3.0.0.50.2.61_og_oh_oo_op_oq_or_om_on_ok_ol_oi_oj_ad0.0.0.0.0.0.0.0.0.0
0-stripping=47**aa34.81.1.0.42.33.78.1.0.42_ab_ac_ba43_bb19.0_bc150.500.8.0.1_bd19_be180_ca64.0.15.75.15.0.34.0.33_cb0_da1.0.0.100_db_dd9.1.30.19.64.50_dh7.43.50.50.0_di5_qa_qb_dc36.2.2.2.2_eh4.233056_ea10.233056.223565.53.0.0_ec_ed15.20.0.1.233056.56_ef1.0.3.233056.233056.56_eg1.0.3.233056.233056.56_r0028.233056.233056.56.0.0.50.50.139.584.388.0_fa4.76.50.60.50.40.56_fb_fh_fc0.28.30.0.28.30.50.61.61.50.50.50_fd16.0.31.233056.55_fe58.63_ff0000000000_fg1.39_pa0.0.0.0.40.50.85.85.0.0_t000.F9DCC3.F9DCC3.0.100.100.0.466.506.0_pb_pc_pd_pe_ga0_gb1_gc0.0_ge0000000000_gh_gf_gg_gd10100000_ha0.0_hb37.1.26.62_hc0.59.39.0.59.39_hd5.1.65.60_ia_if_ib_id_ic_jc_ie_ja_jb_jd3.c60c25.C60C25.57_je3.c60c25.C60C25.57_jf_jg_ka23.c60c25.55.55.0_kb_kc_kd_ke_kf_la_lb30.c60c25.C60C25.0.1.0.50_oa_os_ob19.3.0.0_oc19.3.0.0_od_oe_of_lc_m00_n00_s002.6.6.45.0.100.22.509.490.3.0.0.50.2.61_og_oh_oo_op_oq_or_om_on_ok_ol_oi_oj_ad0.0.0.0.0.0.0.0.0.0

#1-Yo-yo lost

1-alarmed=47**aa25.50.1.16.50.25.50.1.16.50_ab_ac_ba66_bb3.0_bc150.500.8.0.1_bd27_be180_ca64.0.15.75.15.0.34.0.33_cb0_da1.0.0.100_db_dd9.1.30.19.64.50_dh7.43.50.50.0_di5_qa_qb_dc36.2.2.2.2_eh4.233056_ea10.233056.223565.53.0.0_ec_ed15.20.0.1.233056.56_ef1.2.3.233056.233056.56_eg1.2.3.233056.233056.56_r0028.233056.233056.56.0.0.50.50.139.584.388.0_fa4.76.50.60.50.40.56_fb_fh_fc0.28.30.0.28.30.50.61.61.50.50.50_fd16.0.31.233056.55_fe58.63_ff0000000000_fg1.39_pa0.0.0.0.40.50.85.85.0.0_t000.F9DCC3.F9DCC3.0.100.100.0.466.506.0_pb_pc_pd_pe_ga0_gb1_gc68.0_ge0000000000_gh_gf_gg_gd10100000_ha66.66_hb49.1.44.64_hc4.59.39.4.59.39_hd33.1.57.100_ia_if_ib_id_ic_jc_ie_ja_jb_jd3.c60c25.C60C25.57_je3.c60c25.C60C25.57_jf_jg_ka23.c60c25.55.55.0_kb_kc_kd_ke_kf_la_lb30.c60c25.C60C25.0.1.0.50_oa_os_ob19.3.0.0_oc19.3.0.0_od_oe_of_lc_m00_n00_s00_og_oh_oo_op_oq_or_om_on_ok_ol_oi_oj_ad0.0.0.0.0.0.0.0.0.0
1-bored=47**aa0.0.0.0.50.0.0.0.0.50_ab_ac_ba26_bb1.0_bc150.500.8.0.1_bd1_be180_ca64.0.15.75.15.0.34.0.33_cb0_da1.0.0.100_db_dd9.1.30.19.64.50_dh7.43.50.50.0_di5_qa_qb_dc36.2.2.2.2_eh4.233056_ea10.233056.223565.53.0.0_ec_ed15.20.0.1.233056.56_ef1.2.3.233056.233056.56_eg1.2.3.233056.233056.56_r0028.233056.233056.56.0.0.50.50.139.584.388.0_fa4.76.50.60.50.40.56_fb_fh_fc0.28.30.0.28.30.50.61.61.50.50.50_fd16.0.31.233056.55_fe58.63_ff0000000000_fg1.39_pa0.0.0.0.40.50.85.85.0.0_t000.F9DCC3.F9DCC3.0.100.100.0.466.506.0_pb_pc_pd_pe_ga0_gb1_gc22.0_ge0000000000_gh_gf_gg_gd10100000_ha66.66_hb100.1.50.50_hc2.59.39.2.59.39_hd5.1.49.49_ia_if_ib_id_ic_jc_ie_ja_jb_jd3.c60c25.C60C25.57_je3.c60c25.C60C25.57_jf_jg_ka23.c60c25.55.55.0_kb_kc_kd_ke_kf_la_lb30.c60c25.C60C25.0.1.0.50_oa_os_ob19.3.0.0_oc19.3.0.0_od_oe_of_lc_m00_n00_s00_og_oh_oo_op_oq_or_om_on_ok_ol_oi_oj_ad0.0.0.0.0.0.0.0.0.0
1-calm=47**aa33.76.1.47.50.27.80.1.49.50_ab_ac_ba46_bb0.1_bc150.500.8.0.1_bd27_be180_ca64.0.15.75.15.0.34.0.33_cb0_da1.0.0.100_db_dd9.1.30.19.64.50_dh7.43.50.50.0_di5_qa_qb_dc36.2.2.2.2_eh4.233056_ea10.233056.223565.53.0.0_ec_ed15.20.0.1.233056.56_ef1.2.3.233056.233056.56_eg1.2.3.233056.233056.56_r0028.233056.233056.56.0.0.50.50.139.584.388.0_fa4.76.50.60.50.40.56_fb_fh_fc0.28.30.0.28.30.50.61.61.50.50.50_fd16.0.31.233056.55_fe58.63_ff0000000000_fg1.39_pa0.0.0.0.40.50.85.85.0.0_t000.F9DCC3.F9DCC3.0.100.100.0.466.506.0_pb_pc_pd_pe_ga0_gb1_gc74.0_ge0000000000_gh_gf_gg_gd10100000_ha80.80_hb52.1.100.65_hc0.39.43.0.39.43_hd2.1.48.24_ia_if_ib_id_ic_jc_ie_ja_jb_jd3.c60c25.C60C25.57_je3.c60c25.C60C25.57_jf_jg_ka23.c60c25.55.55.0_kb_kc_kd_ke_kf_la_lb30.c60c25.C60C25.0.1.0.50_oa_os_ob19.3.0.0_oc19.3.0.0_od_oe_of_lc_m00_n00_s00_og_oh_oo_op_oq_or_om_on_ok_ol_oi_oj_ad0.0.0.0.0.0.0.0.0.0
1-confident=47**aa80.39.0.0.50.30.39.0.35.50_ab_ac_ba75_bb4.0_bc150.500.8.0.1_bd54_be180_ca64.0.15.75.15.0.34.0.33_cb0_da1.0.0.100_db_dd9.1.30.19.64.50_dh7.43.50.50.0_di5_qa_qb_dc36.2.2.2.2_eh4.233056_ea10.233056.223565.53.0.0_ec_ed15.20.0.1.233056.56_ef1.2.3.233056.233056.56_eg1.2.3.233056.233056.56_r0028.233056.233056.56.0.0.50.50.139.584.388.0_fa4.76.50.60.50.40.56_fb_fh_fc0.28.30.0.28.30.50.61.61.50.50.50_fd16.0.31.233056.55_fe58.63_ff0000000000_fg1.39_pa0.0.0.0.40.50.85.85.0.0_t000.F9DCC3.F9DCC3.0.100.100.0.466.506.0_pb_pc_pd_pe_ga0_gb1_gc22.0_ge0000000000_gh_gf_gg_gd10100000_ha100.100_hb56.1.45.46_hc0.39.43.0.39.43_hd24.1.50.48_ia_if_ib_id_ic_jc_ie_ja_jb_jd3.c60c25.C60C25.57_je3.c60c25.C60C25.57_jf_jg_ka23.c60c25.55.55.0_kb_kc_kd_ke_kf_la_lb30.c60c25.C60C25.0.1.0.50_oa_os_ob19.3.0.0_oc19.3.0.0_od_oe_of_lc_m00_n00_s00_og_oh_oo_op_oq_or_om_on_ok_ol_oi_oj_ad0.0.0.0.0.0.0.0.0.0
1-confused=47**aa64.36.1.50.50.64.36.1.50.50_ab_ac_ba46_bb43.0_bc150.500.8.0.1_bd43_be180_ca64.0.15.75.15.0.34.0.33_cb0_da1.0.0.100_db_dd9.1.30.19.64.50_dh7.43.50.50.0_di5_qa_qb_dc36.2.2.2.2_eh4.233056_ea10.233056.223565.53.0.0_ec_ed15.20.0.1.233056.56_ef1.2.3.233056.233056.56_eg1.2.3.233056.233056.56_r0028.233056.233056.56.0.0.50.50.139.584.388.0_fa4.76.50.60.50.40.56_fb_fh_fc0.28.30.0.28.30.50.61.61.50.50.50_fd16.0.31.233056.55_fe58.63_ff0000000000_fg1.39_pa0.0.0.0.40.50.85.85.0.0_t000.F9DCC3.F9DCC3.0.100.100.0.466.506.0_pb_pc_pd_pe_ga0_gb1_gc22.0_ge0000000000_gh_gf_gg_gd10100000_ha64.64_hb26.1.74.46_hc0.39.43.0.39.43_hd39.1.100.100_ia_if_ib_id_ic_jc_ie_ja_jb_jd3.c60c25.C60C25.57_je3.c60c25.C60C25.57_jf_jg_ka23.c60c25.55.55.0_kb_kc_kd_ke_kf_la_lb30.c60c25.C60C25.0.1.0.50_oa_os_ob19.3.0.0_oc19.3.0.0_od_oe_of_lc_m00_n00_s00_og_oh_oo_op_oq_or_om_on_ok_ol_oi_oj_ad0.0.0.0.0.0.0.0.0.0
1-embarrassed=47**aa31.35.1.39.50.31.35.1.39.50_ab_ac_ba33_bb18.1_bc150.500.8.0.1_bd7_be180_ca64.0.15.75.15.0.34.0.33_cb0_da1.0.0.100_db_dd9.1.30.19.64.50_dh7.43.50.50.0_di5_qa_qb_dc36.2.2.2.2_eh4.233056_ea10.233056.223565.53.0.0_ec_ed15.20.0.1.233056.56_ef1.2.3.233056.233056.56_eg1.2.3.233056.233056.56_r0028.233056.233056.56.0.0.50.50.139.584.388.0_fa4.76.50.60.50.40.56_fb_fh_fc0.28.30.0.28.30.50.61.61.50.50.50_fd16.0.31.233056.55_fe58.63_ff0000000000_fg1.39_pa0.0.0.0.40.50.85.85.0.0_t000.F9DCC3.F9DCC3.0.100.100.0.466.506.0_pb_pc_pd_pe_ga0_gb1_gc100.0_ge0000000000_gh_gf_gg_gd10100000_ha88.88_hb27.1.11.65_hc2.39.21.2.39.21_hd10.1.48.70_ia_if_ib_id_ic_jc_ie_ja_jb_jd3.c60c25.C60C25.57_je3.c60c25.C60C25.57_jf_jg_ka23.c60c25.55.55.0_kb_kc_kd_ke_kf_la_lb30.c60c25.C60C25.0.1.0.50_oa_os_ob19.3.0.0_oc19.3.0.0_od_oe_of_lc_m00_n00_s00_og_oh_oo_op_oq_or_om_on_ok_ol_oi_oj_ad0.0.0.0.0.0.0.0.0.0
1-excited=47**aa0.50.1.12.50.68.21.1.40.50_ab_ac_ba31_bb2.0_bc150.500.8.0.1_bd20_be180_ca64.0.15.75.15.0.34.0.33_cb0_da1.0.0.100_db_dd9.1.30.19.64.50_dh7.43.50.50.0_di5_qa_qb_dc36.2.2.2.2_eh4.233056_ea10.233056.223565.53.0.0_ec_ed15.20.0.1.233056.56_ef1.2.3.233056.233056.56_eg1.2.3.233056.233056.56_r0028.233056.233056.56.0.0.50.50.139.584.388.0_fa4.76.50.60.50.40.56_fb_fh_fc0.28.30.0.28.30.50.61.61.50.50.50_fd16.0.31.233056.55_fe58.63_ff0000000000_fg1.39_pa0.0.0.0.40.50.85.85.0.0_t000.F9DCC3.F9DCC3.0.100.100.0.466.506.0_pb_pc_pd_pe_ga0_gb1_gc68.0_ge0000000000_gh_gf_gg_gd10100000_ha66.66_hb72.1.44.50_hc1.59.39.1.59.39_hd35.1.57.100_ia_if_ib_id_ic_jc_ie_ja_jb_jd3.c60c25.C60C25.57_je3.c60c25.C60C25.57_jf_jg_ka23.c60c25.55.55.0_kb_kc_kd_ke_kf_la_lb30.c60c25.C60C25.0.1.0.50_oa_os_ob19.3.0.0_oc19.3.0.0_od_oe_of_lc_m00_n00_s00_og_oh_oo_op_oq_or_om_on_ok_ol_oi_oj_ad0.0.0.0.0.0.0.0.0.0
1-must_strip=47**aa15.100.0.27.50.15.100.0.27.50_ab_ac_ba33_bb18.1_bc150.500.8.0.1_bd18_be180_ca64.0.15.75.15.0.34.0.33_cb0_da1.0.0.100_db_dd9.1.30.19.64.50_dh7.43.50.50.0_di5_qa_qb_dc36.2.2.2.2_eh4.233056_ea10.233056.223565.53.0.0_ec_ed15.20.0.1.233056.56_ef1.2.3.233056.233056.56_eg1.2.3.233056.233056.56_r0028.233056.233056.56.0.0.50.50.139.584.388.0_fa4.76.50.60.50.40.56_fb_fh_fc0.28.30.0.28.30.50.61.61.50.50.50_fd16.0.31.233056.55_fe58.63_ff0000000000_fg1.39_pa0.0.0.0.40.50.85.85.0.0_t000.F9DCC3.F9DCC3.0.100.100.0.466.506.0_pb_pc_pd_pe_ga0_gb1_gc100.0_ge0000000000_gh_gf_gg_gd10100000_ha88.88_hb27.1.11.65_hc2.39.21.2.39.21_hd32.1.48.70_ia_if_ib_id_ic_jc_ie_ja_jb_jd3.c60c25.C60C25.57_je3.c60c25.C60C25.57_jf_jg_ka23.c60c25.55.55.0_kb_kc_kd_ke_kf_la_lb30.c60c25.C60C25.0.1.0.50_oa_os_ob19.3.0.0_oc19.3.0.0_od_oe_of_lc_m00_n00_s00_og_oh_oo_op_oq_or_om_on_ok_ol_oi_oj_ad0.0.0.0.0.0.0.0.0.0
1-stripping=47**aa15.100.0.27.50.15.100.0.27.50_ab_ac_ba33_bb18.1_bc850.500.8.0.1_bd18_be180_ca64.0.15.75.15.0.34.0.33_cb0_daC60C25.1.E4CCE8.100_db_dd0.1.30.19.64.50_dh_di5_qa_qb_dc_eh_ea10.233056.223565.53.0.0_ec_ed15.20.0.1.233056.56_ef1.2.3.233056.233056.56_eg1.2.3.233056.233056.56_r0028.233056.233056.56.0.0.50.50.139.584.388.0_fa4.76.50.60.50.40.56_fb_fh_fc0.28.30.0.28.30.50.61.61.50.50.50_fd16.0.31.233056.55_fe58.63_ff0000000000_fg1.39_pa0.0.0.0.40.50.85.85.0.0_t000.F9DCC3.F9DCC3.0.100.100.0.466.506.0_pb_pc_pd_pe_ga0_gb1_gc100.0_ge0000000000_gh_gf_gg_gd10100000_ha88.88_hb27.1.11.65_hc2.39.21.2.39.21_hd10.1.48.70_ia_if_ib_id_ic_jc_ie_ja14.c60c25.2.0_jb14.c60c25.2.0_jd_je_jf_jg_ka_kb_kc_kd_ke_kf_la_lb30.c60c25.C60C25.0.1.0.50_oa_os_ob19.3.0.0_oc19.3.0.0_od_oe_of_lc_m00_n00_s00_og_oh_oo_op_oq_or_om_on_ok_ol_oi_oj_ad0.0.0.0.0.0.0.0.0.0

#2-Costume Lost

2-alarmed=47**aa70.35.1.28.52.72.35.1.28.50_ab_ac_ba53_bb20.1_bc150.500.8.0.1_bd20_be180_ca64.0.15.75.15.0.34.0.33_cb0_da1.0.25.100_db_dd9.1.30.19.64.50_dh7.43.50.50.0_di5_qa_qb_dc36.2.2.2.2_eh4.233056_ea10.233056.223565.53.0.0_ec_ed15.20.0.1.233056.56_ef1.2.3.233056.233056.56_eg1.2.3.233056.233056.56_r0028.233056.233056.56.0.0.50.50.139.584.388.0_fa4.76.50.60.50.40.56_fb_fh_fc0.28.30.0.28.30.50.61.61.50.50.50_fd16.0.31.233056.55_fe58.63_ff0000000000_fg1.39_pa0.0.0.0.40.50.85.85.0.0_t00_pb_pc_pd_pe_ga0_gb0_gc100.0_ge0000000000_gh_gf_gg_gd10000000_ha77.77_hb43.1.43.0_hc3.66.47.3.66.47_hd44.1.57.49_ia_if_ib7.2.55.2.2.3.0.1.1.0.0.1.0.0.1_id_ic_jc_ie_ja_jb_jd2.c60c25.C60C25.57_je2.c60c25.C60C25.57_jf_jg_ka30.c60c25.C60C25.C60C25.0_kb20.c60c25.C60C25.C60C25_kc_kd_ke_kf_la_lb_oa_os_ob19.3.0.0_oc19.3.0.0_od_oe_of_lc_m00_n00_s00_og_oh_oo_op_oq_or_om_on_ok_ol_oi_oj_ad0.0.0.0.0.0.0.0.0.0
2-bored=47**aa63.40.0.2.52.5.4.1.47.50_ab_ac_ba62_bb15.1_bc150.500.8.0.1_bd15_be180_ca64.0.15.75.15.0.34.0.33_cb0_da1.0.25.100_db_dd9.1.30.19.64.50_dh7.43.50.50.0_di5_qa_qb_dc36.2.2.2.2_eh4.233056_ea10.233056.223565.53.0.0_ec_ed15.20.0.1.233056.56_ef1.2.3.233056.233056.56_eg1.2.3.233056.233056.56_r0028.233056.233056.56.0.0.50.50.139.584.388.0_fa4.76.50.60.50.40.56_fb_fh_fc0.28.30.0.28.30.50.61.61.50.50.50_fd16.0.31.233056.55_fe58.63_ff0000000000_fg1.39_pa0.0.0.0.40.50.85.85.0.0_t00_pb_pc_pd_pe_ga0_gb0_gc0.0_ge0000000000_gh_gf_gg_gd10000000_ha86.86_hb3.1.43.54_hc1.59.39.1.59.39_hd12.1.57.49_ia_if_ib7.2.55.2.2.3.0.1.1.0.0.1.0.0.1_id_ic_jc_ie_ja_jb_jd2.c60c25.C60C25.57_je2.c60c25.C60C25.57_jf_jg_ka30.c60c25.C60C25.C60C25.0_kb20.c60c25.C60C25.C60C25_kc_kd_ke_kf_la_lb_oa_os_ob19.3.0.0_oc19.3.0.0_od_oe_of_lc_m00_n00_s00_og_oh_oo_op_oq_or_om_on_ok_ol_oi_oj_ad0.0.0.0.0.0.0.0.0.0
2-confused=47**aa63.40.0.2.52.5.4.1.47.50_ab_ac_ba62_bb15.1_bc150.500.8.0.1_bd15_be180_ca64.0.15.75.15.0.34.0.33_cb0_da1.0.25.100_db_dd9.1.30.19.64.50_dh7.43.50.50.0_di5_qa_qb_dc36.2.2.2.2_eh4.233056_ea10.233056.223565.53.0.0_ec_ed15.20.0.1.233056.56_ef1.2.3.233056.233056.56_eg1.2.3.233056.233056.56_r0028.233056.233056.56.0.0.50.50.139.584.388.0_fa4.76.50.60.50.40.56_fb_fh_fc0.28.30.0.28.30.50.61.61.50.50.50_fd16.0.31.233056.55_fe58.63_ff0000000000_fg1.39_pa0.0.0.0.40.50.85.85.0.0_t00_pb_pc_pd_pe_ga0_gb0_gc0.0_ge0000000000_gh_gf_gg_gd10000000_ha86.86_hb3.1.43.54_hc1.59.39.1.59.39_hd12.1.57.49_ia_if_ib7.2.55.2.2.3.0.1.1.0.0.1.0.0.1_id_ic_jc_ie_ja_jb_jd2.c60c25.C60C25.57_je2.c60c25.C60C25.57_jf_jg_ka30.c60c25.C60C25.C60C25.0_kb20.c60c25.C60C25.C60C25_kc_kd_ke_kf_la_lb_oa_os_ob19.3.0.0_oc19.3.0.0_od_oe_of_lc_m00_n00_s00_og_oh_oo_op_oq_or_om_on_ok_ol_oi_oj_ad0.0.0.0.0.0.0.0.0.0
2-embarrassed=47**aa12.54.0.39.52.18.52.1.39.50_ab_ac_ba53_bb27.1_bc150.500.8.0.1_bd4_be180_ca64.0.15.75.15.0.34.0.33_cb0_da1.0.25.100_db_dd9.1.30.19.64.50_dh7.43.50.50.0_di5_qa_qb_dc36.2.2.2.2_eh4.233056_ea10.233056.223565.53.0.0_ec_ed15.20.0.1.233056.56_ef1.2.3.233056.233056.56_eg1.2.3.233056.233056.56_r0028.233056.233056.56.0.0.50.50.139.584.388.0_fa4.76.50.60.50.40.56_fb_fh_fc0.28.30.0.28.30.50.61.61.50.50.50_fd16.0.31.233056.55_fe58.63_ff0000000000_fg1.39_pa0.0.0.0.40.50.85.85.0.0_t00_pb_pc_pd_pe_ga0_gb0_gc100.0_ge0000000000_gh_gf_gg_gd10000000_ha77.77_hb66.1.43.0_hc3.66.47.3.66.47_hd44.1.57.49_ia_if_ib7.2.55.2.2.3.0.1.1.0.0.1.0.0.1_id_ic_jc_ie_ja_jb_jd2.c60c25.C60C25.57_je2.c60c25.C60C25.57_jf_jg_ka30.c60c25.C60C25.C60C25.0_kb20.c60c25.C60C25.C60C25_kc_kd_ke_kf_la_lb_oa_os_ob19.3.0.0_oc19.3.0.0_od_oe_of_lc_m00_n00_s00_og_oh_oo_op_oq_or_om_on_ok_ol_oi_oj_ad0.0.0.0.0.0.0.0.0.0
2-excited=47**aa23.37.0.16.50.19.0.0.0.50_ab_ac_ba27_bb13.1_bc150.500.0.0.1_bd13_be180_ca64.0.15.75.15.0.34.0.33_cb0_da1.0.0.100_db_dd9.1.30.19.64.50_dh7.43.50.50.0_di5_qa_qb_dc36.2.2.2.2_eh4.233056_ea10.233056.223565.53.0.0_ec_ed15.20.0.1.233056.56_ef1.2.3.233056.233056.56_eg1.2.3.233056.233056.56_r0028.233056.233056.56.0.0.50.50.139.584.388.0_fa4.76.50.60.50.40.56_fb_fh_fc0.28.30.0.28.30.50.61.61.50.50.50_fd16.0.31.233056.55_fe58.63_ff0000000000_fg1.39_pa0.0.0.0.40.50.85.85.0.0_t00_pb_pc_pd_pe_ga0_gb0_gc0.0_ge0000000000_gh_gf_gg_gd10000000_ha89.89_hb49.1.44.56_hc0.59.39.0.59.39_hd23.1.60.49_ia_if_ib7.2.55.2.2.3.0.1.1.0.0.1.0.0.1_id_ic_jc_ie_ja_jb_jd2.c60c25.C60C25.50_je2.c60c25.C60C25.50_jf_jg_ka30.c60c25.C60C25.C60C25.0_kb20.c60c25.C60C25.C60C25_kc_kd_ke_kf_la_lb_oa_os_ob19.3.0.0_oc19.3.0.0_od_oe_of_lc_m00_n00_s00_og_oh_oo_op_oq_or_om_on_ok_ol_oi_oj_ad0.0.0.0.0.0.0.0.0.0
2-wink=47**aa0.0.0.36.56.96.33.1.43.50_ab_ac_ba47_bb51.0_bc150.500.8.0.1_bd16_be180_ca64.0.15.75.15.0.34.0.33_cb0_da1.0.25.100_db_dd9.1.30.19.64.50_dh7.43.50.50.0_di5_qa_qb_dc36.2.2.2.2_eh4.233056_ea10.233056.223565.53.0.0_ec_ed15.20.0.1.233056.56_ef1.2.3.233056.233056.56_eg1.2.3.233056.233056.56_r0028.233056.233056.56.0.0.50.50.139.584.388.0_fa4.76.50.60.50.40.56_fb_fh_fc0.28.30.0.28.30.50.61.61.50.50.50_fd16.0.31.233056.55_fe58.63_ff0000000000_fg1.39_pa0.0.0.0.40.50.85.85.0.0_t00_pb_pc_pd_pe_ga0_gb0_gc26.0_ge0000000000_gh_gf_gg_gd10000000_ha0.98_hb48.1.43.60_hc1.25.47.1.25.47_hd34.1.57.49_ia_if_ib7.2.55.2.2.3.0.1.1.0.0.1.0.0.1_id_ic_jc_ie_ja_jb_jd2.c60c25.C60C25.57_je2.c60c25.C60C25.57_jf_jg_ka30.c60c25.C60C25.C60C25.0_kb20.c60c25.C60C25.C60C25_kc_kd_ke_kf_la_lb_oa_os_ob19.3.0.0_oc19.3.0.0_od_oe_of_lc_m00_n00_s00_og_oh_oo_op_oq_or_om_on_ok_ol_oi_oj_ad0.0.0.0.0.0.0.0.0.0
2-must_strip=47**aa27.72.0.0.50.27.72.0.0.50_ab_ac_ba50_bb17.1_bc150.500.8.0.1_bd17_be180_ca64.0.15.75.15.0.34.0.33_cb0_da1.0.25.100_db_dd9.1.30.19.64.50_dh7.43.50.50.0_di5_qa_qb_dc36.2.2.2.2_eh4.233056_ea10.233056.223565.53.0.0_ec_ed15.20.0.1.233056.56_ef1.2.3.233056.233056.56_eg1.2.3.233056.233056.56_r0028.233056.233056.56.0.0.50.50.139.584.388.0_fa4.76.50.60.50.40.56_fb_fh_fc0.28.30.0.28.30.50.61.61.50.50.50_fd16.0.31.233056.55_fe58.63_ff0000000000_fg1.39_pa0.0.0.0.40.50.85.85.0.0_t00_pb_pc_pd_pe_ga0_gb0_gc100.0_ge0000000000_gh_gf_gg_gd10000000_ha86.86_hb0.1.29.64_hc3.98.5.3.98.5_hd44.1.62.54_ia_if_ib7.2.55.2.2.3.0.1.1.0.0.1.0.0.1_id_ic_jc_ie_ja_jb_jd2.c60c25.C60C25.57_je2.c60c25.C60C25.57_jf_jg_ka30.c60c25.C60C25.C60C25.0_kb20.c60c25.C60C25.C60C25_kc_kd_ke_kf_la_lb_oa_os_ob19.3.0.0_oc19.3.0.0_od_oe_of_lc_m00_n00_s00_og_oh_oo_op_oq_or_om_on_ok_ol_oi_oj_ad0.0.0.0.0.0.0.0.0.0
2-stripping=47**aa29.78.0.0.50.4.88.0.0.50_ab_ac_ba50_bb17.1_bc150.500.8.0.1_bd56_be180_ca64.0.15.75.15.0.34.0.33_cb0_da1.0.25.100_db_dd9.1.30.19.64.50_dh7.43.50.50.0_di5_qa_qb_dc36.2.2.2.2_eh4.233056_ea10.233056.223565.53.0.0_ec_ed15.20.0.1.233056.56_ef1.2.3.233056.233056.56_eg1.2.3.233056.233056.56_r0028.233056.233056.56.0.0.50.50.139.584.388.0_fa4.76.50.60.50.40.56_fb_fh_fc0.28.30.0.28.30.50.61.61.50.50.50_fd16.0.31.233056.55_fe58.63_ff0000000000_fg1.39_pa0.0.0.0.40.50.85.85.0.0_t00_pb_pc_pd_pe_ga0_gb0_gc56.0_ge0000000000_gh_gf_gg_gd10000000_ha86.86_hb100.1.0.64_hc3.45.35.3.45.35_hd7.1.62.54_ia_if_ib7.2.55.2.2.3.0.1.1.0.0.1.0.0.1_id_ic_jc_ie_ja_jb_jd_je_jf_jg_ka30.c60c25.C60C25.C60C25.0_kb20.c60c25.C60C25.C60C25_kc_kd_ke_kf_la_lb_oa_os_ob19.3.0.0_oc19.3.0.0_od_oe_of_lc_m00_n00_s00_og_oh_oo_op_oq_or_om_on_ok_ol_oi_oj_ad0.0.0.0.0.0.0.0.0.0

#3-Shoes Lost

3-alarmed=47**aa80.31.0.40.52.68.43.1.46.50_ab_ac_ba33_bb45.0_bc150.500.0.0.1_bd45_be180_ca64.0.15.75.15.0.34.0.33_cb0_da1.0.0.100_db_dd9.1.30.19.64.50_dh7.43.50.50.0_di5_qa_qb_dc36.2.2.2.2_eh4.233056_ea10.233056.223565.53.0.0_ec_ed15.20.0.1.233056.56_ef1.2.3.233056.233056.56_eg1.2.3.233056.233056.56_r0028.233056.233056.56.0.0.50.50.139.584.388.0_fa4.76.50.60.50.40.56_fb_fh_fc0.28.30.0.28.30.50.61.61.50.50.50_fd16.0.31.233056.55_fe58.63_ff0000000000_fg1.39_pa0.0.0.0.40.50.85.85.0.0_t00_pb_pc_pd_pe_ga0_gb0_gc86.0_ge0000000000_gh_gf_gg_gd10000000_ha100.100_hb49.1.44.0_hc2.59.39.2.59.39_hd38.1.51.49_ia_if_ib7.2.55.2.2.3.0.1.1.0.0.1.0.0.1_id_ic_jc_ie_ja_jb_jd_je_jf_jg_ka30.c60c25.C60C25.C60C25.0_kb20.c60c25.C60C25.C60C25_kc_kd_ke_kf_la_lb_oa_os_ob19.3.0.0_oc19.3.0.0_od_oe_of_lc_m00_n00_s00_og_oh_oo_op_oq_or_om_on_ok_ol_oi_oj_ad0.0.0.0.0.0.0.0.0.0
3-bored=47**aa0.0.0.2.52.0.0.0.47.50_ab_ac_ba98_bb27.0_bc150.500.0.0.1_bd15_be180_ca64.0.15.75.15.0.34.0.33_cb0_da1.0.0.100_db_dd9.1.30.19.64.50_dh7.43.50.50.0_di5_qa_qb_dc36.2.2.2.2_eh4.233056_ea10.233056.223565.53.0.0_ec_ed15.20.0.1.233056.56_ef1.2.3.233056.233056.56_eg1.2.3.233056.233056.56_r0028.233056.233056.56.0.0.50.50.139.584.388.0_fa4.76.50.60.50.40.56_fb_fh_fc0.28.30.0.28.30.50.61.61.50.50.50_fd16.0.31.233056.55_fe58.63_ff0000000000_fg1.39_pa0.0.0.0.40.50.85.85.0.0_t00_pb_pc_pd_pe_ga0_gb0_gc0.0_ge0000000000_gh_gf_gg_gd10000000_ha88.88_hb0.1.47.54_hc1.59.39.1.59.39_hd32.1.57.49_ia_if_ib7.2.55.2.2.3.0.1.1.0.0.1.0.0.1_id_ic_jc_ie_ja_jb_jd_je_jf_jg_ka30.c60c25.C60C25.C60C25.0_kb20.c60c25.C60C25.C60C25_kc_kd_ke_kf_la_lb_oa_os_ob19.3.0.0_oc19.3.0.0_od_oe_of_lc_m00_n00_s00_og_oh_oo_op_oq_or_om_on_ok_ol_oi_oj_ad0.0.0.0.0.0.0.0.0.0
3-calm=47**aa0.0.0.24.50.0.0.0.0.50_ab_ac_ba62_bb13.0_bc150.500.0.0.1_bd13_be180_ca64.0.15.75.15.0.34.0.33_cb0_da1.0.0.100_db_dd9.1.30.19.64.50_dh7.43.50.50.0_di5_qa_qb_dc36.2.2.2.2_eh4.233056_ea10.233056.223565.53.0.0_ec_ed15.20.0.1.233056.56_ef1.2.3.233056.233056.56_eg1.2.3.233056.233056.56_r0028.233056.233056.56.0.0.50.50.139.584.388.0_fa4.76.50.60.50.40.56_fb_fh_fc0.28.30.0.28.30.50.61.61.50.50.50_fd16.0.31.233056.55_fe58.63_ff0000000000_fg1.39_pa0.0.0.0.40.50.85.85.0.0_t00_pb_pc_pd_pe_ga0_gb0_gc6.0_ge0000000000_gh_gf_gg_gd10000000_ha85.85_hb49.1.44.88_hc0.59.39.0.59.39_hd34.1.48.49_ia_if_ib7.2.55.2.2.3.0.1.1.0.0.1.0.0.1_id_ic_jc_ie_ja_jb_jd_je_jf_jg_ka30.c60c25.C60C25.C60C25.0_kb20.c60c25.C60C25.C60C25_kc_kd_ke_kf_la_lb_oa_os_ob19.3.0.0_oc19.3.0.0_od_oe_of_lc_m00_n00_s00_og_oh_oo_op_oq_or_om_on_ok_ol_oi_oj_ad0.0.0.0.0.0.0.0.0.0
3-confident=47**aa54.31.0.34.56.35.88.1.2.50_ab_ac_ba31_bb26.0_bc150.500.0.0.1_bd26_be180_ca64.0.15.75.15.0.34.0.33_cb0_da1.0.0.100_db_dd9.1.30.19.64.50_dh7.43.50.50.0_di5_qa_qb_dc36.2.2.2.2_eh4.233056_ea10.233056.223565.53.0.0_ec_ed15.20.0.1.233056.56_ef1.2.3.233056.233056.56_eg1.2.3.233056.233056.56_r0028.233056.233056.56.0.0.50.50.139.584.388.0_fa4.76.50.60.50.40.56_fb_fh_fc0.28.30.0.28.30.50.61.61.50.50.50_fd16.0.31.233056.55_fe58.63_ff0000000000_fg1.39_pa0.0.0.0.40.50.85.85.0.0_t00_pb_pc_pd_pe_ga0_gb0_gc26.0_ge0000000000_gh_gf_gg_gd10000000_ha82.0_hb48.1.43.60_hc0.25.47.0.25.47_hd2.1.57.49_ia_if_ib7.2.55.2.2.3.0.1.1.0.0.1.0.0.1_id_ic_jc_ie_ja_jb_jd_je_jf_jg_ka30.c60c25.C60C25.C60C25.0_kb20.c60c25.C60C25.C60C25_kc_kd_ke_kf_la_lb_oa_os_ob19.3.0.0_oc19.3.0.0_od_oe_of_lc_m00_n00_s00_og_oh_oo_op_oq_or_om_on_ok_ol_oi_oj_ad0.0.0.0.0.0.0.0.0.0
3-confused=47**aa27.52.1.42.56.19.98.1.27.50_ab_ac_ba1_bb2.0_bc150.500.0.0.1_bd7_be180_ca64.0.15.75.15.0.34.0.33_cb0_da1.0.0.100_db_dd9.1.30.19.64.50_dh7.43.50.50.0_di5_qa_qb_dc36.2.2.2.2_eh4.233056_ea10.233056.223565.53.0.0_ec_ed15.20.0.1.233056.56_ef1.2.3.233056.233056.56_eg1.2.3.233056.233056.56_r0028.233056.233056.56.0.0.50.50.139.584.388.0_fa4.76.50.60.50.40.56_fb_fh_fc0.28.30.0.28.30.50.61.61.50.50.50_fd16.0.31.233056.55_fe58.63_ff0000000000_fg1.39_pa0.0.0.0.40.50.85.85.0.0_t00_pb_pc_pd_pe_ga0_gb0_gc0.52_ge0000000000_gh_gf_gg_gd10000000_ha82.82_hb0.1.15.22_hc4.28.47.4.28.47_hd41.1.57.70_ia_if_ib7.2.55.2.2.3.0.1.1.0.0.1.0.0.1_id_ic_jc_ie_ja_jb_jd_je_jf_jg_ka30.c60c25.C60C25.C60C25.0_kb20.c60c25.C60C25.C60C25_kc_kd_ke_kf_la_lb_oa_os_ob19.3.0.0_oc19.3.0.0_od_oe_of_lc_m00_n00_s00_og_oh_oo_op_oq_or_om_on_ok_ol_oi_oj_ad0.0.0.0.0.0.0.0.0.0
3-embarrassed=47**aa12.46.0.39.52.27.53.0.39.50_ab_ac_ba17_bb34.1_bc150.500.0.0.1_bd34_be180_ca64.0.15.75.15.0.34.0.33_cb0_da1.0.0.100_db_dd9.1.30.19.64.50_dh7.43.50.50.0_di5_qa_qb_dc36.2.2.2.2_eh4.233056_ea10.233056.223565.53.0.0_ec_ed15.20.0.1.233056.56_ef1.2.3.233056.233056.56_eg1.2.3.233056.233056.56_r0028.233056.233056.56.0.0.50.50.139.584.388.0_fa4.76.50.60.50.40.56_fb_fh_fc0.28.30.0.28.30.50.61.61.50.50.50_fd16.0.31.233056.55_fe58.63_ff0000000000_fg1.39_pa0.0.0.0.40.50.85.85.0.0_t00_pb_pc_pd_pe_ga0_gb0_gc100.0_ge0000000000_gh_gf_gg_gd10000000_ha77.77_hb66.1.43.0_hc4.66.47.4.66.47_hd33.1.68.0_ia_if_ib7.2.55.2.2.3.0.1.1.0.0.1.0.0.1_id_ic_jc_ie_ja_jb_jd_je_jf_jg_ka30.c60c25.C60C25.C60C25.0_kb20.c60c25.C60C25.C60C25_kc_kd_ke_kf_la_lb_oa_os_ob19.3.0.0_oc19.3.0.0_od_oe_of_lc_m00_n00_s00_og_oh_oo_op_oq_or_om_on_ok_ol_oi_oj_ad0.0.0.0.0.0.0.0.0.0
3-wink=47**aa0.0.0.36.56.41.33.1.43.50_ab_ac_ba11_bb48.1_bc150.500.0.0.1_bd48_be180_ca64.0.15.75.15.0.34.0.33_cb0_da1.0.0.100_db_dd9.1.30.19.64.50_dh7.43.50.50.0_di5_qa_qb_dc36.2.2.2.2_eh4.233056_ea10.233056.223565.53.0.0_ec_ed15.20.0.1.233056.56_ef1.2.3.233056.233056.56_eg1.2.3.233056.233056.56_r0028.233056.233056.56.0.0.50.50.139.584.388.0_fa4.76.50.60.50.40.56_fb_fh_fc0.28.30.0.28.30.50.61.61.50.50.50_fd16.0.31.233056.55_fe58.63_ff0000000000_fg1.39_pa0.0.0.0.40.50.85.85.0.0_t00_pb_pc_pd_pe_ga0_gb0_gc8.0_ge0000000000_gh_gf_gg_gd10000000_ha100.0_hb48.1.43.60_hc0.25.47.0.25.47_hd25.1.64.0_ia_if_ib7.2.55.2.2.3.0.1.1.0.0.1.0.0.1_id_ic_jc_ie_ja_jb_jd_je_jf_jg_ka30.c60c25.C60C25.C60C25.0_kb20.c60c25.C60C25.C60C25_kc_kd_ke_kf_la_lb_oa_os_ob19.3.0.0_oc19.3.0.0_od_oe_of_lc_m00_n00_s00_og_oh_oo_op_oq_or_om_on_ok_ol_oi_oj_ad0.0.0.0.0.0.0.0.0.0
3-stripping=47**aa17.78.1.49.50.17.78.1.0.50_ab_ac_ba84_bb17.1_bc150.500.0.0.1_bd44_be180_ca64.0.15.75.15.0.34.0.33_cb0_da1.0.0.100_db_dd9.1.30.19.64.50_dh7.43.50.50.0_di5_qa_qb_dc36.2.2.2.2_eh4.233056_ea10.233056.223565.53.0.0_ec_ed15.20.0.1.233056.56_ef1.2.3.233056.233056.56_eg1.2.3.233056.233056.56_r0028.233056.233056.56.0.0.50.50.139.584.388.0_fa4.76.50.60.50.40.56_fb_fh_fc0.28.30.0.28.30.50.61.61.50.50.50_fd16.0.31.233056.55_fe58.63_ff0000000000_fg1.39_pa0.0.0.0.40.50.85.85.0.0_t00_pb_pc_pd_pe_ga0_gb0_gc56.0_ge0000000000_gh_gf_gg_gd10000000_ha86.86_hb15.1.13.6_hc0.45.35.0.45.35_hd41.1.62.16_ia_if_ib7.2.55.2.2.3.0.1.1.0.0.1.0.0.1_id_ic_jc_ie_ja_jb_jd_je_jf_jg_ka30.c60c25.C60C25.C60C25.0_kb20.c60c25.C60C25.C60C25_kc_kd_ke_kf_la_lb_oa_os_ob19.3.0.0_oc19.3.0.0_od_oe_of_lc_m00_n00_s00_og_oh_oo_op_oq_or_om_on_ok_ol_oi_oj_ad0.0.0.0.0.0.0.0.0.0

#4-Jacket lost

4-stripped=47**aa24.78.0.49.50.17.5.0.26.50_ab_ac_ba15_bb19.1_bc150.500.8.0.1_bd19_be180_ca64.0.15.75.15.0.34.0.33_cb0_da1.0.0.100_db_dd9.1.30.19.64.50_dh7.43.50.50.0_di5_qa_qb_dc36.2.2.2.2_eh4.233056_ea10.233056.223565.53.0.0_ec_ed15.20.0.1.233056.56_ef1.2.3.233056.233056.56_eg1.2.3.233056.233056.56_r0028.233056.233056.56.0.0.50.50.139.584.388.0_fa4.76.50.60.50.40.56_fb_fh_fc0.28.30.0.28.30.50.61.61.50.50.50_fd16.0.31.233056.55_fe58.63_ff0000000000_fg1.39_pa0.0.0.0.40.50.85.85.0.0_t00_pb_pc_pd_pe_ga0_gb0_gc56.0_ge0000000000_gh_gf_gg_gd10000000_ha86.86_hb88.1.39.8_hc0.45.35.0.45.35_hd48.1.82.16_ia_if_ib_id_ic_jc_ie_ja_jb_jd_je_jf_jg_ka30.c60c25.C60C25.C60C25.0_kb20.c60c25.C60C25.C60C25_kc_kd_ke_kf_la_lb_oa_os_ob19.3.0.0_oc19.3.0.0_od_oe_of_lc_m00_n00_s00_og_oh_oo_op_oq_or_om_on_ok_ol_oi_oj_ad0.0.0.0.0.0.0.0.0.0
4-alarmed=47**aa0.35.1.46.52.0.35.1.46.50_ab_ac_ba0_bb46.0_bc150.500.8.0.1_bd55_be180_ca64.0.15.75.15.0.34.0.33_cb0_da1.0.0.100_db_dd9.1.30.19.64.50_dh7.43.50.50.0_di5_qa_qb_dc36.2.2.2.2_eh4.233056_ea10.233056.223565.53.0.0_ec_ed15.20.0.1.233056.56_ef1.2.3.233056.233056.56_eg1.2.3.233056.233056.56_r0028.233056.233056.56.0.0.50.50.139.584.388.0_fa4.76.50.60.50.40.56_fb_fh_fc0.28.30.0.28.30.50.61.61.50.50.50_fd16.0.31.233056.55_fe58.63_ff0000000000_fg1.39_pa0.0.0.0.40.50.85.85.0.0_t00_pb_pc_pd_pe_ga0_gb0_gc100.0_ge0000000000_gh_gf_gg_gd10000000_ha100.100_hb78.1.0.44_hc2.59.39.2.59.39_hd40.1.16.78_ia_if_ib_id_ic_jc_ie_ja_jb_jd_je_jf_jg_ka30.c60c25.C60C25.C60C25.0_kb20.c60c25.C60C25.C60C25_kc_kd_ke_kf_la_lb_oa_os_ob19.3.0.0_oc19.3.0.0_od_oe_of_lc_m00_n00_s00_og_oh_oo_op_oq_or_om_on_ok_ol_oi_oj_ad0.0.0.0.0.0.0.0.0.0
4-bored=47**aa23.86.1.0.52.23.86.1.0.50_ab_ac_ba52_bb4.1_bc150.500.8.0.1_bd25_be180_ca64.0.15.75.15.0.34.0.33_cb0_da1.0.0.100_db_dd9.1.30.19.64.50_dh7.43.50.50.0_di5_qa_qb_dc36.2.2.2.2_eh4.233056_ea10.233056.223565.53.0.0_ec_ed15.20.0.1.233056.56_ef1.2.3.233056.233056.56_eg1.2.3.233056.233056.56_r0028.233056.233056.56.0.0.50.50.139.584.388.0_fa4.76.50.60.50.40.56_fb_fh_fc0.28.30.0.28.30.50.61.61.50.50.50_fd16.0.31.233056.55_fe58.63_ff0000000000_fg1.39_pa0.0.0.0.40.50.85.85.0.0_t00_pb_pc_pd_pe_ga0_gb0_gc0.0_ge0000000000_gh_gf_gg_gd10000000_ha86.86_hb47.1.72.42_hc3.59.39.3.59.39_hd4.1.52.49_ia_if_ib_id_ic_jc_ie_ja_jb_jd_je_jf_jg_ka30.c60c25.C60C25.C60C25.0_kb20.c60c25.C60C25.C60C25_kc_kd_ke_kf_la_lb_oa_os_ob19.3.0.0_oc19.3.0.0_od_oe_of_lc_m00_n00_s00_og_oh_oo_op_oq_or_om_on_ok_ol_oi_oj_ad0.0.0.0.0.0.0.0.0.0
4-calm=47**aa100.35.0.43.50.14.58.1.27.50_ab_ac_ba50_bb20.0_bc150.500.8.0.1_bd9_be180_ca64.0.15.75.15.0.34.0.33_cb0_da1.0.0.100_db_dd9.1.30.19.64.50_dh7.43.50.50.0_di5_qa_qb_dc36.2.2.2.2_eh4.233056_ea10.233056.223565.53.0.0_ec_ed15.20.0.1.233056.56_ef1.2.3.233056.233056.56_eg1.2.3.233056.233056.56_r0028.233056.233056.56.0.0.50.50.139.584.388.0_fa4.76.50.60.50.40.56_fb_fh_fc0.28.30.0.28.30.50.61.61.50.50.50_fd16.0.31.233056.55_fe58.63_ff0000000000_fg1.39_pa0.0.0.0.40.50.85.85.0.0_t00_pb_pc_pd_pe_ga0_gb0_gc54.0_ge0000000000_gh_gf_gg_gd10000000_ha100.100_hb54.1.100.24_hc0.59.39.0.59.39_hd36.1.36.12_ia_if_ib_id_ic_jc_ie_ja_jb_jd_je_jf_jg_ka30.c60c25.C60C25.C60C25.0_kb20.c60c25.C60C25.C60C25_kc_kd_ke_kf_la_lb_oa_os_ob19.3.0.0_oc19.3.0.0_od_oe_of_lc_m00_n00_s00_og_oh_oo_op_oq_or_om_on_ok_ol_oi_oj_ad0.0.0.0.0.0.0.0.0.0
4-confident=47**aa72.37.0.34.56.23.82.1.17.45_ab_ac_ba74_bb2.0_bc150.500.8.0.1_bd2_be180_ca64.0.15.75.15.0.34.0.33_cb0_da1.0.0.100_db_dd9.1.30.19.64.50_dh7.43.50.50.0_di5_qa_qb_dc36.2.2.2.2_eh4.233056_ea10.233056.223565.53.0.0_ec_ed15.20.0.1.233056.56_ef1.2.3.233056.233056.56_eg1.2.3.233056.233056.56_r0028.233056.233056.56.0.0.50.50.139.584.388.0_fa4.76.50.60.50.40.56_fb_fh_fc0.28.30.0.28.30.50.61.61.50.50.50_fd16.0.31.233056.55_fe58.63_ff0000000000_fg1.39_pa0.0.0.0.40.50.85.85.0.0_t00_pb_pc_pd_pe_ga0_gb0_gc62.0_ge0000000000_gh_gf_gg_gd10000000_ha72.72_hb52.1.49.60_hc0.25.47.0.25.47_hd2.0.52.49_ia_if_ib_id_ic_jc_ie_ja_jb_jd_je_jf_jg_ka30.c60c25.C60C25.C60C25.0_kb20.c60c25.C60C25.C60C25_kc_kd_ke_kf_la_lb_oa_os_ob19.3.0.0_oc19.3.0.0_od_oe_of_lc_m00_n00_s00_og_oh_oo_op_oq_or_om_on_ok_ol_oi_oj_ad0.0.0.0.0.0.0.0.0.0
4-confused=47**aa9.0.1.42.56.77.15.1.39.50_ab_ac_ba72_bb6.1_bc150.500.8.0.1_bd50_be180_ca64.0.15.75.15.0.34.0.33_cb0_da1.0.0.100_db_dd9.1.30.19.64.50_dh7.43.50.50.0_di5_qa_qb_dc36.2.2.2.2_eh4.233056_ea10.233056.223565.53.0.0_ec_ed15.20.0.1.233056.56_ef1.2.3.233056.233056.56_eg1.2.3.233056.233056.56_r0028.233056.233056.56.0.0.50.50.139.584.388.0_fa4.76.50.60.50.40.56_fb_fh_fc0.28.30.0.28.30.50.61.61.50.50.50_fd16.0.31.233056.55_fe58.63_ff0000000000_fg1.39_pa0.0.0.0.40.50.85.85.0.0_t00_pb_pc_pd_pe_ga0_gb0_gc0.22_ge0000000000_gh_gf_gg_gd10000000_ha82.82_hb100.1.35.68_hc3.28.47.3.28.47_hd51.1.100.72_ia_if_ib_id_ic_jc_ie_ja_jb_jd_je_jf_jg_ka30.c60c25.C60C25.C60C25.0_kb20.c60c25.C60C25.C60C25_kc_kd_ke_kf_la_lb_oa_os_ob19.3.0.0_oc19.3.0.0_od_oe_of_lc_m00_n00_s00_og_oh_oo_op_oq_or_om_on_ok_ol_oi_oj_ad0.0.0.0.0.0.0.0.0.0
4-embarrassed=47**aa19.82.0.49.52.21.72.1.21.50_ab_ac_ba21_bb47.0_bc150.500.8.0.1_bd30_be180_ca64.0.15.75.15.0.34.0.33_cb0_da1.0.0.100_db_dd9.1.30.19.64.50_dh7.43.50.50.0_di5_qa_qb_dc36.2.2.2.2_eh4.233056_ea10.233056.223565.53.0.0_ec_ed15.20.0.1.233056.56_ef1.2.3.233056.233056.56_eg1.2.3.233056.233056.56_r0028.233056.233056.56.0.0.50.50.139.584.388.0_fa4.76.50.60.50.40.56_fb_fh_fc0.28.30.0.28.30.50.61.61.50.50.50_fd16.0.31.233056.55_fe58.63_ff0000000000_fg1.39_pa0.0.0.0.40.50.85.85.0.0_t00_pb_pc_pd_pe_ga0_gb0_gc81.0_ge0000000000_gh_gf_gg_gd10000000_ha77.77_hb100.1.70.70_hc3.66.47.3.66.47_hd6.0.56.36_ia_if_ib_id_ic_jc_ie_ja_jb_jd_je_jf_jg_ka30.c60c25.C60C25.C60C25.0_kb20.c60c25.C60C25.C60C25_kc_kd_ke_kf_la_lb_oa_os_ob19.3.0.0_oc19.3.0.0_od_oe_of_lc_m00_n00_s00_og_oh_oo_op_oq_or_om_on_ok_ol_oi_oj_ad0.0.0.0.0.0.0.0.0.0
4-wink=47**aa11.86.1.5.67.11.86.1.5.67_ab_ac_ba52_bb30.0_bc150.500.8.0.1_bd30_be180_ca64.0.15.75.15.0.34.0.33_cb0_da1.0.0.100_db_dd9.1.30.19.64.50_dh7.43.50.50.0_di5_qa_qb_dc36.2.2.2.2_eh4.233056_ea10.233056.223565.53.0.0_ec_ed15.20.0.1.233056.56_ef1.2.3.233056.233056.56_eg1.2.3.233056.233056.56_r0028.233056.233056.56.0.0.50.50.139.584.388.0_fa4.76.50.60.50.40.56_fb_fh_fc0.28.30.0.28.30.50.61.61.50.50.50_fd16.0.31.233056.55_fe58.63_ff0000000000_fg1.39_pa0.0.0.0.40.50.85.85.0.0_t00_pb_pc_pd_pe_ga0_gb0_gc8.0_ge0000000000_gh_gf_gg_gd10000000_ha0.100_hb43.1.43.47_hc0.25.47.0.25.47_hd2.1.57.24_ia_if_ib_id_ic_jc_ie_ja_jb_jd_je_jf_jg_ka30.c60c25.C60C25.C60C25.0_kb20.c60c25.C60C25.C60C25_kc_kd_ke_kf_la_lb_oa_os_ob19.3.0.0_oc19.3.0.0_od_oe_of_lc_m00_n00_s00_og_oh_oo_op_oq_or_om_on_ok_ol_oi_oj_ad0.0.0.0.0.0.0.0.0.0
4-must_strip=47**aa24.56.1.49.31.24.56.1.49.31_ab_ac_ba0_bb6.1_bc150.500.8.0.1_bd6_be180_ca64.0.15.75.15.0.34.0.33_cb0_da1.0.0.100_db_dd9.1.30.19.64.50_dh7.43.50.50.0_di5_qa_qb_dc36.2.2.2.2_eh4.233056_ea10.233056.223565.53.0.0_ec_ed15.20.0.1.233056.56_ef1.2.3.233056.233056.56_eg1.2.3.233056.233056.56_r0028.233056.233056.56.0.0.50.50.139.584.388.0_fa4.76.50.60.50.40.56_fb_fh_fc0.28.30.0.28.30.50.61.61.50.50.50_fd16.0.31.233056.55_fe58.63_ff0000000000_fg1.39_pa0.0.0.0.40.50.85.85.0.0_t00_pb_pc_pd_pe_ga0_gb0_gc88.0_ge0000000000_gh_gf_gg_gd10000000_ha24.24_hb56.1.0.0_hc0.45.35.0.45.35_hd10.1.58.48_ia_if_ib_id_ic_jc_ie_ja_jb_jd_je_jf_jg_ka30.c60c25.C60C25.C60C25.0_kb20.c60c25.C60C25.C60C25_kc_kd_ke_kf_la_lb_oa_os_ob19.3.0.0_oc19.3.0.0_od_oe_of_lc_m00_n00_s00_og_oh_oo_op_oq_or_om_on_ok_ol_oi_oj_ad0.0.0.0.0.0.0.0.0.0
4-stripping=47**aa80.41.0.49.31.80.41.0.49.31_ab_ac_ba0_bb6.1_bc150.500.8.0.1_bd6_be180_ca64.0.15.75.15.0.34.0.33_cb0_da1.0.0.100_db_dd9.1.30.19.64.50_dh7.43.50.50.0_di5_qa_qb_dc36.2.2.2.2_eh4.233056_ea10.233056.223565.53.0.0_ec_ed15.20.0.1.233056.56_ef1.2.3.233056.233056.56_eg1.2.3.233056.233056.56_r0028.233056.233056.56.0.0.50.50.139.584.388.0_fa4.76.50.60.50.40.56_fb_fh_fc0.28.30.0.28.30.50.61.61.50.50.50_fd16.0.31.233056.55_fe58.63_ff0000000000_fg1.39_pa0.0.0.0.40.50.85.85.0.0_t00_pb_pc_pd_pe_ga0_gb0_gc88.0_ge0000000000_gh_gf_gg_gd10000000_ha98.98_hb56.1.47.50_hc0.45.35.0.45.35_hd44.1.62.14_ia_if_ib_id_ic_jc_ie_ja_jb_jd_je_jf_jg_ka30.c60c25.C60C25.C60C25.0_kb20.c60c25.C60C25.C60C25_kc_kd_ke_kf_la_lb_oa_os_ob19.3.0.0_oc19.3.0.0_od_oe_of_lc_m00_n00_s00_og_oh_oo_op_oq_or_om_on_ok_ol_oi_oj_ad0.0.0.0.0.0.0.0.0.0

#5-Bra lost

5-stripped=47**aa27.82.1.49.31.27.66.1.49.31_ab_ac_ba49_bb4.1_bc150.500.8.0.1_bd6_be180_ca64.0.15.75.15.0.34.0.33_cb0_da1.0.0.100_db_dd9.1.30.19.64.50_dh7.43.50.50.0_di5_qa_qb_dc36.2.2.2.2_eh4.233056_ea10.233056.223565.53.0.0_ec_ed15.20.0.1.233056.56_ef1.2.3.233056.233056.56_eg1.2.3.233056.233056.56_r0028.233056.233056.56.0.0.50.50.139.584.388.0_fa4.76.50.60.50.40.56_fb_fh_fc0.28.30.0.28.30.50.61.61.50.50.50_fd16.0.31.233056.55_fe58.63_ff0000000000_fg1.39_pa0.0.0.0.40.50.85.85.0.0_t00_pb_pc_pd_pe_ga0_gb0_gc52.0_ge0000000000_gh_gf_gg_gd10000000_ha98.98_hb56.1.47.50_hc0.45.35.0.45.35_hd2.1.94.14_ia_if_ib_id_ic_jc_ie_ja_jb_jd_je_jf_jg_ka_kb20.c60c25.C60C25.C60C25_kc_kd_ke_kf_la_lb_oa_os_ob19.3.0.0_oc19.3.0.0_od_oe_of_lc_m00_n00_s00_og_oh_oo_op_oq_or_om_on_ok_ol_oi_oj_ad0.0.0.0.0.0.0.0.0.0
5-alarmed=47**aa62.35.1.46.52.9.89.1.47.50_ab_ac_ba58_bb44.0_bc150.500.8.0.1_bd44_be180_ca64.0.15.75.15.0.34.0.33_cb0_da1.0.0.100_db_dd9.1.30.19.64.50_dh7.43.50.50.0_di5_qa_qb_dc36.2.2.2.2_eh4.233056_ea10.233056.223565.53.0.0_ec_ed15.20.0.1.233056.56_ef1.2.3.233056.233056.56_eg1.2.3.233056.233056.56_r0028.233056.233056.56.0.0.50.50.139.584.388.0_fa4.76.50.60.50.40.56_fb_fh_fc0.28.30.0.28.30.50.61.61.50.50.50_fd16.0.31.233056.55_fe58.63_ff0000000000_fg1.39_pa0.0.0.0.40.50.85.85.0.0_t00_pb_pc_pd_pe_ga0_gb0_gc100.0_ge0000000000_gh_gf_gg_gd10000000_ha100.100_hb25.1.70.0_hc2.59.39.2.59.39_hd48.1.57.78_ia_if_ib_id_ic_jc_ie_ja_jb_jd_je_jf_jg_ka_kb20.c60c25.C60C25.C60C25_kc_kd_ke_kf_la_lb_oa_os_ob19.3.0.0_oc19.3.0.0_od_oe_of_lc_m00_n00_s00_og_oh_oo_op_oq_or_om_on_ok_ol_oi_oj_ad0.0.0.0.0.0.0.0.0.0
5-bored=47**aa65.42.1.21.52.11.86.0.0.50_ab_ac_ba52_bb17.1_bc150.500.8.0.1_bd17_be180_ca64.0.15.75.15.0.34.0.33_cb0_da1.0.0.100_db_dd9.1.30.19.64.50_dh7.43.50.50.0_di5_qa_qb_dc36.2.2.2.2_eh4.233056_ea10.233056.223565.53.0.0_ec_ed15.20.0.1.233056.56_ef1.2.3.233056.233056.56_eg1.2.3.233056.233056.56_r0028.233056.233056.56.0.0.50.50.139.584.388.0_fa4.76.50.60.50.40.56_fb_fh_fc0.28.30.0.28.30.50.61.61.50.50.50_fd16.0.31.233056.55_fe58.63_ff0000000000_fg1.39_pa0.0.0.0.40.50.85.85.0.0_t00_pb_pc_pd_pe_ga0_gb0_gc0.0_ge0000000000_gh_gf_gg_gd10000000_ha100.100_hb47.1.72.40_hc3.59.39.3.59.39_hd5.1.52.49_ia_if_ib_id_ic_jc_ie_ja_jb_jd_je_jf_jg_ka_kb20.c60c25.C60C25.C60C25_kc_kd_ke_kf_la_lb_oa_os_ob19.3.0.0_oc19.3.0.0_od_oe_of_lc_m00_n00_s00_og_oh_oo_op_oq_or_om_on_ok_ol_oi_oj_ad0.0.0.0.0.0.0.0.0.0
5-calm=47**aa0.78.0.47.50.0.78.0.47.50_ab_ac_ba84_bb53.0_bc150.500.8.0.1_bd16_be180_ca64.0.15.75.15.0.34.0.33_cb0_da1.0.0.100_db_dd9.1.30.19.64.50_dh7.43.50.50.0_di5_qa_qb_dc36.2.2.2.2_eh4.233056_ea10.233056.223565.53.0.0_ec_ed15.20.0.1.233056.56_ef1.2.3.233056.233056.56_eg1.2.3.233056.233056.56_r0028.233056.233056.56.0.0.50.50.139.584.388.0_fa4.76.50.60.50.40.56_fb_fh_fc0.28.30.0.28.30.50.61.61.50.50.50_fd16.0.31.233056.55_fe58.63_ff0000000000_fg1.39_pa0.0.0.0.40.50.85.85.0.0_t00_pb_pc_pd_pe_ga0_gb0_gc54.0_ge0000000000_gh_gf_gg_gd10000000_ha0.100_hb3.1.29.24_hc2.59.39.2.59.39_hd22.1.46.78_ia_if_ib_id_ic_jc_ie_ja_jb_jd_je_jf_jg_ka_kb20.c60c25.C60C25.C60C25_kc_kd_ke_kf_la_lb_oa_os_ob19.3.0.0_oc19.3.0.0_od_oe_of_lc_m00_n00_s00_og_oh_oo_op_oq_or_om_on_ok_ol_oi_oj_ad0.0.0.0.0.0.0.0.0.0
5-confident=47**aa86.37.0.34.56.23.82.1.5.35_ab_ac_ba70_bb45.0_bc150.500.8.0.1_bd47_be180_ca64.0.15.75.15.0.34.0.33_cb0_da1.0.0.100_db_dd9.1.30.19.64.50_dh7.43.50.50.0_di5_qa_qb_dc36.2.2.2.2_eh4.233056_ea10.233056.223565.53.0.0_ec_ed15.20.0.1.233056.56_ef1.2.3.233056.233056.56_eg1.2.3.233056.233056.56_r0028.233056.233056.56.0.0.50.50.139.584.388.0_fa4.76.50.60.50.40.56_fb_fh_fc0.28.30.0.28.30.50.61.61.50.50.50_fd16.0.31.233056.55_fe58.63_ff0000000000_fg1.39_pa0.0.0.0.40.50.85.85.0.0_t00_pb_pc_pd_pe_ga0_gb0_gc62.0_ge0000000000_gh_gf_gg_gd10000000_ha100.100_hb52.1.49.60_hc0.25.47.0.25.47_hd2.0.52.49_ia_if_ib_id_ic_jc_ie_ja_jb_jd_je_jf_jg_ka_kb20.c60c25.C60C25.C60C25_kc_kd_ke_kf_la_lb_oa_os_ob19.3.0.0_oc19.3.0.0_od_oe_of_lc_m00_n00_s00_og_oh_oo_op_oq_or_om_on_ok_ol_oi_oj_ad0.0.0.0.0.0.0.0.0.0
5-confused=47**aa9.64.1.45.56.9.64.1.45.50_ab_ac_ba37_bb15.1_bc150.500.8.0.1_bd14_be180_ca64.0.15.75.15.0.34.0.33_cb0_da1.0.0.100_db_dd9.1.30.19.64.50_dh7.43.50.50.0_di5_qa_qb_dc36.2.2.2.2_eh4.233056_ea10.233056.223565.53.0.0_ec_ed15.20.0.1.233056.56_ef1.2.3.233056.233056.56_eg1.2.3.233056.233056.56_r0028.233056.233056.56.0.0.50.50.139.584.388.0_fa4.76.50.60.50.40.56_fb_fh_fc0.28.30.0.28.30.50.61.61.50.50.50_fd16.0.31.233056.55_fe58.63_ff0000000000_fg1.39_pa0.0.0.0.40.50.85.85.0.0_t00_pb_pc_pd_pe_ga0_gb0_gc0.57_ge0000000000_gh_gf_gg_gd10000000_ha82.82_hb47.1.41.20_hc3.28.47.3.28.47_hd7.1.100.72_ia_if_ib_id_ic_jc_ie_ja_jb_jd_je_jf_jg_ka_kb20.c60c25.C60C25.C60C25_kc_kd_ke_kf_la_lb_oa_os_ob19.3.0.0_oc19.3.0.0_od_oe_of_lc_m00_n00_s00_og_oh_oo_op_oq_or_om_on_ok_ol_oi_oj_ad0.0.0.0.0.0.0.0.0.0
5-embarrassed=47**aa19.58.1.49.52.21.61.1.28.50_ab_ac_ba78_bb44.0_bc150.500.8.0.1_bd44_be180_ca64.0.15.75.15.0.34.0.33_cb0_da1.0.0.100_db_dd9.1.30.19.64.50_dh7.43.50.50.0_di5_qa_qb_dc36.2.2.2.2_eh4.233056_ea10.233056.223565.53.0.0_ec_ed15.20.0.1.233056.56_ef1.2.3.233056.233056.56_eg1.2.3.233056.233056.56_r0028.233056.233056.56.0.0.50.50.139.584.388.0_fa4.76.50.60.50.40.56_fb_fh_fc0.28.30.0.28.30.50.61.61.50.50.50_fd16.0.31.233056.55_fe58.63_ff0000000000_fg1.39_pa0.0.0.0.40.50.85.85.0.0_t00_pb_pc_pd_pe_ga0_gb0_gc86.0_ge0000000000_gh_gf_gg_gd10000000_ha77.77_hb70.1.45.25_hc3.66.47.3.66.47_hd10.0.70.57_ia_if_ib_id_ic_jc_ie_ja_jb_jd_je_jf_jg_ka_kb20.c60c25.C60C25.C60C25_kc_kd_ke_kf_la_lb_oa_os_ob19.3.0.0_oc19.3.0.0_od_oe_of_lc_m00_n00_s00_og_oh_oo_op_oq_or_om_on_ok_ol_oi_oj_ad0.0.0.0.0.0.0.0.0.0
5-excited=47**aa9.68.0.17.37.17.44.0.47.50_ab_ac_ba47_bb0.0_bc150.500.8.0.1_bd0_be180_ca64.0.15.75.15.0.34.0.33_cb0_da1.0.0.100_db_dd9.1.30.19.64.50_dh7.43.50.50.0_di5_qa_qb_dc36.2.2.2.2_eh4.233056_ea10.233056.223565.53.0.0_ec_ed15.20.0.1.233056.56_ef1.2.3.233056.233056.56_eg1.2.3.233056.233056.56_r0028.233056.233056.56.0.0.50.50.139.584.388.0_fa4.76.50.60.50.40.56_fb_fh_fc0.28.30.0.28.30.50.61.61.50.50.50_fd16.0.31.233056.55_fe58.63_ff0000000000_fg1.39_pa0.0.0.0.40.50.85.85.0.0_t00_pb_pc_pd_pe_ga0_gb0_gc84.0_ge0000000000_gh_gf_gg_gd10000000_ha90.90_hb0.1.25.44_hc0.59.39.0.59.39_hd25.1.44.100_ia_if_ib_id_ic_jc_ie_ja_jb_jd_je_jf_jg_ka_kb20.c60c25.C60C25.C60C25_kc_kd_ke_kf_la_lb_oa_os_ob19.3.0.0_oc19.3.0.0_od_oe_of_lc_m00_n00_s00_og_oh_oo_op_oq_or_om_on_ok_ol_oi_oj_ad0.0.0.0.0.0.0.0.0.0
5-must_strip=47**aa15.66.0.28.31.13.66.1.49.31_ab_ac_ba32_bb27.1_bc150.500.8.0.1_bd2_be180_ca64.0.15.75.15.0.34.0.33_cb0_da1.0.0.100_db_dd9.1.30.19.64.50_dh7.43.50.50.0_di5_qa_qb_dc36.2.2.2.2_eh4.233056_ea10.233056.223565.53.0.0_ec_ed15.20.0.1.233056.56_ef1.2.3.233056.233056.56_eg1.2.3.233056.233056.56_r0028.233056.233056.56.0.0.50.50.139.584.388.0_fa4.76.50.60.50.40.56_fb_fh_fc0.28.30.0.28.30.50.61.61.50.50.50_fd16.0.31.233056.55_fe58.63_ff0000000000_fg1.39_pa0.0.0.0.40.50.85.85.0.0_t00_pb_pc_pd_pe_ga0_gb0_gc84.0_ge0000000000_gh_gf_gg_gd10000000_ha98.98_hb56.1.47.0_hc0.45.35.0.45.35_hd41.1.94.54_ia_if_ib_id_ic_jc_ie_ja_jb_jd_je_jf_jg_ka_kb20.c60c25.C60C25.C60C25_kc_kd_ke_kf_la_lb_oa_os_ob19.3.0.0_oc19.3.0.0_od_oe_of_lc_m00_n00_s00_og_oh_oo_op_oq_or_om_on_ok_ol_oi_oj_ad0.0.0.0.0.0.0.0.0.0
5-stripping=47**aa16.86.1.28.31.23.82.1.49.38_ab_ac_ba72_bb32.1_bc150.500.8.0.1_bd16_be180_ca64.0.15.75.15.0.34.0.33_cb0_da1.0.0.100_db_dd9.1.30.19.64.50_dh7.43.50.50.0_di5_qa_qb_dc36.2.2.2.2_eh4.233056_ea10.233056.223565.53.0.0_ec_ed15.20.0.1.233056.56_ef1.2.3.233056.233056.56_eg1.2.3.233056.233056.56_r0028.233056.233056.56.0.0.50.50.139.584.388.0_fa4.76.50.60.50.40.56_fb_fh_fc0.28.30.0.28.30.50.61.61.50.50.50_fd16.0.31.233056.55_fe58.63_ff0000000000_fg1.39_pa0.0.0.0.40.50.85.85.0.0_t00_pb_pc_pd_pe_ga0_gb0_gc26.0_ge0000000000_gh_gf_gg_gd10000000_ha98.98_hb100.1.27.30_hc0.45.35.0.45.35_hd10.1.94.42_ia_if_ib_id_ic_jc_ie_ja_jb_jd_je_jf_jg_ka_kb20.c60c25.C60C25.C60C25_kc_kd_ke_kf_la_lb_oa_os_ob19.3.0.0_oc19.3.0.0_od_oe_of_lc_m00_n00_s00_og_oh_oo_op_oq_or_om_on_ok_ol_oi_oj_ad0.0.0.0.0.0.0.0.0.0

#-3-Naked

6-stripped=47**aa11.66.1.49.41.11.88.1.27.27_ab_ac_ba13_bb44.1_bc150.500.8.0.1_bd44_be180_ca64.0.15.75.15.0.34.0.33_cb0_da1.0.0.100_db_dd9.1.30.19.64.50_dh7.43.50.50.0_di5_qa_qb_dc36.2.2.2.2_eh4.233056_ea10.233056.223565.53.0.0_ec_ed15.20.0.1.233056.56_ef1.2.3.233056.233056.56_eg1.2.3.233056.233056.56_r0028.233056.233056.56.0.0.50.50.139.584.388.0_fa4.76.50.60.50.40.56_fb_fh_fc0.28.30.0.28.30.50.61.61.50.50.50_fd16.0.31.233056.55_fe58.63_ff0000000000_fg1.39_pa0.0.0.0.40.50.85.85.0.0_t00_pb_pc_pd_pe_ga0_gb0_gc94.0_ge0000000000_gh_gf_gg_gd10000000_ha70.70_hb0.1.60.58_hc0.45.35.0.45.35_hd1.1.94.42_ia_if_ib_id_ic_jc_ie_ja_jb_jd_je_jf_jg_ka_kb_kc_kd_ke_kf_la_lb_oa_os_ob19.3.0.0_oc19.3.0.0_od_oe_of_lc_m00_n00_s00_og_oh_oo_op_oq_or_om_on_ok_ol_oi_oj_ad0.0.0.0.0.0.0.0.0.0
6-alarmed=47**aa16.35.1.48.52.22.85.1.0.50_ab_ac_ba35_bb13.0_bc150.500.8.0.1_bd0_be180_ca64.0.15.75.15.0.34.0.33_cb0_da1.0.0.100_db_dd9.1.30.19.64.50_dh7.43.50.50.0_di5_qa_qb_dc36.2.2.2.2_eh4.233056_ea10.233056.223565.53.0.0_ec_ed15.20.0.1.233056.56_ef1.2.3.233056.233056.56_eg1.2.3.233056.233056.56_r0028.233056.233056.56.0.0.50.50.139.584.388.0_fa4.76.50.60.50.40.56_fb_fh_fc0.28.30.0.28.30.50.61.61.50.50.50_fd16.0.31.233056.55_fe58.63_ff0000000000_fg1.39_pa0.0.0.0.40.50.85.85.0.0_t00_pb_pc_pd_pe_ga0_gb0_gc100.0_ge0000000000_gh_gf_gg_gd10000000_ha100.100_hb49.1.39.0_hc2.59.39.2.59.39_hd32.1.22.78_ia_if_ib_id_ic_jc_ie_ja_jb_jd_je_jf_jg_ka_kb_kc_kd_ke_kf_la_lb_oa_os_ob19.3.0.0_oc19.3.0.0_od_oe_of_lc_m00_n00_s00_og_oh_oo_op_oq_or_om_on_ok_ol_oi_oj_ad0.0.0.0.0.0.0.0.0.0
6-bored=47**aa9.66.1.28.52.12.85.1.26.43_ab_ac_ba78_bb19.0_bc150.500.8.0.1_bd9_be180_ca64.0.15.75.15.0.34.0.33_cb0_da1.0.0.100_db_dd9.1.30.19.64.50_dh7.43.50.50.0_di5_qa_qb_dc36.2.2.2.2_eh4.233056_ea10.233056.223565.53.0.0_ec_ed15.20.0.1.233056.56_ef1.2.3.233056.233056.56_eg1.2.3.233056.233056.56_r0028.233056.233056.56.0.0.50.50.139.584.388.0_fa4.76.50.60.50.40.56_fb_fh_fc0.28.30.0.28.30.50.61.61.50.50.50_fd16.0.31.233056.55_fe58.63_ff0000000000_fg1.39_pa0.0.0.0.40.50.85.85.0.0_t00_pb_pc_pd_pe_ga0_gb0_gc40.0_ge0000000000_gh_gf_gg_gd10000000_ha100.100_hb100.1.43.16_hc3.59.39.3.59.39_hd22.1.24.49_ia_if_ib_id_ic_jc_ie_ja_jb_jd_je_jf_jg_ka_kb_kc_kd_ke_kf_la_lb_oa_os_ob19.3.0.0_oc19.3.0.0_od_oe_of_lc_m00_n00_s00_og_oh_oo_op_oq_or_om_on_ok_ol_oi_oj_ad0.0.0.0.0.0.0.0.0.0
6-calm=47**aa9.88.1.45.50.13.64.0.47.50_ab_ac_ba49_bb5.1_bc150.500.8.0.1_bd7_be180_ca64.0.15.75.15.0.34.0.33_cb0_da1.0.0.100_db_dd9.1.30.19.64.50_dh7.43.50.50.0_di5_qa_qb_dc36.2.2.2.2_eh4.233056_ea10.233056.223565.53.0.0_ec_ed15.20.0.1.233056.56_ef1.2.3.233056.233056.56_eg1.2.3.233056.233056.56_r0028.233056.233056.56.0.0.50.50.139.584.388.0_fa4.76.50.60.50.40.56_fb_fh_fc0.28.30.0.28.30.50.61.61.50.50.50_fd16.0.31.233056.55_fe58.63_ff0000000000_fg1.39_pa0.0.0.0.40.50.85.85.0.0_t00_pb_pc_pd_pe_ga0_gb0_gc94.0_ge0000000000_gh_gf_gg_gd10000000_ha0.0_hb3.1.29.24_hc2.59.39.2.59.39_hd24.1.32.28_ia_if_ib_id_ic_jc_ie_ja_jb_jd_je_jf_jg_ka_kb_kc_kd_ke_kf_la_lb_oa_os_ob19.3.0.0_oc19.3.0.0_od_oe_of_lc_m00_n00_s00_og_oh_oo_op_oq_or_om_on_ok_ol_oi_oj_ad0.0.0.0.0.0.0.0.0.0
6-confident=47**aa13.0.0.34.56.13.66.1.27.35_ab_ac_ba70_bb25.1_bc150.500.8.0.1_bd14_be180_ca64.0.15.75.15.0.34.0.33_cb0_da1.0.0.100_db_dd9.1.30.19.64.50_dh7.43.50.50.0_di5_qa_qb_dc36.2.2.2.2_eh4.233056_ea10.233056.223565.53.0.0_ec_ed15.20.0.1.233056.56_ef1.2.3.233056.233056.56_eg1.2.3.233056.233056.56_r0028.233056.233056.56.0.0.50.50.139.584.388.0_fa4.76.50.60.50.40.56_fb_fh_fc0.28.30.0.28.30.50.61.61.50.50.50_fd16.0.31.233056.55_fe58.63_ff0000000000_fg1.39_pa0.0.0.0.40.50.85.85.0.0_t00_pb_pc_pd_pe_ga0_gb0_gc78.0_ge0000000000_gh_gf_gg_gd10000000_ha0.84_hb100.1.49.60_hc0.25.47.0.25.47_hd1.1.52.49_ia_if_ib_id_ic_jc_ie_ja_jb_jd_je_jf_jg_ka_kb_kc_kd_ke_kf_la_lb_oa_os_ob19.3.0.0_oc19.3.0.0_od_oe_of_lc_m00_n00_s00_og_oh_oo_op_oq_or_om_on_ok_ol_oi_oj_ad0.0.0.0.0.0.0.0.0.0
6-confused=47**aa9.74.0.49.56.17.86.1.3.50_ab_ac_ba37_bb29.1_bc150.500.8.0.1_bd29_be180_ca64.0.15.75.15.0.34.0.33_cb0_da1.0.0.100_db_dd9.1.30.19.64.50_dh7.43.50.50.0_di5_qa_qb_dc36.2.2.2.2_eh4.233056_ea10.233056.223565.53.0.0_ec_ed15.20.0.1.233056.56_ef1.2.3.233056.233056.56_eg1.2.3.233056.233056.56_r0028.233056.233056.56.0.0.50.50.139.584.388.0_fa4.76.50.60.50.40.56_fb_fh_fc0.28.30.0.28.30.50.61.61.50.50.50_fd16.0.31.233056.55_fe58.63_ff0000000000_fg1.39_pa0.0.0.0.40.50.85.85.0.0_t00_pb_pc_pd_pe_ga0_gb0_gc0.30_ge0000000000_gh_gf_gg_gd10000000_ha82.82_hb47.1.41.50_hc3.28.47.3.28.47_hd12.1.100.72_ia_if_ib_id_ic_jc_ie_ja_jb_jd_je_jf_jg_ka_kb_kc_kd_ke_kf_la_lb_oa_os_ob19.3.0.0_oc19.3.0.0_od_oe_of_lc_m00_n00_s00_og_oh_oo_op_oq_or_om_on_ok_ol_oi_oj_ad0.0.0.0.0.0.0.0.0.0
6-embarrassed=47**aa9.88.1.49.52.19.60.1.26.76_ab_ac_ba23_bb44.0_bc150.500.8.0.1_bd44_be180_ca64.0.15.75.15.0.34.0.33_cb0_da1.0.0.100_db_dd9.1.30.19.64.50_dh7.43.50.50.0_di5_qa_qb_dc36.2.2.2.2_eh4.233056_ea10.233056.223565.53.0.0_ec_ed15.20.0.1.233056.56_ef1.2.3.233056.233056.56_eg1.2.3.233056.233056.56_r0028.233056.233056.56.0.0.50.50.139.584.388.0_fa4.76.50.60.50.40.56_fb_fh_fc0.28.30.0.28.30.50.61.61.50.50.50_fd16.0.31.233056.55_fe58.63_ff0000000000_fg1.39_pa0.0.0.0.40.50.85.85.0.0_t00_pb_pc_pd_pe_ga0_gb0_gc100.0_ge0000000000_gh_gf_gg_gd10000000_ha77.77_hb39.1.41.0_hc4.66.47.4.66.47_hd44.0.62.0_ia_if_ib_id_ic_jc_ie_ja_jb_jd_je_jf_jg_ka_kb_kc_kd_ke_kf_la_lb_oa_os_ob19.3.0.0_oc19.3.0.0_od_oe_of_lc_m00_n00_s00_og_oh_oo_op_oq_or_om_on_ok_ol_oi_oj_ad0.0.0.0.0.0.0.0.0.0
6-excited=47**aa29.37.0.38.52.35.90.1.39.43_ab_ac_ba76_bb83.0_bc150.500.8.0.1_bd4_be180_ca64.0.15.75.15.0.34.0.33_cb0_da1.0.0.100_db_dd9.1.30.19.64.50_dh7.43.50.50.0_di5_qa_qb_dc36.2.2.2.2_eh4.233056_ea10.233056.223565.53.0.0_ec_ed15.20.0.1.233056.56_ef1.2.3.233056.233056.56_eg1.2.3.233056.233056.56_r0028.233056.233056.56.0.0.50.50.139.584.388.0_fa4.76.50.60.50.40.56_fb_fh_fc0.28.30.0.28.30.50.61.61.50.50.50_fd16.0.31.233056.55_fe58.63_ff0000000000_fg1.39_pa0.0.0.0.40.50.85.85.0.0_t00_pb_pc_pd_pe_ga0_gb0_gc88.0_ge0000000000_gh_gf_gg_gd10000000_ha100.100_hb25.1.47.48_hc3.59.39.3.59.39_hd2.0.80.49_ia_if_ib_id_ic_jc_ie_ja_jb_jd_je_jf_jg_ka_kb_kc_kd_ke_kf_la_lb_oa_os_ob19.3.0.0_oc19.3.0.0_od_oe_of_lc_m00_n00_s00_og_oh_oo_op_oq_or_om_on_ok_ol_oi_oj_ad0.0.0.0.0.0.0.0.0.0
6-wink=47**aa0.86.1.5.67.0.86.1.5.67_ab_ac_ba52_bb7.0_bc150.500.8.0.1_bd45_be180_ca64.0.15.75.15.0.34.0.33_cb0_da1.0.0.100_db_dd9.1.30.19.64.50_dh7.43.50.50.0_di5_qa_qb_dc36.2.2.2.2_eh4.233056_ea10.233056.223565.53.0.0_ec_ed15.20.0.1.233056.56_ef1.2.3.233056.233056.56_eg1.2.3.233056.233056.56_r0028.233056.233056.56.0.0.50.50.139.584.388.0_fa4.76.50.60.50.40.56_fb_fh_fc0.28.30.0.28.30.50.61.61.50.50.50_fd16.0.31.233056.55_fe58.63_ff0000000000_fg1.39_pa0.0.0.0.40.50.85.85.0.0_t00_pb_pc_pd_pe_ga0_gb0_gc52.0_ge0000000000_gh_gf_gg_gd10000000_ha0.0_hb43.1.43.47_hc0.25.47.0.25.47_hd2.1.96.86_ia_if_ib_id_ic_jc_ie_ja_jb_jd_je_jf_jg_ka_kb_kc_kd_ke_kf_la_lb_oa_os_ob19.3.0.0_oc19.3.0.0_od_oe_of_lc_m00_n00_s00_og_oh_oo_op_oq_or_om_on_ok_ol_oi_oj_ad0.0.0.0.0.0.0.0.0.0
6-start=47**aa76.27.0.49.41.9.88.0.27.27_ab_ac_ba41_bb57.1_bc150.500.8.0.1_bd57_be180_ca64.0.15.75.15.0.34.0.33_cb0_da1.0.0.100_db_dd9.1.30.19.64.50_dh7.43.50.50.0_di5_qa_qb_dc36.2.2.2.2_eh4.233056_ea10.233056.223565.53.0.0_ec_ed15.20.0.1.233056.56_ef1.2.3.233056.233056.56_eg1.2.3.233056.233056.56_r0028.233056.233056.56.0.0.50.50.139.584.388.0_fa4.76.50.60.50.40.56_fb_fh_fc0.28.30.0.28.30.50.61.61.50.50.50_fd16.0.31.233056.55_fe58.63_ff0000000000_fg1.39_pa0.0.0.0.40.50.85.85.0.0_t00_pb_pc_pd_pe_ga0_gb0_gc100.0_ge0000000000_gh_gf_gg_gd10000000_ha100.100_hb0.1.78.58_hc0.45.35.0.45.35_hd22.1.94.42_ia_if_ib_id_ic_jc_ie_ja_jb_jd_je_jf_jg_ka_kb_kc_kd_ke_kf_la_lb_oa_os_ob19.3.0.0_oc19.3.0.0_od_oe_of_lc_m00_n00_s00_og_oh_oo_op_oq_or_om_on_ok_ol_oi_oj_ad0.0.0.0.0.0.0.0.0.0


7-confident=47**aa46.58.1.49.56.7.88.1.25.70_ab_ac_ba58_bb59.1_bc217.200.0.0.1_bd59_be180_ca64.0.15.75.15.0.34.0.33_cb0_da1.0.0.100_db_dd9.1.30.19.64.50_dh7.43.50.50.0_di5_qa_qb_dc36.2.2.2.2_eh4.233056_ea10.233056.223565.53.0.0_ec_ed15.20.0.1.233056.56_ef1.2.3.233056.233056.56_eg1.2.3.233056.233056.56_r0028.233056.233056.56.0.0.50.50.139.584.388.0_fa4.76.50.60.50.40.56_fb_fh_fc0.28.30.0.28.30.50.61.61.50.50.50_fd16.0.31.233056.55_fe58.63_ff0000000000_fg1.39_pa0.0.0.0.40.50.85.85.0.0_t00_pb_pc_pd_pe_ga0_gb0_gc100.0_ge0000000000_gh_gf_gg_gd10000000_ha53.53_hb49.1.49.60_hc0.25.47.0.25.47_hd25.1.52.49_ia_if_ib_id_ic_jc_ie_ja_jb_jd_je_jf_jg_ka_kb_kc_kd_ke_kf_la_lb_oa_os_ob19.3.0.0_oc19.3.0.0_od_oe_of_lc_m00_n00_s00_og_oh_oo_op_oq_or_om_on_ok_ol_oi_oj_ad0.0.0.0.0.0.0.0.0.0
7-embarrassed=47**aa0.68.0.49.52.13.82.1.18.88_ab_ac_ba74_bb54.1_bc217.200.0.0.1_bd51_be180_ca64.0.15.75.15.0.34.0.33_cb0_da1.0.0.100_db_dd9.1.30.19.64.50_dh7.43.50.50.0_di5_qa_qb_dc36.2.2.2.2_eh4.233056_ea10.233056.223565.53.0.0_ec_ed15.20.0.1.233056.56_ef1.2.3.233056.233056.56_eg1.2.3.233056.233056.56_r0028.233056.233056.56.0.0.50.50.139.584.388.0_fa4.76.50.60.50.40.56_fb_fh_fc0.28.30.0.28.30.50.61.61.50.50.50_fd16.0.31.233056.55_fe58.63_ff0000000000_fg1.39_pa0.0.0.0.40.50.85.85.0.0_t00_pb_pc_pd_pe_ga0_gb0_gc100.0_ge0000000000_gh_gf_gg_gd10000000_ha77.77_hb58.1.43.28_hc0.66.47.0.66.47_hd34.0.52.38_ia_if_ib_id_ic_jc_ie_ja_jb_jd_je_jf_jg_ka_kb_kc_kd_ke_kf_la_lb_oa_os_ob19.3.0.0_oc19.3.0.0_od_oe_of_lc_m00_n00_s00_og_oh_oo_op_oq_or_om_on_ok_ol_oi_oj_ad0.0.0.0.0.0.0.0.0.0
7-mast3=47**aa18.80.1.49.41.9.55.0.27.32_ab_ac_ba15_bb84.1_bc217.200.0.0.1_bd58_be180_ca64.0.15.75.15.0.34.0.33_cb0_da1.0.0.100_db_dd9.1.30.19.64.50_dh7.43.50.50.0_di5_qa_qb_dc36.2.2.2.2_eh4.233056_ea10.233056.223565.53.0.0_ec_ed15.20.0.1.233056.56_ef1.2.3.233056.233056.56_eg1.2.3.233056.233056.56_r0028.233056.233056.56.0.0.50.50.139.584.388.0_fa4.76.50.60.50.40.56_fb_fh_fc0.28.30.0.28.30.50.61.61.50.50.50_fd16.0.31.233056.55_fe58.63_ff0000000000_fg1.39_pa0.0.0.0.40.50.85.85.0.0_t00_pb_pc_pd_pe_ga0_gb0_gc100.0_ge0000000000_gh_gf_gg_gd10000000_ha96.16_hb31.1.47.58_hc3.45.35.3.45.35_hd71.1.84.42_ia_if_ib_id_ic_jc_ie_ja_jb_jd_je_jf_jg_ka_kb_kc_kd_ke_kf_la_lb_oa_os_ob19.3.0.0_oc19.3.0.0_od_oe_of_lc_m00_n00_s00_og_oh_oo_op_oq_or_om_on_ok_ol_oi_oj_ad0.0.0.0.0.0.0.0.0.0
7-mast6=47**aa19.80.1.2.55.19.80.1.2.60_ab_ac_ba100_bb56.0_bc217.200.0.0.1_bd95_be180_ca64.0.15.75.15.0.34.0.33_cb0_da1.0.0.100_db_dd9.1.30.19.64.50_dh7.43.50.50.0_di5_qa_qb_dc36.2.2.2.2_eh4.233056_ea10.233056.223565.53.0.0_ec_ed15.20.0.1.233056.56_ef1.0.3.233056.233056.56_eg1.0.3.233056.233056.56_r0028.233056.233056.56.0.0.50.50.139.584.388.0_fa4.76.50.60.50.40.56_fb_fh_fc0.28.30.0.28.30.50.61.61.50.50.50_fd16.0.31.233056.55_fe58.63_ff0000000000_fg1.39_pa0.0.0.0.40.50.85.85.0.0_t00_pb_pc_pd_pe_ga0_gb0_gc100.0_ge0000000000_gh_gf_gg_gd10000000_ha100.100_hb41.1.41.30_hc3.45.35.3.45.35_hd22.1.84.42_ia_if_ib_id_ic_jc_ie_ja_jb_jd_je_jf_jg_ka_kb_kc_kd_ke_kf_la_lb_oa_os_ob19.3.0.0_oc19.3.0.0_od_oe_of_lc_m00_n00_s00_og_oh_oo_op_oq_or_om_on_ok_ol_oi_oj_ad0.0.0.0.0.0.0.0.0.0
7-mast7=47**aa23.64.1.18.39.19.80.1.18.60_ab_ac_ba7_bb56.0_bc217.200.0.0.1_bd57_be180_ca64.0.15.75.15.0.34.0.33_cb0_da1.0.0.100_db_dd9.1.30.19.64.50_dh7.43.50.50.0_di5_qa_qb_dc36.2.2.2.2_eh4.233056_ea10.233056.223565.53.0.0_ec_ed15.20.0.1.233056.56_ef1.0.3.233056.233056.56_eg1.0.3.233056.233056.56_r0028.233056.233056.56.0.0.50.50.139.584.388.0_fa4.76.50.60.50.40.56_fb_fh_fc0.28.30.0.28.30.50.61.61.50.50.50_fd16.0.31.233056.55_fe58.63_ff0000000000_fg1.39_pa0.0.0.0.40.50.85.85.0.0_t00_pb_pc_pd_pe_ga0_gb0_gc100.0_ge0000000000_gh_gf_gg_gd10000000_ha100.100_hb41.1.100.48_hc3.45.35.3.45.35_hd76.1.16.66_ia_if_ib_id_ic_jc_ie_ja_jb_jd_je_jf_jg_ka_kb_kc_kd_ke_kf_la_lb_oa_os_ob19.3.0.0_oc19.3.0.0_od_oe_of_lc_m00_n00_s00_og_oh_oo_op_oq_or_om_on_ok_ol_oi_oj_ad0.0.0.0.0.0.0.0.0.0
7-finishing=47**aa10.64.1.26.62.8.90.1.25.60_ab_ac_ba47_bb58.1_bc217.200.0.0.1_bd58_be180_ca64.0.15.75.15.0.34.0.33_cb0_da1.0.0.100_db_dd9.1.30.19.64.50_dh7.43.50.50.0_di5_qa_qb_dc36.2.2.2.2_eh4.233056_ea10.233056.223565.53.0.0_ec_ed15.20.0.1.233056.56_ef1.0.3.233056.233056.56_eg1.0.3.233056.233056.56_r0028.233056.233056.56.0.0.50.50.139.584.388.0_fa4.76.50.60.50.40.56_fb_fh_fc0.28.30.0.28.30.50.61.61.50.50.50_fd16.0.31.233056.55_fe58.63_ff0000000000_fg1.39_pa0.0.0.0.40.50.85.85.0.0_t00_pb_pc_pd_pe_ga0_gb0_gc100.0_ge0000000000_gh_gf_gg_gd10000000_ha0.0_hb41.1.100.48_hc3.45.35.3.45.35_hd24.1.100.84_ia_if_ib_id_ic_jc_ie_ja_jb_jd_je_jf_jg_ka_kb_kc_kd_ke_kf_la_lb_oa_os_ob19.3.0.0_oc19.3.0.0_od_oe_of_lc_m00_n00_s00_og_oh_oo_op_oq_or_om_on_ok_ol_oi_oj_ad0.0.0.0.0.0.0.0.0.0

#crop images begins here

#-2-Masturbating
7-starting=47***aa11.61.1.47.34.11.61.1.47.35_ab_ac_ba50_bb62.1_bc185.200.0.0.1_bd62_be180_ca56.0.36.75.15.34.34.0.10_cb0_da1.0.0.100_db_dd0.3.0.9.17.50_dh1.30.50.50.0_di7_qa_qb_dc2735.3.1.1.1_eh_ea27.55.55.55.1.0_ec7.11.55.55.55.47.64.0_ed0.37.1.1.55.56_ef_eg_r00_fa4.76.87.73.32.65.56_fb7_fh1_fc0.FFDA00.55.0.FFDA00.55.37.61.61.37.48.50_fd1.0.36.55.56_fe50.73_ff0000000000_fg0.52_pa0.0.0.0.40.50.85.85.0.0_t00_pb0.54.54.0_pc_pd_pe_ga0_gb1_gc68.0_ge0000000000_gh_gf_gg_gd11000000_ha72.72_hb50.1.50.99_hc1.43.3.1.43.3_hd38.1.60.38_ia_if_ib_id_ic_jc_ie_ja_jb_jd_je_jf_jg_ka_kb_kc_kd_ke_kf_la_lb_oa_os_ob_oc_od_oe_of_lc_m00_n00_s00_og_oh_oo_op_oq_or_om_on_ok_ol_oi_oj_ad1.1.1.1.1.1.1.1.1.1*0*0*0*0*0*0*0*0#/]a00_b00_c00_d00_w00_x00_e00_y00_z00_ua1.55.0.0.100_uf0.3.0.0_ue_ub_u0_v0_uc7.0.30_ud7.8
    
7-starting=47**aa16.80.1.49.41.14.66.0.45.32_ab_ac_ba80_bb60.1_bc217.200.0.0.1_bd60_be180_ca64.0.15.75.15.0.34.0.33_cb0_da1.0.0.100_db_dd9.1.30.19.64.50_dh7.43.50.50.0_di5_qa_qb_dc36.2.2.2.2_eh4.233056_ea10.233056.223565.53.0.0_ec_ed15.20.0.1.233056.56_ef1.2.3.233056.233056.56_eg1.2.3.233056.233056.56_r0028.233056.233056.56.0.0.50.50.139.584.388.0_fa4.76.50.60.50.40.56_fb_fh_fc0.28.30.0.28.30.50.61.61.50.50.50_fd16.0.31.233056.55_fe58.63_ff0000000000_fg1.39_pa0.0.0.0.40.50.85.85.0.0_t00_pb_pc_pd_pe_ga0_gb0_gc100.0_ge0000000000_gh_gf_gg_gd10000000_ha10.10_hb0.1.78.58_hc0.45.35.0.45.35_hd43.1.28.42_ia_if_ib_id_ic_jc_ie_ja_jb_jd_je_jf_jg_ka_kb_kc_kd_ke_kf_la_lb_oa_os_ob19.3.0.0_oc19.3.0.0_od_oe_of_lc_m00_n00_s00_og_oh_oo_op_oq_or_om_on_ok_ol_oi_oj_ad0.0.0.0.0.0.0.0.0.0
7-bored=47**aa13.64.1.28.52.13.64.1.26.43_ab_ac_ba35_bb62.0_bc217.200.0.0.1_bd62_be180_ca64.0.15.75.15.0.34.0.33_cb0_da1.0.0.100_db_dd9.1.30.19.64.50_dh7.43.50.50.0_di5_qa_qb_dc36.2.2.2.2_eh4.233056_ea10.233056.223565.53.0.0_ec_ed15.20.0.1.233056.56_ef1.2.3.233056.233056.56_eg1.2.3.233056.233056.56_r0028.233056.233056.56.0.0.50.50.139.584.388.0_fa4.76.50.60.50.40.56_fb_fh_fc0.28.30.0.28.30.50.61.61.50.50.50_fd16.0.31.233056.55_fe58.63_ff0000000000_fg1.39_pa0.0.0.0.40.50.85.85.0.0_t00_pb_pc_pd_pe_ga0_gb0_gc40.0_ge0000000000_gh_gf_gg_gd10000000_ha100.100_hb45.1.43.56_hc3.59.39.3.59.39_hd31.1.50.49_ia_if_ib_id_ic_jc_ie_ja_jb_jd_je_jf_jg_ka_kb_kc_kd_ke_kf_la_lb_oa_os_ob19.3.0.0_oc19.3.0.0_od_oe_of_lc_m00_n00_s00_og_oh_oo_op_oq_or_om_on_ok_ol_oi_oj_ad0.0.0.0.0.0.0.0.0.0
7-calm=47**aa49.57.1.49.50.69.41.1.18.50_ab_ac_ba2_bb63.0_bc217.200.0.0.1_bd63_be180_ca64.0.15.75.15.0.34.0.33_cb0_da1.0.0.100_db_dd9.1.30.19.64.50_dh7.43.50.50.0_di5_qa_qb_dc36.2.2.2.2_eh4.233056_ea10.233056.223565.53.0.0_ec_ed15.20.0.1.233056.56_ef1.2.3.233056.233056.56_eg1.2.3.233056.233056.56_r0028.233056.233056.56.0.0.50.50.139.584.388.0_fa4.76.50.60.50.40.56_fb_fh_fc0.28.30.0.28.30.50.61.61.50.50.50_fd16.0.31.233056.55_fe58.63_ff0000000000_fg1.39_pa0.0.0.0.40.50.85.85.0.0_t00_pb_pc_pd_pe_ga0_gb0_gc94.0_ge0000000000_gh_gf_gg_gd10000000_ha81.81_hb45.1.88.24_hc3.59.39.3.59.39_hd75.1.32.28_ia_if_ib_id_ic_jc_ie_ja_jb_jd_je_jf_jg_ka_kb_kc_kd_ke_kf_la_lb_oa_os_ob19.3.0.0_oc19.3.0.0_od_oe_of_lc_m00_n00_s00_og_oh_oo_op_oq_or_om_on_ok_ol_oi_oj_ad0.0.0.0.0.0.0.0.0.0
7-excited=47**aa17.79.1.25.84.59.57.1.7.36_ab_ac_ba17_bb65.1_bc217.200.0.0.1_bd62_be180_ca64.0.15.75.15.0.34.0.33_cb0_da1.0.0.100_db_dd9.1.30.19.64.50_dh7.43.50.50.0_di5_qa_qb_dc36.2.2.2.2_eh4.233056_ea10.233056.223565.53.0.0_ec_ed15.20.0.1.233056.56_ef1.2.3.233056.233056.56_eg1.0.3.233056.233056.56_r0028.233056.233056.56.0.0.50.50.139.584.388.0_fa4.76.50.60.50.40.56_fb_fh_fc0.28.30.0.28.30.50.61.61.50.50.50_fd16.0.31.233056.55_fe58.63_ff0000000000_fg1.39_pa0.0.0.0.40.50.85.85.0.0_t00_pb_pc_pd_pe_ga0_gb0_gc100.0_ge0000000000_gh_gf_gg_gd10000000_ha100.100_hb41.1.33.28_hc0.66.47.0.66.47_hd24.1.84.78_ia_if_ib_id_ic_jc_ie_ja_jb_jd_je_jf_jg_ka_kb_kc_kd_ke_kf_la_lb_oa_os_ob19.3.0.0_oc19.3.0.0_od_oe_of_lc_m00_n00_s00_og_oh_oo_op_oq_or_om_on_ok_ol_oi_oj_ad0.0.0.0.0.0.0.0.0.0
7-wink=47**aa48.56.1.49.85.48.56.1.2.85_ab_ac_ba52_bb98.0_bc217.200.0.0.1_bd98_be180_ca64.0.15.75.15.0.34.0.33_cb0_da1.0.0.100_db_dd9.1.30.19.64.50_dh7.43.50.50.0_di5_qa_qb_dc36.2.2.2.2_eh4.233056_ea10.233056.223565.53.0.0_ec_ed15.20.0.1.233056.56_ef1.2.3.233056.233056.56_eg1.2.3.233056.233056.56_r0028.233056.233056.56.0.0.50.50.139.584.388.0_fa4.76.50.60.50.40.56_fb_fh_fc0.28.30.0.28.30.50.61.61.50.50.50_fd16.0.31.233056.55_fe58.63_ff0000000000_fg1.39_pa0.0.0.0.40.50.85.85.0.0_t00_pb_pc_pd_pe_ga0_gb0_gc77.0_ge0000000000_gh_gf_gg_gd10000000_ha54.0_hb14.1.43.47_hc0.25.47.0.25.47_hd0.1.31.25_ia_if_ib_id_ic_jc_ie_ja_jb_jd_je_jf_jg_ka_kb_kc_kd_ke_kf_la_lb_oa_os_ob19.3.0.0_oc19.3.0.0_od_oe_of_lc_m00_n00_s00_og_oh_oo_op_oq_or_om_on_ok_ol_oi_oj_ad0.0.0.0.0.0.0.0.0.0
7-mast1=47**aa43.59.1.49.41.25.74.1.23.32_ab_ac_ba27_bb67.1_bc217.200.0.0.1_bd63_be180_ca64.0.15.75.15.0.34.0.33_cb0_da1.0.0.100_db_dd9.1.30.19.64.50_dh7.43.50.50.0_di5_qa_qb_dc36.2.2.2.2_eh4.233056_ea10.233056.223565.53.0.0_ec_ed15.20.0.1.233056.56_ef1.2.3.233056.233056.56_eg1.2.3.233056.233056.56_r0028.233056.233056.56.0.0.50.50.139.584.388.0_fa4.76.50.60.50.40.56_fb_fh_fc0.28.30.0.28.30.50.61.61.50.50.50_fd16.0.31.233056.55_fe58.63_ff0000000000_fg1.39_pa0.0.0.0.40.50.85.85.0.0_t00_pb_pc_pd_pe_ga0_gb0_gc100.0_ge0000000000_gh_gf_gg_gd10000000_ha70.70_hb100.1.78.58_hc0.45.35.0.45.35_hd24.1.48.42_ia_if_ib_id_ic_jc_ie_ja_jb_jd_je_jf_jg_ka_kb_kc_kd_ke_kf_la_lb_oa_os_ob19.3.0.0_oc19.3.0.0_od_oe_of_lc_m00_n00_s00_og_oh_oo_op_oq_or_om_on_ok_ol_oi_oj_ad0.0.0.0.0.0.0.0.0.0
7-mast2=47**aa18.80.1.49.41.86.27.0.23.32_ab_ac_ba78_bb77.1_bc217.200.0.0.1_bd61_be180_ca64.0.15.75.15.0.34.0.33_cb0_da1.0.0.100_db_dd9.1.30.19.64.50_dh7.43.50.50.0_di5_qa_qb_dc36.2.2.2.2_eh4.233056_ea10.233056.223565.53.0.0_ec_ed15.20.0.1.233056.56_ef1.2.3.233056.233056.56_eg1.2.3.233056.233056.56_r0028.233056.233056.56.0.0.50.50.139.584.388.0_fa4.76.50.60.50.40.56_fb_fh_fc0.28.30.0.28.30.50.61.61.50.50.50_fd16.0.31.233056.55_fe58.63_ff0000000000_fg1.39_pa0.0.0.0.40.50.85.85.0.0_t00_pb_pc_pd_pe_ga0_gb0_gc100.0_ge0000000000_gh_gf_gg_gd10000000_ha16.16_hb100.1.78.58_hc0.45.35.0.45.35_hd9.1.84.42_ia_if_ib_id_ic_jc_ie_ja_jb_jd_je_jf_jg_ka_kb_kc_kd_ke_kf_la_lb_oa_os_ob19.3.0.0_oc19.3.0.0_od_oe_of_lc_m00_n00_s00_og_oh_oo_op_oq_or_om_on_ok_ol_oi_oj_ad0.0.0.0.0.0.0.0.0.0
7-mast4=47**aa19.78.1.16.41.19.78.1.16.32_ab_ac_ba47_bb65.0_bc217.200.0.0.1_bd65_be180_ca64.0.15.75.15.0.34.0.33_cb0_da1.0.0.100_db_dd9.1.30.19.64.50_dh7.43.50.50.0_di5_qa_qb_dc36.2.2.2.2_eh4.233056_ea10.233056.223565.53.0.0_ec_ed15.20.0.1.233056.56_ef1.2.3.233056.233056.56_eg1.2.3.233056.233056.56_r0028.233056.233056.56.0.0.50.50.139.584.388.0_fa4.76.50.60.50.40.56_fb_fh_fc0.28.30.0.28.30.50.61.61.50.50.50_fd16.0.31.233056.55_fe58.63_ff0000000000_fg1.39_pa0.0.0.0.40.50.85.85.0.0_t00_pb_pc_pd_pe_ga0_gb0_gc100.0_ge0000000000_gh_gf_gg_gd10000000_ha54.54_hb3.1.100.58_hc3.45.35.3.45.35_hd40.1.84.42_ia_if_ib_id_ic_jc_ie_ja_jb_jd_je_jf_jg_ka_kb_kc_kd_ke_kf_la_lb_oa_os_ob19.3.0.0_oc19.3.0.0_od_oe_of_lc_m00_n00_s00_og_oh_oo_op_oq_or_om_on_ok_ol_oi_oj_ad0.0.0.0.0.0.0.0.0.0
7-mast5=47**aa15.64.0.24.55.19.78.1.25.60_ab_ac_ba100_bb67.0_bc217.200.0.0.1_bd67_be180_ca64.0.15.75.15.0.34.0.33_cb0_da1.0.0.100_db_dd9.1.30.19.64.50_dh7.43.50.50.0_di5_qa_qb_dc36.2.2.2.2_eh4.233056_ea10.233056.223565.53.0.0_ec_ed15.20.0.1.233056.56_ef1.0.3.233056.233056.56_eg1.0.3.233056.233056.56_r0028.233056.233056.56.0.0.50.50.139.584.388.0_fa4.76.50.60.50.40.56_fb_fh_fc0.28.30.0.28.30.50.61.61.50.50.50_fd16.0.31.233056.55_fe58.63_ff0000000000_fg1.39_pa0.0.0.0.40.50.85.85.0.0_t00_pb_pc_pd_pe_ga0_gb0_gc100.0_ge0000000000_gh_gf_gg_gd10000000_ha0.100_hb41.1.100.30_hc3.45.35.3.45.35_hd40.1.84.42_ia_if_ib_id_ic_jc_ie_ja_jb_jd_je_jf_jg_ka_kb_kc_kd_ke_kf_la_lb_oa_os_ob19.3.0.0_oc19.3.0.0_od_oe_of_lc_m00_n00_s00_og_oh_oo_op_oq_or_om_on_ok_ol_oi_oj_ad0.0.0.0.0.0.0.0.0.0

#-1-Finished

8-alarmed=47**aa24.58.1.26.52.24.58.1.26.50_ab_ac_ba84_bb77.1_bc217.200.0.0.1_bd77_be180_ca64.0.15.75.15.0.34.0.33_cb0_da1.0.0.100_db_dd9.1.30.19.64.50_dh7.43.50.50.0_di5_qa_qb_dc36.2.2.2.2_eh4.233056_ea10.233056.223565.53.0.0_ec_ed15.20.0.1.233056.56_ef1.2.3.233056.233056.56_eg1.2.3.233056.233056.56_r0028.233056.233056.56.0.0.50.50.139.584.388.0_fa4.76.50.60.50.40.56_fb_fh_fc0.28.30.0.28.30.50.61.61.50.50.50_fd16.0.31.233056.55_fe58.63_ff0000000000_fg1.39_pa0.0.0.0.40.50.85.85.0.0_t00_pb_pc_pd_pe_ga0_gb0_gc100.0_ge0000000000_gh_gf_gg_gd10000000_ha100.100_hb78.1.13.38_hc2.59.39.2.59.39_hd40.1.22.78_ia_if_ib_id_ic_jc_ie_ja_jb_jd_je_jf_jg_ka_kb_kc_kd_ke_kf_la_lb_oa_os_ob19.3.0.0_oc19.3.0.0_od_oe_of_lc_m00_n00_s00_og_oh_oo_op_oq_or_om_on_ok_ol_oi_oj_ad0.0.0.0.0.0.0.0.0.0
8-bored=47**aa68.37.0.28.52.17.0.1.16.43_ab_ac_ba47_bb61.0_bc217.200.0.0.1_bd67_be180_ca64.0.15.75.15.0.34.0.33_cb0_da1.0.0.100_db_dd9.1.30.19.64.50_dh7.43.50.50.0_di5_qa_qb_dc36.2.2.2.2_eh4.233056_ea10.233056.223565.53.0.0_ec_ed15.20.0.1.233056.56_ef1.2.3.233056.233056.56_eg1.2.3.233056.233056.56_r0028.233056.233056.56.0.0.50.50.139.584.388.0_fa4.76.50.60.50.40.56_fb_fh_fc0.28.30.0.28.30.50.61.61.50.50.50_fd16.0.31.233056.55_fe58.63_ff0000000000_fg1.39_pa0.0.0.0.40.50.85.85.0.0_t00_pb_pc_pd_pe_ga0_gb0_gc40.0_ge0000000000_gh_gf_gg_gd10000000_ha80.80_hb0.1.64.26_hc3.59.39.3.59.39_hd12.0.80.49_ia_if_ib_id_ic_jc_ie_ja_jb_jd_je_jf_jg_ka_kb_kc_kd_ke_kf_la_lb_oa_os_ob19.3.0.0_oc19.3.0.0_od_oe_of_lc_m00_n00_s00_og_oh_oo_op_oq_or_om_on_ok_ol_oi_oj_ad0.0.0.0.0.0.0.0.0.0
8-calm=47**aa6.57.1.49.50.6.82.1.19.50_ab_ac_ba39_bb67.0_bc217.200.0.0.1_bd74_be180_ca64.0.15.75.15.0.34.0.33_cb0_da1.0.0.100_db_dd9.1.30.19.64.50_dh7.43.50.50.0_di5_qa_qb_dc36.2.2.2.2_eh4.233056_ea10.233056.223565.53.0.0_ec_ed15.20.0.1.233056.56_ef1.2.3.233056.233056.56_eg1.2.3.233056.233056.56_r0028.233056.233056.56.0.0.50.50.139.584.388.0_fa4.76.50.60.50.40.56_fb_fh_fc0.28.30.0.28.30.50.61.61.50.50.50_fd16.0.31.233056.55_fe58.63_ff0000000000_fg1.39_pa0.0.0.0.40.50.85.85.0.0_t00_pb_pc_pd_pe_ga0_gb0_gc94.0_ge0000000000_gh_gf_gg_gd10000000_ha100.100_hb45.1.43.46_hc0.59.39.0.59.39_hd2.1.75.28_ia_if_ib_id_ic_jc_ie_ja_jb_jd_je_jf_jg_ka_kb_kc_kd_ke_kf_la_lb_oa_os_ob19.3.0.0_oc19.3.0.0_od_oe_of_lc_m00_n00_s00_og_oh_oo_op_oq_or_om_on_ok_ol_oi_oj_ad0.0.0.0.0.0.0.0.0.0
8-confused=47**aa22.74.1.4.32.22.74.1.49.29_ab_ac_ba49_bb73.1_bc217.200.0.0.1_bd73_be180_ca64.0.15.75.15.0.34.0.33_cb0_da1.0.0.100_db_dd9.1.30.19.64.50_dh7.43.50.50.0_di5_qa_qb_dc36.2.2.2.2_eh4.233056_ea10.233056.223565.53.0.0_ec_ed15.20.0.1.233056.56_ef1.2.3.233056.233056.56_eg1.2.3.233056.233056.56_r0028.233056.233056.56.0.0.50.50.139.584.388.0_fa4.76.50.60.50.40.56_fb_fh_fc0.28.30.0.28.30.50.61.61.50.50.50_fd16.0.31.233056.55_fe58.63_ff0000000000_fg1.39_pa0.0.0.0.40.50.85.85.0.0_t00_pb_pc_pd_pe_ga0_gb0_gc0.48_ge0000000000_gh_gf_gg_gd10000000_ha82.82_hb35.1.39.50_hc4.28.47.4.28.47_hd43.1.10.34_ia_if_ib_id_ic_jc_ie_ja_jb_jd_je_jf_jg_ka_kb_kc_kd_ke_kf_la_lb_oa_os_ob19.3.0.0_oc19.3.0.0_od_oe_of_lc_m00_n00_s00_og_oh_oo_op_oq_or_om_on_ok_ol_oi_oj_ad0.0.0.0.0.0.0.0.0.0
8-embarrassed=47**aa72.35.0.49.52.13.78.1.18.88_ab_ac_ba7_bb66.1_bc217.200.0.0.1_bd66_be180_ca64.0.15.75.15.0.34.0.33_cb0_da1.0.0.100_db_dd9.1.30.19.64.50_dh7.43.50.50.0_di5_qa_qb_dc36.2.2.2.2_eh4.233056_ea10.233056.223565.53.0.0_ec_ed15.20.0.1.233056.56_ef1.2.3.233056.233056.56_eg1.0.3.233056.233056.56_r0028.233056.233056.56.0.0.50.50.139.584.388.0_fa4.76.50.60.50.40.56_fb_fh_fc0.28.30.0.28.30.50.61.61.50.50.50_fd16.0.31.233056.55_fe58.63_ff0000000000_fg1.39_pa0.0.0.0.40.50.85.85.0.0_t00_pb_pc_pd_pe_ga0_gb0_gc100.0_ge0000000000_gh_gf_gg_gd10000000_ha81.81_hb15.1.45.28_hc0.66.47.0.66.47_hd35.1.44.78_ia_if_ib_id_ic_jc_ie_ja_jb_jd_je_jf_jg_ka_kb_kc_kd_ke_kf_la_lb_oa_os_ob19.3.0.0_oc19.3.0.0_od_oe_of_lc_m00_n00_s00_og_oh_oo_op_oq_or_om_on_ok_ol_oi_oj_ad0.0.0.0.0.0.0.0.0.0
8-excited=47**aa38.34.0.24.47.38.34.0.24.47_ab_ac_ba58_bb63.1_bc217.200.0.0.1_bd65_be180_ca64.0.15.75.15.0.34.0.33_cb0_da1.0.0.100_db_dd9.1.30.19.64.50_dh7.43.50.50.0_di5_qa_qb_dc36.2.2.2.2_eh4.233056_ea10.233056.223565.53.0.0_ec_ed15.20.0.1.233056.56_ef1.2.3.233056.233056.56_eg1.0.3.233056.233056.56_r0028.233056.233056.56.0.0.50.50.139.584.388.0_fa4.76.50.60.50.40.56_fb_fh_fc0.28.30.0.28.30.50.61.61.50.50.50_fd16.0.31.233056.55_fe58.63_ff0000000000_fg1.39_pa0.0.0.0.40.50.85.85.0.0_t00_pb_pc_pd_pe_ga0_gb0_gc100.0_ge0000000000_gh_gf_gg_gd10000000_ha100.100_hb41.1.33.28_hc0.66.47.0.66.47_hd24.1.84.78_ia_if_ib_id_ic_jc_ie_ja_jb_jd_je_jf_jg_ka_kb_kc_kd_ke_kf_la_lb_oa_os_ob19.3.0.0_oc19.3.0.0_od_oe_of_lc_m00_n00_s00_og_oh_oo_op_oq_or_om_on_ok_ol_oi_oj_ad0.0.0.0.0.0.0.0.0.0
8-wink=47**aa8.8.1.49.85.0.56.1.42.85_ab_ac_ba26_bb73.1_bc217.200.0.0.1_bd67_be180_ca64.0.15.75.15.0.34.0.33_cb0_da1.0.0.100_db_dd9.1.30.19.64.50_dh7.43.50.50.0_di5_qa_qb_dc36.2.2.2.2_eh4.233056_ea10.233056.223565.53.0.0_ec_ed15.20.0.1.233056.56_ef1.2.3.233056.233056.56_eg1.2.3.233056.233056.56_r0028.233056.233056.56.0.0.50.50.139.584.388.0_fa4.76.50.60.50.40.56_fb_fh_fc0.28.30.0.28.30.50.61.61.50.50.50_fd16.0.31.233056.55_fe58.63_ff0000000000_fg1.39_pa0.0.0.0.40.50.85.85.0.0_t00_pb_pc_pd_pe_ga0_gb0_gc83.0_ge0000000000_gh_gf_gg_gd10000000_ha0.94_hb41.1.40.39_hc0.25.47.0.25.47_hd19.1.31.25_ia_if_ib_id_ic_jc_ie_ja_jb_jd_je_jf_jg_ka_kb_kc_kd_ke_kf_la_lb_oa_os_ob19.3.0.0_oc19.3.0.0_od_oe_of_lc_m00_n00_s00_og_oh_oo_op_oq_or_om_on_ok_ol_oi_oj_ad0.0.0.0.0.0.0.0.0.0

