#Lux- strip, masturbation art

#face while stripping  33**ha89.89_hb50.1.0.100_hc0.70.50.0.70.50_hd4.1.49.49
#face when stripped 33**ha89.89_hb50.1.50.100_hc0.15.40.0.19.68_hd35.1.36.82
#color of face in brackets


#losing shoes
0-strip=47**aa9.0.1.49.50.19.94.1.45.50_ab_ac_ba78_bb4.1_bc150.500.8.0.1_bd94_be180_ca54.0.21.54.0.0.24.0.0_cb0_da1.0.0.100_db_dd0.1.28.34.8.50_dh1.12.50.50.0_di7_qa_qb_dc0.3.1.1.1_eh1.56_ea34.Ecc457.ECC457.56.1.0_ec_ed4.8.1.1.Ecc457.56_ef_eg_r0052.Ecc457.Ecc457.56.0.1.42.42.5.413.453.0_fa7.57.68.60.50.50.56_fb_fh_fc2.7EA5EB.55.2.7EA5EB.55.34.24.24.50.50.50_fd1.0.19.Ecc457.56_fe56.56_ff0000000000_fg1.54_pa0.0.0.0.40.50.85.85.0.0_t00_pb_pc_pd_pe_ga0_gb1_gc0.0_ge0000000000_gh_gf_gg_gd10000000_ha89.89_hb50.1.0.100_hc0.70.50.0.70.50_hd4.1.49.49_ia_if_ib_id_ic_jc_ie_ja_jb_jd2.19.19.2e273a_je_jf_jg_ka11.19.43.43.0_kb11.19.43.43_kc_kd_ke_kf_la11.B0B2B7.55.0.1_lb_oa_os_ob_oc_od_oe_of_lc_m00_n00_s00_og_oh_oo_op_oq_or_om_on_ok_ol_oi_oj_ad0.0.0.0.0.0.0.0.0.0
1-stripped=47**aa11.0.1.49.50.15.90.1.45.50_ab_ac_ba50_bb57.1_bc150.500.8.0.1_bd5_be180_ca54.0.21.54.0.0.24.0.0_cb0_da1.0.0.100_db_dd0.1.28.34.8.50_dh1.12.50.50.0_di7_qa_qb_dc0.3.1.1.1_eh1.56_ea34.Ecc457.ECC457.56.1.0_ec_ed4.8.1.1.Ecc457.56_ef_eg_r0052.Ecc457.Ecc457.56.0.1.42.42.5.413.453.0_fa7.57.68.60.50.50.56_fb_fh_fc2.7EA5EB.55.2.7EA5EB.55.34.24.24.50.50.50_fd1.0.19.Ecc457.56_fe56.56_ff0000000000_fg1.54_pa0.0.0.0.40.50.85.85.0.0_t00_pb_pc_pd_pe_ga0_gb1_gc0.0_ge0000000000_gh_gf_gg_gd10000000_ha89.89_hb50.1.50.100_hc0.15.40.0.19.68_hd35.1.36.82_ia_if_ib_id_ic_jc_ie_ja_jb_jd_je_jf_jg_ka11.19.43.43.0_kb11.19.43.43_kc_kd_ke_kf_la11.B0B2B7.55.0.1_lb_oa_os_ob_oc_od_oe_of_lc_m00_n00_s00_og_oh_oo_op_oq_or_om_on_ok_ol_oi_oj_ad0.0.0.0.0.0.0.0.0.0

#losing bra (40)
1-strip=47**aa37.58.0.49.50.37.58.0.49.50_ab_ac_ba50_bb4.1_bc150.500.8.0.1_bd4_be180_ca54.0.21.54.0.0.24.0.0_cb0_da1.0.0.100_db_dd0.1.28.34.8.50_dh1.12.50.50.0_di7_qa_qb_dc0.3.1.1.1_eh1.56_ea34.Ecc457.ECC457.56.1.0_ec_ed4.8.1.1.Ecc457.56_ef_eg_r0052.Ecc457.Ecc457.56.0.1.42.42.5.413.453.0_fa7.57.68.60.50.50.56_fb_fh_fc2.7EA5EB.55.2.7EA5EB.55.34.24.24.50.50.50_fd1.0.19.Ecc457.56_fe56.56_ff0000000000_fg1.54_pa0.0.0.0.40.50.85.85.0.0_t00_pb_pc_pd_pe_ga0_gb1_gc40.0_ge0000000000_gh_gf_gg_gd10000000_ha89.89_hb50.1.0.100_hc0.70.50.0.70.50_hd4.1.49.49_ia_if_ib_id_ic_jc_ie_ja_jb_jd_je_jf_jg_ka11.19.43.43.0_kb11.19.43.43_kc_kd_ke_kf_la11.B0B2B7.55.0.1_lb_oa_os_ob_oc_od_oe_of_lc_m00_n00_s00_og_oh_oo_op_oq_or_om_on_ok_ol_oi_oj_ad0.0.0.0.0.0.0.0.0.0
2-stripped=47**aa26.51.0.49.50.26.51.0.49.50_ab_ac_ba50_bb4.1_bc150.500.8.0.1_bd4_be180_ca54.0.21.54.0.0.24.0.0_cb0_da1.0.0.100_db_dd0.1.28.34.8.50_dh1.12.50.50.0_di7_qa_qb_dc0.3.1.1.1_eh1.56_ea34.Ecc457.ECC457.56.1.0_ec_ed4.8.1.1.Ecc457.56_ef_eg_r0052.Ecc457.Ecc457.56.0.1.42.42.5.413.453.0_fa7.57.68.60.50.50.56_fb_fh_fc2.7EA5EB.55.2.7EA5EB.55.34.24.24.50.50.50_fd1.0.19.Ecc457.56_fe56.56_ff0000000000_fg1.54_pa0.0.0.0.40.50.85.85.0.0_t00_pb_pc_pd_pe_ga0_gb1_gc41.0_ge0000000000_gh_gf_gg_gd10000000_ha89.89_hb50.1.50.100_hc0.15.40.0.19.68_hd35.1.36.82_ia_if_ib_id_ic_jc_ie_ja_jb_jd_je_jf_jg_ka_kb11.19.43.43_kc_kd_ke_kf_la11.B0B2B7.55.0.1_lb_oa_os_ob_oc_od_oe_of_lc_m00_n00_s00_og_oh_oo_op_oq_or_om_on_ok_ol_oi_oj_ad0.0.0.0.0.0.0.0.0.0

#losing panties (50)
2-strip=47**aa22.84.1.49.50.22.84.1.49.50_ab_ac_ba50_bb43.1_bc150.500.8.0.1_bd43_be180_ca54.0.21.54.0.0.24.0.0_cb0_da1.0.0.100_db_dd0.1.28.34.8.50_dh1.12.50.50.0_di7_qa_qb_dc0.3.1.1.1_eh1.56_ea34.Ecc457.ECC457.56.1.0_ec_ed4.8.1.1.Ecc457.56_ef_eg_r0052.Ecc457.Ecc457.56.0.1.42.42.5.413.453.0_fa7.57.68.60.50.50.56_fb_fh_fc2.7EA5EB.55.2.7EA5EB.55.34.24.24.50.50.50_fd1.0.19.Ecc457.56_fe56.56_ff0000000000_fg1.54_pa0.0.0.0.40.50.85.85.0.0_t00_pb_pc_pd_pe_ga0_gb1_gc51.0_ge0000000000_gh_gf_gg_gd10000000_ha89.89_hb50.1.0.100_hc0.70.50.0.70.50_hd4.1.49.49_ia_if_ib_id_ic_jc_ie_ja_jb_jd_je_jf_jg_ka_kb11.19.43.43_kc_kd_ke_kf_la11.B0B2B7.55.0.1_lb_oa_os_ob_oc_od_oe_of_lc_m00_n00_s00_og_oh_oo_op_oq_or_om_on_ok_ol_oi_oj_ad0.0.0.0.0.0.0.0.0.0
3-stripped=47**aa6.56.1.18.49.9.88.0.49.50_ab_ac_ba43_bb43.1_bc150.500.8.0.1_bd43_be180_ca54.0.21.54.0.0.24.0.0_cb0_da1.0.0.100_db_dd0.1.28.34.8.50_dh1.12.50.50.0_di7_qa_qb_dc0.3.1.1.1_eh1.56_ea34.Ecc457.ECC457.56.1.0_ec_ed4.8.1.1.Ecc457.56_ef_eg_r0052.Ecc457.Ecc457.56.0.1.42.42.5.413.453.0_fa7.57.68.60.50.50.56_fb_fh_fc2.7EA5EB.55.2.7EA5EB.55.34.24.24.50.50.50_fd1.0.19.Ecc457.56_fe56.56_ff0000000000_fg1.54_pa0.0.0.0.40.50.85.85.0.0_t00_pb_pc_pd_pe_ga0_gb1_gc51.0_ge0000000000_gh_gf_gg_gd10000000_ha89.89_hb50.1.50.100_hc0.15.40.0.19.68_hd35.1.36.82_ia_if_ib_id_ic_jc_ie_ja_jb_jd_je_jf_jg_ka_kb_kc_kd_ke_kf_la11.B0B2B7.55.0.1_lb_oa_os_ob_oc_od_oe_of_lc_m00_n00_s00_og_oh_oo_op_oq_or_om_on_ok_ol_oi_oj_ad0.0.0.0.0.0.0.0.0.0

#masturbation (65)
3-starting=33**aa18.84.1.24.49.13.88.0.49.50_ab_ac_ba50_bb29.1_bc493.500.8.0.1_bd29_be180_ca54.0.21.54.0.0.24.0.0_cb0_da1.0.0.100_db_dd0.1.28.34.8_dh1.12.50.50.0_di7_qa_qb_dc0.3.1.1.1_eh1.56_ea34.Ecc457.ECC457.56.1.0_ec_ed4.8.1.1.Ecc457.56_ef_eg_r052.Ecc457.Ecc457.56.0.1.42.42.5.413.453.0_fa7.57.68.60.50.50.56_fb00_fc2.7EA5EB.55.2.7EA5EB.55.34.24.24_fd1.0.19.Ecc457.56_fe56.56_ff0000000000_fg1.54_t0_pa0.0.0.0.40.50.85.85.0.0_pb_pc_pd_pe_ga0_gb1_gc65.0_ge0000000000_gh_gf_gg_gd10000000_ha82.82_hb50.1.0.100_hc0.68.64.0.68.64_hd20.1.50.14_ia_ib_id_if_ic_jc_ie_ja_jb_jd_je_jf_jg_ka_kb_kc_kd_ke_kf_la11.B0B2B7.55.0.1_lb_oa_os_ob_oc_od_oe_of_lc_m0_n0_s0_og_oh_oo_op_oq_or_om_on_ok_ol_oi_oj_ad0.0.0.0.0.0.0.0.0.0
#(75)
4-heavy=33**aa11.88.1.45.49.56.59.1.49.50_ab_ac_ba50_bb39.1_bc493.500.8.0.1_bd39_be180_ca54.0.21.54.0.0.24.0.0_cb0_da1.0.0.100_db_dd0.1.28.34.8_dh1.12.50.50.0_di7_qa_qb_dc10.3.1.1.1_eh1.56_ea34.Ecc457.ECC457.56.1.0_ec_ed4.8.1.1.Ecc457.56_ef_eg_r052.Ecc457.Ecc457.56.0.1.42.42.5.413.453.0_fa7.57.68.60.50.50.56_fb00_fc2.7EA5EB.55.2.7EA5EB.55.34.24.24_fd1.0.19.Ecc457.56_fe56.56_ff0000000000_fg1.54_t0_pa0.0.0.0.40.50.85.85.0.0_pb_pc_pd_pe_ga0_gb1_gc75.0_ge0000000000_gh_gf_gg_gd10000000_ha66.66_hb50.1.11.76_hc3.84.23.3.84.23_hd41.1.42.100_ia_ib_id_if_ic_jc_ie_ja_jb_jd_je_jf_jg_ka_kb_kc_kd_ke_kf_la11.B0B2B7.55.0.1_lb_oa_os_ob_oc_od_oe_of_lc_m0_n0_s0_og_oh_oo_op_oq_or_om_on_ok_ol_oi_oj_ad0.0.0.0.0.0.0.0.0.0
4-finishing=33**aa13.90.1.16.49.13.90.1.16.50_ab_ac_ba50_bb41.1_bc493.500.8.0.1_bd41_be180_ca54.0.21.54.0.0.24.0.0_cb0_da1.0.0.100_db_dd0.1.28.34.8_dh1.12.50.50.0_di7_qa_qb_dc84.3.1.1.1_eh1.56_ea34.Ecc457.ECC457.56.1.0_ec_ed4.8.1.1.Ecc457.56_ef_eg_r052.Ecc457.Ecc457.56.0.1.42.42.5.413.453.0_fa7.57.68.60.50.50.56_fb00_fc2.7EA5EB.55.2.7EA5EB.55.34.24.24_fd1.0.19.Ecc457.56_fe56.56_ff0000000000_fg1.54_t0_pa0.0.0.0.40.50.85.85.0.0_pb_pc_pd_pe_ga0_gb1_gc80.0_ge0000000000_gh_gf_gg_gd10000000_ha26.26_hb50.1.100.100_hc3.21.0.3.21.0_hd50.1.40.52_ia_ib_id_if_ic_jc_ie_ja_jb_jd_je_jf_jg_ka_kb_kc_kd_ke_kf_la11.B0B2B7.55.0.1_lb_oa_os_ob_oc_od_oe_of_lc_m0_n0_s0_og_oh_oo_op_oq_or_om_on_ok_ol_oi_oj_ad0.0.0.0.0.0.0.0.0.0
# (50)
5-finished=33**aa9.86.0.16.49.9.86.0.16.50_ab_ac_ba50_bb48.1_bc493.500.8.0.1_bd48_be180_ca54.0.21.54.0.0.24.0.0_cb0_da1.0.0.100_db_dd13.1.28.34.8_dh1.12.50.50.0_di7_qa_qb_dc90.3.1.1.1_eh1.56_ea34.Ecc457.ECC457.56.1.0_ec_ed4.8.1.1.Ecc457.56_ef_eg_r052.Ecc457.Ecc457.56.0.1.42.42.5.413.453.0_fa7.57.68.60.50.50.56_fb00_fc2.7EA5EB.55.2.7EA5EB.55.34.24.24_fd1.0.19.Ecc457.56_fe56.56_ff0000000000_fg1.54_t0_pa0.0.0.0.40.50.85.85.0.0_pb_pc_pd_pe_ga0_gb1_gc50.0_ge0000000000_gh_gf_gg_gd10000000_ha86.86_hb50.1.50.100_hc0.60.3.0.37.29_hd2.1.42.32_ia_ib_id_if_ic_jc_ie_ja_jb_jd_je_jf_jg_ka_kb_kc_kd_ke_kf_la11.B0B2B7.55.0.1_lb_oa_os_ob_oc_od_oe_of_lc_m0_n0_s0_og_oh_oo_op_oq_or_om_on_ok_ol_oi_oj_ad0.0.0.0.0.0.0.0.0.0

